Error in line 1:  D2 2 1 1 
Error in line 3:  C2 7 0 0 
Error in line 5:  T1 7 1 1 1 
Error in line 6:  T0 5 1 2 1 
Error in line 7:  R1 2 2 2 
Error in line 9:  R2 3 2 2 
Error in line 10:  R0 6 1 1 
