Error in line 3: 	  	 		 R9  10 	     	4 		10	
Error in line 12:  			   		R9		 1  	4    3				 	
Error in line 21:   	 	T6 	  	10			  	  2	8		  	 7
Error in line 24:     C1  		6  		 	8			  4
Error in line 25:   				 R5	 7			 		1 1
Error in line 27:     T8	   		7 8	  		8    6 	   	
Error in line 30: 		 	  C3	 	 	 	1		  		 		210			 
Error in line 32: 	  	C5		   4	 8  			1    		
Error in line 33: 	D4 	 6 4    6	 		 
Error in line 34:  		 C6	 			 	7	  	4		     4
Error in line 35:  R7		  	8	 			8 	 	 2  	 
Error in line 37:    R0	   5 		 	 1    		 6			 	
Error in line 40: 	 			  D6 		6 5		 		 2	  		
Error in line 41:  	C5     	3 		37	   		
Error in line 42: 			R2								9	   	1	  2 		 
Error in line 45:   	C3			 7 3 			 2	 	 
Error in line 46:  		   D2	 	  	3   6   			 		5	  
Error in line 47:  	 	  C8 		 10		6 	 	   9	 	 
Error in line 48:     	 C3 			 2		  7	9		 
Error in line 49: 	 D8					 8 	 		 	109 		 	
Error in line 50: 	  		 D2  	 	89		 2 
Error in line 51: 	  D2	 	7 	  6 4 
Error in line 52:     T7   	  6 	 	  7		 8	 2 	 	 	
Error in line 53: 	C1 	 				1	7	  	4  
Error in line 54: 	 	T4	8 	6	4 	 		 4 	  	 
Error in line 55: 	D6		1  8	 					2 		
Error in line 56: 	  	 R2  	1   	6 		  5  	  
Error in line 57:   	  C8			910 	 		1 	
Error in line 58:  	D8	 	 		3  	6 10		 
Error in line 59: 		 D6    5 	 	10 		3
Error in line 60: 	 	R2	 			 4		 		1	5	 
Error in line 63:  				 D7 		 		  3		    	7	    	6 	
Error in line 66: 	  R7	 4	 	 		8	 		9    	  
Error in line 67:    	T3	1		  	 	 10	 1		4  
Error in line 68:  				C8	3	  	2		 		5	 
Error in line 70:  T1   7 	8  		8  	 8	 	
Error in line 71: 	D4  	4  		5					1	 	
Error in line 72: 		R3	 	8 4 		   		5
Error in line 73: 	C8 	5  5				10	    
Error in line 75:    R4	  				1  10  	2  			
Error in line 76: 		C0      	10 	   	 7 		 	2
Error in line 77:  D8	3	  		1   6	  
Error in line 78: T7 	 1	 2		 6 		   2    	 
Error in line 79:      	 T3  	 			9	 	 8	9			 9	   	
Error in line 80:  		D0  8		  		1 		 	1 						 
Error in line 81: 		  	 		D1 	10			7		 		3	  
Error in line 82: 		 		  D7	 	 	3  		 8 		   3		   
Error in line 83:   R2	9 9 		4 	 
Error in line 84: 				 R4	64	 	  	8	  	 		
Error in line 85:  	R7		  7  10 	   8	
Error in line 86:  D8		 	9		5		  6 	
Error in line 88: 	T2	 			 10		7	 		 			10 	 	 	4			 	   
Error in line 89:  			 	T1   		2  		10   	  		7	 6  
Error in line 90:   		 	R2 	 		4  10  		9	   	    
Error in line 91:  	C1 		   109  8	 		 	
Error in line 92: 	D4  7 	 	 	5	 			2   	  
Error in line 93: 	  			D8  	7  			 		10   	 1    
Error in line 94: 	 	   R9 	3	 	2    		 10	 
Error in line 95:    	 	D5  	    4 		  5	  9		
Error in line 96: 	 	 D6  		 1	 	  3					 	9	 	 
Error in line 97:  T0 		 	  2			 2 	 	 54	 	
Error in line 98:   C3 			 	3		2	7  	
Error in line 99: 	 			C6	  	  7	   	10	2 
Error in line 100:  				C0 10 2			  		   10		 	
Error in line 101:  			 D5		    3				  3 		 8		  	 
Error in line 102: R3  2	    4		    	 2    	 
Error in line 103: 		D4		 	 6   	  	 5 			9 	 		 
Error in line 104:   	   	R77	  	3 10 
Error in line 105: 	C8  	    3  	4  4 	
Error in line 106:   			  	C7	7    		 2	   	  		3	
Error in line 107:    T5		 	 		  810 	8 	  			8   			 
Error in line 108: R3	    	 6 	  3	    2	
Error in line 109: 		 	 T5		 8	  	3	   		8 4
Error in line 110: 					 C6			 3 		 	7			 		 	7 
Error in line 111:   		 	R9 	 10			3 	6
Error in line 112: 	T3	  		5				  9		 	 3 			8 
Error in line 113:   		 D6  5 	  		5     	  6	   
Error in line 114:  C0	4 		  	5 		 	 5 		 
Error in line 115: 					R8 5	6		  	 		1 	  		
Error in line 116:   	C7 3	  		1		 8 	  		
Error in line 117:  R0 1   		  10	 3
Error in line 118:   	 T9 				1  	 6	  	 	3 10	 
Error in line 119: 					T6 	 6 	  	 9   6  		4  
Error in line 120:  	   R2 			5 		 	9	  	10    	 	
Error in line 121:  	  		 C0				 3	 				8 			 	3 
Error in line 122: C1	8		  3	 3		 	  
Error in line 123: 			  T4 		 		10	 			 5   	8	6  		
Error in line 124: 				  C5  	3	 		  		2			6	 	
Error in line 125: 	 		T1  6		  3	9					1   		 	  
Error in line 126:  T2	 	8 5		   7	    	9  	
Error in line 127: 	 			C0		  		3   9 			10 
Error in line 128:  		 T9	  	 	1 	 	 5   5	 8		  
Error in line 129:   			 D6 	 		5    			1			2	
Error in line 130: 		D35  	7	  10				 
Error in line 132: 		 		 C3   6	 				  2		 5    
Error in line 133:  T1	10   		2			 	 	 25 			 	
Error in line 134: 	T6  	 3 			 8	 	1	 	 2  
Error in line 135:  		 R0		 	4		9	 	7 
Error in line 136: 	  		 		D9  	 		6		 10   10		   			
Error in line 137:  		 D3		 10		9				8  			 
Error in line 138: 		T3	    1 		 	  	1   8	 	9  	   	
Error in line 139:  		 C3 7 		 	7 		   	7	     	
Error in line 140: 		 	R8  			  10  			8   5			 
Error in line 143: 	 D8		 	10		1    	 	10 	 		
Error in line 144:  T7					  5		   52	 2	 
Error in line 145: 			 D1		8  			3 	  9 
Error in line 146: 		     C4  	 			3	 	 	  1	3 
Error in line 147: 	R1 							29   	10   	   
Error in line 148:  		R876	  9				
Error in line 149:  D4	 	 		18 	8	 
Error in line 150: 	 	 R5 	  	9 	5  		  	 9 	 	  	
Error in line 151:  R7	 	  	  	4 	 	  2	  	 		9 		 	
Error in line 152: 	 	 	C7 	4	   4			 	9	 	  	
Error in line 153: 	  D5 	   	10					10	 	 5	
Error in line 154: 	C79	 3		7  					
Error in line 155: 	  D6 	9  		10	 			1	
Error in line 156:  						 		D5	  	 3	9	1 	
Error in line 157: 	C9 		2			5 6		 	 
Error in line 158: 	T9 	9			9	   5				2 
Error in line 159: 					T9	 	 3 		 1  	 2 6					  	
Error in line 160: 	 	 R8 	6 			 4		 				10   
Error in line 161:  	  	 T9  		10	2     	7  	  2 	     
Error in line 162: 	  T1   3		  				69 1 	
Error in line 163: 	  T6	 		  	10		 			6	9		 9 			
Error in line 164: 		 C1	 		 2	 		  	2   3
Error in line 165:      C3	   3	  	 	5 7		 			
Error in line 166: 	  T1 		 1    2			   		2   			4	  	 	
Error in line 167:   		  R9	 10		 	4	 	8 		 	
Error in line 168:  		T1		  6		  6		 	3   	 	 3		  
Error in line 169:  C9		 	56			 	  	 1	 	   		
Error in line 170: 	R4	     8 	87
Error in line 171:  		C2 	4 		10	  	2 	 		
Error in line 172: 	 	 	D6   8  	 	7		4 		 	
Error in line 173:   T6  9				5				7  		3 	  
Error in line 174:  	 D7 		9	5 6		  		
Error in line 175: 	   T5    	2	  	6	 	3					6	 
Error in line 176:  	 	 T4		  4  10 			 1 		    6  	  		
Error in line 177:  C5  	 	  	3  	 	 2 5 	  			
Error in line 178: T67	 1 		 	3  3	
Error in line 179: 					  T2		  	 	4 		1  	 8  10		 
Error in line 180: 	 	 	D9 	 		 9			10 	 	 	   6
Error in line 181:  		C9  5 	9   	4 		 
Error in line 183:   			R6 				 3  	 	4 10 		
Error in line 184:  		T0  		   7		4  		9 				  7		 		
Error in line 185:         R5  		2		 2   			 	 5  			
Error in line 186: 	 T8	  3 			 	5	8		  	  10  	
Error in line 187: 		 		T7		41 			3 	  1			
Error in line 188:  T6			 7			 		  5	     3	    		6 
Error in line 189: 	 D6   3	 	  5   		9	
Error in line 190: 		 	  R5		6				  9	8		
Error in line 191:   	 C2 				 		1 			6	   6   
Error in line 192: 	T5		  	5 9		  	9		 	 7	 
Error in line 193:  			C5 2	    		 	9		6 	  	 	 
Error in line 194: 		  T9	 		10 10  	  	8 				7 	
Error in line 195:  	 	C6	 	1 	  	   8   		   5  	
Error in line 196:   	R8 	 	2	 4 10	 	    
Error in line 197:  		R6	 10	3 3 	
Error in line 198:  	    T5 				2 		6	4 	 				9				  	
Error in line 199: 	 D3 	 		10 1	  2 	  
Error in line 200: 	  D2	 	  10				 9	  		7		
Error in line 201: 	R5	 	 	1	 	 28	  	 
Error in line 202: 				R4		 	  				6 	1		 6  		
Error in line 203: T2	 9 	 17					3
Error in line 204: 	 	 R4 5    	4 4	 	
Error in line 205: D6  			9 	 4  6
Error in line 206:   C7			 		9	   7 		 	 	2	
Error in line 207: 	 	 C4	 	3		 	 	8			1 	
Error in line 208: 	     D6				   6	6 	 	 5 		 		
Error in line 209: 	 	 		D7		8	  3		 			  10  	
Error in line 210: 	 R5	  	 5 			9   10 	 	 
Error in line 211: 		 	  C5  	4			8    1		 
Error in line 212: 	 D1 51	  	3   
Error in line 213: 	  R4			 3 			5    	3  				 
Error in line 214:   	C0 10	  7	   		  4  		
Error in line 215:      		C4				4 		 	9	10   		 
Error in line 216:    T5		 2	 1 			 8    		8  	
Error in line 217:  C5	   4			 	6	 	 10		
Error in line 218:  	  	T7 					7   		  	9			  	 			9 	8 
Error in line 219: 	   	D4		  	 	5	   	3    	4	
Error in line 220: 	  D5			5	3	2 		 
Error in line 221:  	D8	  	3		4 					4     	
Error in line 222:   D9 4   1	 	 10		 
Error in line 223:   	T1			 	6   		2	10 	8	  
Error in line 224:  	D7 3 	    	9  	 	 3
Error in line 225: 	 	   D1 	9 	 	 	 8   	  10	 	
Error in line 226:  				C7	4					  	8			 		10 	 
Error in line 227: 	D3	6				10  	3		  	
Error in line 228: 		 D3	 	   	14	8	 					 
Error in line 229: 	  		R5			 2		 2		 		  		6
Error in line 230: 			  T3  	 		28	 	2 	8	 	
Error in line 231: 			D9 		4 	8	 	  4		  			  
Error in line 232: 	 		 C0			8  	     9		1				 
Error in line 233: 	 		  	D4		1	  9 8 
Error in line 234: 	R2  	 6   	10 		 9
Error in line 235: 	C3  		 		5		 	 8 			    5	  
Error in line 236: 	 	 R22	 1 1
Error in line 237:   		C7	 	 		5   	9	  	4  		 	 
Error in line 238:    	R8			 		1 	3	 7 	 	 
Error in line 239: 		D3 	 	 		4 	  9 4 			 	
Error in line 240: 		  			C9 9	4				5  	   
Error in line 241: 	 		 D9	  		   9 		8			5  			  
Error in line 242:   R8 					7		7 	3	
Error in line 243:   		C9   	 3	6		3	 			  
Error in line 244: D8   	 10 			 4	 1			 	  
Error in line 245:   C9 	4 		 	66 				
Error in line 246: 		  T8	 1 				2 	1	1					 	
Error in line 247: 		D3  		3 7	   		10  	
Error in line 248: C6		 4			 8  		1 
Error in line 249:   R2   6      5 		 	 2 		 		
Error in line 250:    	C0					4	  	  6 			 8		 
Error in line 251:    T8	 		 8		 10 		1		  	9 	 
Error in line 252:  	 				R4		 6    1		7	 	  
Error in line 253:   			R5	  	 	 5 	7	  8   
Error in line 254: 		C7	 10	1	7    
Error in line 255:  T33	   	2	   		4	 	7		
Error in line 256:  C7	  7 4						 9					 		
Error in line 257: 	 	T3  1    6	 	  		3  	6 
Error in line 258: 			T0   	7 10	 	 2  		   1   
Error in line 259: 	  	 			R8  6  	  		1	1	 
Error in line 260:     D3 9    	 10  	1  
Error in line 261: 				C3		2	   	8	  			3 		
Error in line 262: T1 3	 	 		6	10 		 	2		
Error in line 263: D6 	 		2 	7		1		
Error in line 264: 	 	 D4    		2				3 		 		  3
Error in line 265:   T6	 8 	 	 1	  	 	7 	 5 		 			  	
Error in line 266: 	  	 R0	4 	10   	 	  7 		
Error in line 267:  C5 		  			8		2		   		6
Error in line 268: 	R4  		  6	   7	4 	
Error in line 269:   	  T3			4 6			 	1	7	 
Error in line 270: 		 	  R8  			5		 1 	   6 
Error in line 271: 	   	R9		  			1			9			3		 	  
Error in line 272:  	  C1  6    2		  		 10	
Error in line 273:    R8  5     6      8  
Error in line 274:    D5				 4 		 	 3    	9	  		 
Error in line 275:  	D3  	1  		4		6			 	   
Error in line 276: 		  D6 1	   3	9 	  	 			
Error in line 277: 		T1		 1	 3		 	59			 			
Error in line 278:  	T7		3 4		 		1	  		6	
Error in line 279: 		 	R0 	 	4	    7 	2	 	  	  
Error in line 280: 						 T1 10	3 		  	7  	 	 7		 	 
Error in line 281:  	  T9	 8 10 10 		  		7 
Error in line 282: 	C7		 		   	5  	 	 1 	 7 
Error in line 283:  	 			R3   5		 		7		 	6	
Error in line 284: 	 C6		  9 	 	7   1	    	 
Error in line 285:  		  R3		   10 	  6 2 
Error in line 286: R0   5		   		 5  8	
Error in line 287: 		C9	 			  	2					 8		7  	 
Error in line 288: 	  	 C6  5 	  		7    	 3 	 
Error in line 289: 		 C6	8 	 	3	2	 		  
Error in line 290: R1 			 	 9	 9 		 4	 
Error in line 291: 		 	  	C3 				5	   10  7	  
Error in line 292: 	 T2		 	 	1 7		 	8 4 			 	 	
Error in line 293:  C1   7						7	6   				
Error in line 294:      	 R9 		  1 	3  	 		 1		 	
Error in line 295: 	  			R9	 	 1	  	6		 3
Error in line 296: 	    R2 			  2 		 1	3		
Error in line 297: 		 C0 8 5 	 	 6	 	  	 		
Error in line 298: 		R3		4		 	 8 	10						
Error in line 299: 			 C0				 1	 	88  	  	 
Error in line 300: C9		5		5 	10
Error in line 301:  	C7 			 	6 9	2 	  	
Error in line 302:  T0	88 		 9		 	9  		 	   
Error in line 303: 		 	R8	 			2	 		9				5 
Error in line 304:  				T3	 2     7 		9 	   5   
Error in line 305:       	T7   710   7  8		  	 
Error in line 306:  R0			 	9		 	 1	    3 
Error in line 307: D25	2		  2	 
Error in line 308:   		 C6  	4						10 	   3  		
Error in line 309: 		 		 R3  2	 	4	 	2		
Error in line 310: 	 R1	 7 6  	 2  	 			
Error in line 311: 	 		 C8		 		 1  		5   8 
Error in line 312:  	 		 		 R3		 10		8		3	
Error in line 313:    		R710	  	5 		3  	 
Error in line 314: 		D2  	 1			  	7	 	   8
Error in line 315:  	T6			8 10			 	 8	 		 	  	2 
Error in line 316:  	C7				 	 	7  7  1			 
Error in line 317:  	  D0  1	  		 	  10  	6   	
Error in line 318:  D2  	 	10 	   	10 9	
Error in line 319: 	D9			7	29		 	 	 
Error in line 320:  R9				1		9		  	7 	 	
Error in line 321:   	 	T1		6 2	 9		 	3		  
Error in line 322: 		 			 C3    	  	1  		7 2		  
Error in line 323: 	   		C3 8		7	 		9	 	 
Error in line 324: 	 	T2 	     	3	  6 2 	 		9
Error in line 325: 			 	R9 		   2		 4	 				 10
Error in line 326: 	C5	   	1 			1        7 							
Error in line 327:     C3    6 	   6		10 	 
Error in line 328: 			 R1 				 		6		  		 	5	5	    			
Error in line 329:   R4		  	   1  	 	 3	     9 		 	 	
Error in line 330: 		 R8 3		  1		 1  	 		 	
Error in line 331: 		  	R4					  4	  	   4		3 	 	 
Error in line 332: 	 	    	R6		  	2 		  	3	1	 
Error in line 333:  D2 1	   	9 			1  			
Error in line 334: 	  	 		C8 		 7  			8 9 
Error in line 335:    	 			D4	7						7	 	  4		
Error in line 336:  	 		T9 	 	6 	  		 3 	  			6	 	  5   
Error in line 337:  T3   	3  	  10					4	   		2 	
Error in line 338:  D3		9   	 7    	 4		 	 	
Error in line 339:   			T5  	2 			 	1 	6 	      2 		 
Error in line 340: 	D1	9	6			3	 	 	
Error in line 341:   D9 6  	 			8  10 	  	
Error in line 342:  D1 		106 	 	10 
Error in line 343: 		T4 	 	1 	 3	7   	5 	
Error in line 344:  		C8 	  9	   2   			7	 	    
Error in line 345:  	 		R9  				 5  		 			5	  4						 
Error in line 346:   		T6	4  	  1	1    9  	 
Error in line 347:   		C2	    			2	 8	   6	
Error in line 348:  	  			T8 	 	6   			1 	 4 10 	  
Error in line 349: 	R0	  		  4   			9 				 	5  	 	  
Error in line 350: 		 T9	  1	 1 1 	 4	
Error in line 351:    		 D2 			8	6	 	2	
Error in line 352: 			 	D9 			3	  4	 	 3  		
Error in line 353:  		C1  7	   	2 	3 
Error in line 354:  		 			R3		 	26  	 	  	7  	 	
Error in line 355:   	 D2 	 3	8 5	
Error in line 356:     D2			5  	  	 	9    6   
Error in line 357: 		D6			 7	    8   	9	 
Error in line 358:  	 	  D0			5	 8	 			4   
Error in line 359: 			D0			 1		    	10			4		 	 	
Error in line 360: 	D9 	 3 	   2  		6 	 
Error in line 361: 	T0		9 2	7   1 					
Error in line 362: 						R83 	 1 		3	
Error in line 363: 			 R09	8 	10	 		   
Error in line 364: 	 	T7	    	108  		7 4 	 	
Error in line 365: 	C0  4 	3 					 3  
Error in line 366: 	 	  R4 			  		8 							7 		8	
Error in line 367: 		  		D7  3		 	 9		 	 	2 			 
Error in line 368:  T4	  	9 6	    9	  4	  	
Error in line 369: D3	9 		3 7 
Error in line 370:   C6 2 			 59				
Error in line 371:  				 		T9 	   	10		  	3	7	 6		
Error in line 372: 	 	  		 T8 	7	  7	2	 9 		 		 
Error in line 373: 	D0 	 			7 	8		10 	
Error in line 374: 	C3 		2 	  7	4 	 			
Error in line 375:  D0				1 	 		2 	10 	 
Error in line 376:   		D7	  		 5 		7	1	 	
Error in line 377: 		 			T4	 	8	 	4			 4 3	  			
Error in line 378: 		   R5 	  		1 	10 4 	 	
Error in line 379: 					  	D5 	 	  6  			1    4					  
Error in line 380: 				R6	1010  	1	    	 	 
Error in line 381: 	   	 C5   	5 7 10  	 
Error in line 382:  	C5	   6  	 5 			9  	 	
Error in line 383: 	 	 	 	D2  			6     	8 	 	9 
Error in line 384: 				 C8			5 		  		 6 	4	 
Error in line 385:  		  T63 		 	 4  8		 	    8  		 	 
Error in line 386: 	 				 R0 	  3					 		4  10 	
Error in line 387:   		C3 		 6     1  2 		  
Error in line 388: 		T9	 	  	 5 			9		 				9    2 	 			
Error in line 389:   		 		T7 		1 	  10 		  10	   5	
Error in line 390:  R5	   	 3			 	105				
Error in line 391: 	C9	  	3	  	4		 9 		 	
Error in line 392: 			T2			3		 				 3	  	 1		    2 	 	 	
Error in line 393: 	D9 	 		  8						5    		9 
Error in line 394: 		R3   2	10 	 	 	8	
Error in line 395: 				 R6      5 4					1  			
Error in line 396: 	  T7							8 	 			4   		 	4	  3			
Error in line 397:  			 D7		9 		  	8 	   3		  
Error in line 398:  			 R5 		4 		5 				6  
Error in line 399:  D6 			 9			 	 	10 	  4	
Error in line 400:   		 	  R2	 2  	  8   		6		 	 
Error in line 401:  	C2  		 	7  	 4 	 8   
Error in line 402:    R5		 	1   7 	   	10	  	
Error in line 403: 		D0 				7		1 			  7 		
Error in line 404: 	 R3   		2	   1  	6		 	
Error in line 405: 			 R7  	 	 9					10 10	  		 
Error in line 406:    	 C8     10		   1 9	 	 
Error in line 407: 				C1  	 9		 		 	10   	8 
Error in line 408:  				R9 	7  	    	9	6	 
Error in line 409: 		  D6 3   	6   		10  	 	
Error in line 410: 		 		  T5 4 	9  1 	 10  	
Error in line 411:     	C0  7	 	  	7	  				10 	 
Error in line 412: 	   	D4 7	 		 6		3					 
Error in line 413: 	T4  7	 8		3 	 		  5 	  
Error in line 414:     C9 5 	  3 	 3 	 	
Error in line 415: 	D4 		2 7 1			 
Error in line 416:  C7	 8	1				3	
Error in line 417: 	R6				  9 2 	  9 	 	
Error in line 418:  T23	  	 	8	    7	  	  	7	   	
Error in line 419: 	 	  	 	C5	   	2	  		 		10		 	  5		
Error in line 420: 		 	    	C810	 	8	  1		  
Error in line 421: 	R3		 	10   8 7   		 
Error in line 422: 		  T1 6	 		1		 9  		8  		  	
Error in line 423:  C5   7	   	  1  	 	4  
Error in line 424:   	  		D9 10      1	   8 					
Error in line 425: 	 D9	7	  10  10			
Error in line 426:  				 	  D1	  1	8 	4 
Error in line 427: 		 		T0 	  		5		 1    	 			7   	 8	 	 
Error in line 428:   D7  	6   		1  	 4 				 
Error in line 429:  R2		 10 			   1 	 	10   	 
Error in line 430:  	 		R8	 				3		  5	6 
Error in line 431:    		 D4 	 		9 6			 		 6	 	
Error in line 432: R4    5  				 	9 	 	1	  
Error in line 433:  		C0 	6  	 		 	4	1  
Error in line 434:   	T2   	 	  1	 		10 	7 	 				9	
Error in line 435:   C5 	4 4			 7   
Error in line 436:   	 C55	8			  2
Error in line 437:  	 	  T2 4  	 3					2  		 	1 					  
Error in line 438: 		 R9	 	 6 		 28	 	
Error in line 439: 		 			R1 7	  2  			 1
Error in line 440: D7	 	  44    10		 		
Error in line 441:      	R8     59  					3				   
Error in line 442: 			C9	    	9 		8  	 	10	  	 			
Error in line 443:     R4 			7  7  		5  
Error in line 444: 		 T5 		10 	7 	 	  	3 6	  	    
Error in line 445:     			R7  	5	    	 2	   7				
Error in line 446: 	 	 	 	T1	 2 	3	 	 	 3	4	  		
Error in line 447:   		C7		 	7	 5	1		
Error in line 448:   		 R6 	   7   			9   	2
Error in line 449:    	C7			 	6				6						1			 			
Error in line 450:  		   		R8 		 	10 			  	 6  	2	 	   
Error in line 451:  C4	3  8	   	3 
Error in line 452: 			R1	 6	  	3	 10 	
Error in line 453:    D6  1		 4 		5	  		
Error in line 454: T6 		 9 	  5		 		1	 3	 	
Error in line 455:  C3			2  	 	6	5  		
Error in line 456:  		   D7	 			 	1	 		 8		  	9   	
Error in line 457: 	  	R0	2		 			8	   	8	  
Error in line 458: 				D6	 3   	4 1 	  
Error in line 459: 		R8   		 10		 5 		 	 	 5 			 	
Error in line 460:  R5    7	  9		8  
Error in line 461:  	 	T1	4   	 	6	 	  1	 	 		8
Error in line 462:  	 		 D5 				  3  9 			1	
Error in line 463: 		 	T0	10			 8	   8     4  
Error in line 464: 	 	  		R3  	 8  	3  8			    
Error in line 465: 	 	  	T4	 		 3	  		10 				7			 4				 	
Error in line 466:   	R1	 				6    		4	  		4	
Error in line 467:  C4  					8    	1	 	10  	
Error in line 468:    R2   5	7			 	 6 
Error in line 469:  	 	R8	   9 		 	5    	 4		 		 
Error in line 470:   	 R0 	4  		 5			 			1	 		
Error in line 471:   	T8			2 	4		5  	 1  	   		
Error in line 472:   	C3 	 		 		7	 	 		  10			 1	  		 	 
Error in line 473: 	 	  T1 		4 		  3 	9	9  
Error in line 474:  		T6		  	 1		 6			 2				2		   	
Error in line 475: 		  	 C0   		7 6 		 6	 		   			
Error in line 476:  	 D7	1 		 1			  1	 	    
Error in line 477:  		 		T2 		  	10 		6   1		10 	     
Error in line 478: 			  D7		  9	 6	5			
Error in line 479:   D7			  	  8		 7 1			 	
Error in line 480:   				T4 8 	4 	2	1    	
Error in line 481: 					C4   	 		3	 9	   8 	
Error in line 482: 	 	 R8  5	10 10   	
Error in line 483: 	D0    	 9	  	 8				 6 
Error in line 484: 	   		 		T9  1       	3		 	 8	 		 10  		
Error in line 485: T5		 	 	9 	 	4   10  		 5  
Error in line 486:  C8 6		   3  	 6	
Error in line 487:   	  	C6 		8			7 			  	 7	    
Error in line 488:  	 	  	D3	6  	 1 	1 		  	
Error in line 489:   	 D5 			 3	1 10				
Error in line 490: 		   D8	10	1 		6 		 	
Error in line 491:  	 	R3	  10 		 	 5			  		2		   
Error in line 492:  	 	R7		  		 4		 		 8			  	 7				
Error in line 493: 		R0 		5			2					 	3	
Error in line 494:  	 R2 10	   	3   4 
Error in line 495: 		 			D4	       102 7		
Error in line 496:   R2  			 3			  	7	   	4 
Error in line 497: 	 D5		   	6	 	 	   	 9			3	   
Error in line 498: 	 	D1	5	3 			 	 	9 			 
Error in line 499: 	  	T0 		 4  9  7		 	  9	    	 
Error in line 500:  	  C4	 		 9 	 	 	9	 					 		7   	 
Error in line 501:  		D4	  	   2			 8		7 	  
Error in line 502: 		D1	  5  1  		 	1	   	
Error in line 503: C2  		4  8  			4 	
Error in line 504:    	R9				10 	   	10	 7		   	
Error in line 505: 			  	 D6 	 				  7		  	 			3	  7				
Error in line 506: 			   R2			8	  		 2	  	3		   	 
Error in line 507: 	 	 	  D4	 6  	5 5   
Error in line 508:   	   	 D5			 			10 	 		4 		10		    
Error in line 509: D1	   4	10	     7	  		  
Error in line 510: 	 C5	  	6   7		 4 
Error in line 511:  		 	 C7	 2 9 3 		 				
Error in line 512: 			    T9 	3   		1	    		8 	  6	
Error in line 513:     C0 		4   6		7		
Error in line 514: 	   R1 		5    8  			 	4	 
Error in line 515: 	  	  D9	  			7 	   3	1 
Error in line 516:    	 	T8 4	9	 6  		2
Error in line 517:  	  C6 1  	   	4 	 6    	  
Error in line 518: T6 2 	 3 	  10		7		 	 	
Error in line 519:   	T7 8				 10			3	 	 	5 		 		
Error in line 520: 			 T4		2			 3 	 5		  	 	 7   
Error in line 521:  T3 		  	5 7			2				9 		  
Error in line 522: 	  C0		53 	 	  	1 			
Error in line 523:  			R8	 	 9		7	  	3 		   		
Error in line 524: D1  	  7 		 	3  	 		1	  	    
Error in line 525: 		 		 R1		3 	8   			 5 	 
Error in line 526: 	 D0			  4		 		 	7 				 	 3   
Error in line 527:  	C3   3 		8						 		 7 		  
Error in line 528:  	 		D8			 8		  6	 					5 
Error in line 529:  	 D25    	 	7  6    
Error in line 530:  	D6 1 	   9   7		   
Error in line 531: 	  	C8							3  		1 6
Error in line 532:  	 	 T9	   		9  59  		8 	    
Error in line 533: 		R3					2			 4 	  	   1
Error in line 534:  		D2 	  9				8	 		 	4 
Error in line 535: 		  	  R2	2	     4		  4   
Error in line 536: T8		 8	 	 	9	   	  1 	 8  
Error in line 537: 		 T8 		10	  			7 	10    4 
Error in line 538: R0 			 2	4 	   8	
Error in line 539:  	  T8			3				 		10   			7   	 	 9   			
Error in line 540: 			 C1  	     	5 	 4	   		9 	  
Error in line 541:    D5							6   	9		 7 		 	
Error in line 542:    				R6 	 	 	  	10 	 		8				7
Error in line 543:  D7				 3		 9 	 	5		 
Error in line 544: 	 		 		C6 	 86 	 	6
Error in line 545:    	 	C7		  8	  	 6 	  2			 		
Error in line 546:  	T8   		5  1 			8	  	 1 	 
Error in line 547: 	D1   	7			10				 			8 
Error in line 548: 	R3			 6 		9 	 	 10  		  
Error in line 549:  D8	 	 			4		 			7  	 	  8 	
Error in line 550: 		 C7	3    5	9 		 
Error in line 551: 	T1	3	  	 4  	4  	 	 	6		
Error in line 552: 	 D2		  	8 	  1		3		
Error in line 553: 	  	D7  	3	   	8 		 		 5 
Error in line 554: 		  D7 	4 	 	 81 	 	
Error in line 555:  			R5	 		4 	   	3	 	 6 		
Error in line 556: 	 	T6					 	1	 	 	7	6 				4		  	 
Error in line 557:   R02  		5	 6
Error in line 558: 		 	R6  2	  7	 	 3			 
Error in line 559: 			 	T7	8	 9 		  	10	  	 	  7		  	 	
Error in line 560: 	 T5      	9	 		 	  8 				 6	1 
Error in line 561: R3	  3				 8	 		5 		
Error in line 562:  	 R9	 8	 610	 			 		
Error in line 563: 	  D06 		 1  	 	 	 5	 		  	
Error in line 564: 	 	 T4	 		 6		 3 	 10			2 	
Error in line 565:  	  D1 	6 		 99 	
Error in line 566: 	 		C2 	  		10	 	  	6 	 	6  	
Error in line 567: 	D0  	1		1	   8	 	
Error in line 568:     		 R7	 	4 		 6	 9 
Error in line 569:  T8  	10		 		 3	7	  		4   
Error in line 570: 	    	 D9					7     9   		 			 4	
Error in line 571: 			 	R8 		9 	 		 6 	  	10				   
Error in line 572:    	 T2	  		1			 3	  		  9 		10 
Error in line 573: 	 	  C657 	 	10	 
Error in line 574:      	T7	 4	 				 5  7				9  	 		 
Error in line 575:  	   C2	  	 2   	4	1		 
Error in line 576: 	 R2   7 	10		   	5		 
Error in line 577:      T3  		 1		  2		  10		8		
Error in line 578:     T9	   			8		10 10	  2 
Error in line 579:  C88 10  		5	
Error in line 580:   		T1   9	10	  	 	 48 		 
Error in line 581:   C6		  4	5	 2
Error in line 582: R8   2 		2   				9	  			
Error in line 583:     		C7  	 	8	 92	   
Error in line 584: 	   	 	R9 		10	  	2 	  	3	 		 	
Error in line 585:  		D5 	 	 8 			8	 	4   				
Error in line 586: 					 	 R6  	    7 			5	 				  5 	
Error in line 587: 	C3 	 6	4	 	 4	 		 		
Error in line 588:  		    R8 9		 6 		   3 	 	
Error in line 589:  	 	R9   		8		   2	  		 6	   		
Error in line 590:   R0	 	 6			 		 10	 4	 		
Error in line 591:  		    	T2 5		 		  9			 5			5 	
Error in line 592:  	   C7			9 	   	  	4	   10  
Error in line 593: 			T6			9  3		5 9		  	    
Error in line 594:      D8 			9	4	 		 8 
Error in line 595: 	 	 	R8 	   1010 4   	 
Error in line 596: 	   T8		 		6			 3  	 	 4			10	 	
Error in line 597:    				 R9	1	  		 102	  	  
Error in line 598: 	 			T78	7		 1 		  	8		
Error in line 599:  				D6		2 	  3		    10	  
Error in line 600: 	C4 		 	 	  94	6   	  
Error in line 601:     R2	 85		 		 2
Error in line 602: C8	   1	 		10	 	 	2 		  	
Error in line 603: T0			5 	  7	     1	 6    	 
Error in line 604:  		  D6	  8			4   	2	
Error in line 605:  	 	R6 7	    43	
Error in line 606:  		T7		 1		   1	 	 9    	4			  	
Error in line 607: 		 D4  			9		 7  	 		7	 					
Error in line 608:  						 	T5	2	   	 	9	   		 	10    1   
Error in line 609:  		T3    	 1 		7	1	 			 1 	  		
Error in line 610: 				T9	  		 		8	 	10	7	  3 
Error in line 611: 			T2  2 		 4 	 3		 		 7			
Error in line 612: 		D3		6		  	2	 		5 	  
Error in line 613:  	D3 	9	  85	
Error in line 614: 	 D9 	 3  		6		 			2	 		 	
Error in line 615:   	  	  	R7	6	 	 		  4 	 		 4 
Error in line 616:  	 			T6  4 	 3    		8	  1 		 	 	 
Error in line 617:    R33	5 	   	9 
Error in line 618:  	 	C1 		 	9	9 	10	
Error in line 619: 	C7   10  	   4		9			  
Error in line 620:  		 	 T3		5	  	4 			 		3  	  10	
Error in line 621:  		 C0 	5	7   			1		 
Error in line 622: 	C6  		 7	109 			
Error in line 623:  	 		  R4		  	 10 	8			9
Error in line 624:  			R8	7		 	 8	 		6	 
Error in line 625: 	R6	  	1  	  1	 		7	 
Error in line 626:  	 		T8 9	 3 		  6  6	 
Error in line 627:   R1	  	   7 		5   2	 					 	
Error in line 628: 	   		 R9		 		5 	 8 	1
Error in line 629: 	 	D5		610		6   	 
Error in line 630:  		R5	 		 	 5	   86 			 
Error in line 631:    D9	2 		4 		 		3		
Error in line 632: 	 	 	  	C9  	5	 	 			1		9	 	 
Error in line 633:   D2	 				2 		 	 	105		 	
Error in line 634:  				R82				  	 10	   	5	  	 
Error in line 635: 		  		D9			7	 	9	7 	 
Error in line 636: 	 R2 	2	 			3	 		 6 	  		 	
Error in line 637: 		  R4	 		10	      		1  		9  	
Error in line 638: 	    R9 7   	2		3 				
Error in line 639:   T1 	5			 4	 	 9   	 1 	 	 		
Error in line 640:  T7 		 	  3	  	 			10	4			   		8	 	 		 
Error in line 641: 	R8 	 	 2	 2  8		
Error in line 642:  D5		3	4	 	9			
Error in line 643: 	C5		 	8   		1		 1 	 	 
Error in line 644:      	D5	 	 910	1 	 
Error in line 645: C1	   4	    	 8 				1 	 
Error in line 646: 		D6   5 			   	5				 	 	 9	 			
Error in line 647: T9   	10  			7	1	5	 	 	 
Error in line 648:  R5  	10 		 	10	 	9	  
Error in line 649: 	   R4 4 2	 		9		 	
Error in line 650:  	 R2 3		8	 	6 
Error in line 651: 	    		R5 	 9 	6 	9  	 	
Error in line 652: 			   T4   		7  		  3	  	 7	 				6 	
Error in line 653:   	  C4	  	 9    		 	9   		 8			
Error in line 654:  D1 				   3		 	4 		 		 		2
Error in line 655: 	  	 R9 5 		6	  8   
Error in line 656: 	 T46		10   5      	6   
Error in line 657: 			   	C5		 		 	 6			 	  3		5 
Error in line 658: 	D5			 8  5 	 4 	 
Error in line 659: 	 		 T24   		1	    5   9	 	  
Error in line 660: 	 		  D3 	  1		 6   1  		 	 
Error in line 661: C1	4	 10			 	3 	  
Error in line 662: 		 D2			  	10				 		8 	 	 4		
Error in line 663: 		T9	 	4	  9 	 	 3		 			1   
Error in line 664:   		 T9   7		   	 9  	  	9   	4				
Error in line 665:  		 	T8		  	 6		 5 		 1  	 9		  
Error in line 666: 			D5	 		  8 		10 					 6			
Error in line 667: 		  	 	 D6	1	84				
Error in line 668: 	 	R5	   5	10    9					   
Error in line 669: 	 C6	   9	6 			    	5			
Error in line 670:     T0 7			10	    8 5 	 
Error in line 671: D1	 	4				 	5			   4
Error in line 672: 		 	D4	   	 8 8  10		
Error in line 673: 		 			R76		 	4		9	
Error in line 674:   C4    10		 	5  	  8 	
Error in line 675: 	  	 		 	T74 1	 10	2
Error in line 676: 				 	  	R7 					 7 			 9 	 			 9		   
Error in line 677:  R2  	4	 	5		 1  
Error in line 678:  		  T7  	 2 5 			 	  8  3	
Error in line 679: 			C7 10			 	 	 4 	 6			  	
Error in line 680:   D1	5	       8		   2   	  	 
Error in line 681: 	  	 R7		 	6   	  3		 8    
Error in line 682:  T5	 65 		  9  			3		
Error in line 683:  		  	 D892				  	5					 	
Error in line 684:  C9 	3 5		 8  		 
Error in line 685: 		   		 	T1				3	8	10 	 	 10	 				 	
Error in line 686:  	  C1 3			91			  			
Error in line 687:  	T3 8 	9    10   2 			
Error in line 688: 	T4			1 	 2  			  5 	  3		 	  	
Error in line 689:    T3   	 	6 8		  	10	 		6
Error in line 690:    	R4 	4	9  7	 		 
Error in line 691: 		 	 			D1 	 		3  		8 			 6		
Error in line 692: R1		  	 			2	 	 	 	7  8			 	 
Error in line 693:    D9	 	4  		    1 		9   
Error in line 694:  	  	 D2					4 	1  	 		3   	 
Error in line 695: 			  	T3		 				5  	 	8     7 8	 	 	
Error in line 696: 	C9		  1 	  8 		  	1 
Error in line 697:  		 	 C0				   3 				3		 9  			
Error in line 698: 		 		C5	  		5	 			4	 			 4 		  
Error in line 699: 			 D2  		 	2		 		9		4   	 	
Error in line 700: 			   R0			 	 3  5   	9 	
Error in line 701: D0		 	10		2	7 
Error in line 702: 	T5      6	2		 		10				  2
Error in line 703: 		C7	    10	 10	 		  	8					
Error in line 704: 		 			C9  	4		5  	 9  	
Error in line 705: 		 C1  		  	 5 4 			 4	  	 
Error in line 706: 			   		C0	 	 8 		 		2		 	 	 4  
Error in line 707: 			 	  T1	  9 2 	2		9		
Error in line 708: 	  T7 	7 3 	 	4		  	1 	  		  
Error in line 709: 	   		C2  	  	1			2 		 3 				
Error in line 710: 		 	 	D3	9   	10			 3				 
Error in line 711:    T8 	  8			  2	64   	
Error in line 712: 	    T9	8	    7 	  6	10	  		 
Error in line 713: R8		 	  	1	  7     8  	  
Error in line 714: 	R6			1    105			 
Error in line 715:  			 T3   	9     	2						 7	   	  2    	
Error in line 716: D6			 		5	 	  10 	3
Error in line 717: 	  	 	D8	 	5	 	 3 3		  	
Error in line 718:   		D5			 8		6 	 	 8  	
Error in line 719:  	D0	6	 		 		3 9	
Error in line 720: 		D2 	4 63			 
Error in line 721: 		T9	  	 		4 	 5	 	    	7		8 			 	 
Error in line 722: 		R1 	6 	4	 	  7  
Error in line 723: 						R2  	1	 	 3	 		 6	 		 
Error in line 724: 	 	 D2				  8   	  1	  			 4 		 
Error in line 725: 	T6  	  3	 10 	  7	 	 	6	 	  
Error in line 726:   R7		  	  	3 		5 				7 	
Error in line 727: D4 	 6  	 	8	9		 
Error in line 728: C1	 			   	 5 	10	 2  	
Error in line 729:  R4	 			2	  	10    6	 			
Error in line 730:  D6  	 8	 		  2 	2  
Error in line 731:  	  		C9  6     2 7  	
Error in line 732: 	 	  T9  5	10 		8 		 	3  	
Error in line 733: 			 R4				 2 5    10 					
Error in line 734: R6 	5 72		 
Error in line 735: 	 		  T6		  		 5		 	 79		 	   9 
Error in line 736:       R6	3		1    9 		  
Error in line 737: 	D2 	3	 	 	 10	  				4	
Error in line 738: 					 R5	7 				   	5		 3 
Error in line 739: 	D5 			 	  1 		2			 9	 
Error in line 740: 						R3	   	7    5			   	2						  
Error in line 741:    	 T4 		 6		 10	 		6	 	  5			
Error in line 742:  		T3		 		 4	   				1 	 	44 
Error in line 743: 		D3	5	 8	7	
Error in line 744:   	 		C1   			5	7	 	3	
Error in line 745: 				 C0	310		 	 1 		
Error in line 746:  	 		T8 		    3 1	 6 9	 	 
Error in line 747: 	 			T6	  		5	109		8   
Error in line 748: 		 			R0			 10 		  	10	 	  		1 	  
Error in line 749: 	  	D1 	1 	  2	  		10		
Error in line 750: 			   D3   		8	   10   7 	    		
Error in line 751:  	 	 	 D1	 	   3		 3	1 
Error in line 752: 			D6  8   	  7 	 3    	
Error in line 753: 		 	R4  	     	5	 9	2  
Error in line 754: 		D2			9	10 4 			
Error in line 755:  D8		  		8 	  	1					  	8 				  
Error in line 756: 	 	C4	 6  2  		 3	 					
Error in line 757: 	R9 7	 2 				 9
Error in line 758: 			 D3							 4		1    			7	
Error in line 759: 			  T9 		 		4451    
Error in line 760: 	 	  		R6	 	 		1  	58	 	
Error in line 761:  T5	3 	10	  		2	 	 	 	3   
Error in line 762:   T1	   8  	5	  	5 9 
Error in line 763: 	 C2		  	3 		  2		4				 	
Error in line 764:  T3	3			 10			1  10
Error in line 765:  	 C5		  	  5 8 	3	   
Error in line 766: 		 			R2	  10 	8	  	  1			 			 
Error in line 767:    C5	 1 				8  	 		  7 
Error in line 768:   T4  	2 5 		  	8 	 			7 
Error in line 769:  			T2  		 	 3   	4 	 	7 	  	   4	 
Error in line 770: 	C8		 		8	  	 5		 2		 	  	 	
Error in line 771:  	C56	  	8	     	10 	   	
Error in line 772: 		D2 			10	 	7	 2 	 
Error in line 773: 		 R8   			14  	4
Error in line 774: 			T6		3   	2 6    6		  		  
Error in line 775:   			T4					2  4		 		10  	 		10 	 	 	
Error in line 776: 	 T56  6		 9   	  4  	
Error in line 777:   	  	R0	 8		3	 	 	 	4 
Error in line 778: 			  D0		 	 	7   	 	9   		1   
Error in line 779:  	 T1  			8 		910 	6	  	 	 
Error in line 780: 	T9  	 	    1			9 	5	 	 1	  		 	
Error in line 781:   D8	4 	 	 	6 	1		 	   
Error in line 782:   T9 10 1 	 5		 	6				
Error in line 783: 	  	T4	 			  8	 5	3					10   	 	
Error in line 784: 	   C1	     9 5 1  		 		
Error in line 785:   	 	D1   4 		 2	 6 	  
Error in line 786:  		 C2	8   	 	4 2  		
Error in line 787: 		 		C71								2		   	6			 	
Error in line 788: 		   C3		6	1	4	
Error in line 789: R6	  		 	8 		   		9		 		 	7	  	
Error in line 790: 	 	 T9 	  1  		 	5		8	 	 	 	 4 	   
Error in line 791: 	 	   	C5     7   3		  6			
Error in line 792:  	  T2 	  	9		 10			  	6     	  		5	 
Error in line 793: 		  	D9 3	   		1 	  10			 
Error in line 794:  	D7	 	  110	   4 	
Error in line 795: 	T8	 			6	  	  	  8				 9	 	8 
Error in line 796:  	  D4 	  		3	 	4  	2				 		 
Error in line 797:   		 	R58			10   	 4			 
Error in line 798:    	R2		 		 	7		9	 	8		  	 			
Error in line 799:  		C2 2 		 8	3 		
Error in line 800:  	   	D1 	  	  	7		      8 7  
Error in line 801:  R0 				6	 	     9  	 	 6  	
Error in line 802:  	  			R2	 	  1 		  3 		 1 	  
Error in line 803: 	     	R4	 	 8  6   		 4		
Error in line 804:  	 	 	  R110	 		6 		 	   5	 	 
Error in line 805:  	   T0		   7  		  7				  2 		 	3 			  
Error in line 806: 	  	C9		     10 		  10  5	 	 
Error in line 807:    R7  3		2  			 1 	   
Error in line 808: 	 	 		 R2 	 7	8     		 9		
Error in line 809:  	C8 	8   			 10   3	
Error in line 810: 		D8		 7  	    7 		5  
Error in line 811:   		D1					 2  	 	2 2		 	
Error in line 812:  	T9	 6 	 5 		10		 		  	7 		   
Error in line 813:  		 C6	 3 				10 	7
Error in line 814: 	 	 D6	  	 2	   7					7	 
Error in line 815: 	T3	 	 			6  	10		 	6					3	  	 	 
Error in line 816: 	    R0 		  7	 1   3  			
Error in line 817:  	T1 1 62		 		 	6 	    
Error in line 818: 	   		  D1		6  	2  4 	 	
Error in line 819: 					D6	   			1			2	  	 10 	
Error in line 820: 	  D3 	9			4	 2 		 	  
Error in line 821:    T5		4	  		8	   7				8    	 
Error in line 822:    	  	T9	 	 	 8 	1    2 	10					
Error in line 823:     	T3  	 		 	10	   	6 	1	 	 6		
Error in line 824: 			   		 R9  		  9     9				 	3 
Error in line 825: 	 R5	 3 		 1 	   9  			
Error in line 826:    C6  		3		 3	  	6					
Error in line 827: 	   	 T0 6	  7	   		2			  3		    	
Error in line 828: 	 T3  	7	 		 7 	 	 	1  7     
Error in line 829: 		    		D2			 	 9			3	 		4	 
Error in line 830:  	T1  		4		4 	 49	
Error in line 831:  	R1	10 		 1	   		  7   		
Error in line 832:   C7		 			8  7	 		 	 7    	 
Error in line 833: 			 	T8	  		1	4	 	   6 		6		 
Error in line 834:  	  	  	T9	   		 	1	      	7 		3 	  2	  	
Error in line 835: 	T9	 				6		 2	 		5  	 4		 		
Error in line 836: 	   		D4  	  	1	 	   4      3	
Error in line 837: 	 C8 		 			8   		 	7		 4	
Error in line 838:  	C1	 	 	58  	  9 		 
Error in line 839:   	  R0 		9			1 	 	2    
Error in line 840: 		R2	10 	  8  			3	
Error in line 841:     R0		  6		 		4	3	   	 
Error in line 842:  R94 7 	5	
Error in line 843: T7 			1 	  	8 	 	 	 7 8 	
Error in line 844: 	  C8 		 	 4    		4 		7	
Error in line 845:     T7	9   10		 		8 		4		  
Error in line 846: 	 C8  2 	    	2	1	   	 
Error in line 847:   		C1	   57  10	    
Error in line 848: 			   	R2			1	 	   10			 	6 			 
Error in line 849:  R8 				 82 			 10  	
Error in line 850:  		 	D3			 2						4		5  
Error in line 851: 		 	T7				 	 10 	 4	3 	 	5 			 	
Error in line 852: 	 					R6  		 8  8		 	2		  	
Error in line 853:  	     D810	 	9		1	  	
Error in line 854: 	 	 	R0 	     		52  8	   	
Error in line 855: 		 C2  	 3 	 	8							2		  
Error in line 856:  	 	    D0	6 			 8   	5 		 	 
Error in line 857: 		C2	 4		10  5	    
Error in line 858: 	 	D7		 2 	5		9 	
Error in line 859: 	 	  R5	 	 3  		4 			 2	
Error in line 860:   	T4	 		 10		 	 	6		   9 	2
Error in line 861: 		  	R5 	 	 7				9	   8  
Error in line 862: 			R24  	10   8  
Error in line 863:  	 D4  1   	8 	1   	
Error in line 864:  D1	 1		 3 		 	6  	
Error in line 865: 	  	C5  7	5   		9	 	 
Error in line 866:  	 C6 	 	    7		   		3 	 	 9	 
Error in line 867:  	 	T5	 	1 			4	 6  3  		 	 
Error in line 868:   	R9 				2  				8    	 3  	
Error in line 869:  D4 6			 	 		8			 10			   
Error in line 870: 	 T7   2  		 5 	2				   	 	9				
Error in line 871: 	 	 C3 	2 	  9	 3	 
Error in line 872:  D35 	  		 1 8 
Error in line 873:  		D8		 	7	 	7	 					9		  		
Error in line 874:  		  		C9 2    8  	  4	 	  		
Error in line 875:   		C0		 4		5 	 	4				
Error in line 876:    D7	4		  4	5		 	 
Error in line 877:   D4 4		   5	    10	 
Error in line 878:  	 D8	 	8	 	  	  		5   5		
Error in line 879:     C8	  		8		 4 			1	
Error in line 880:  	  	C0  9		  	4 	 		2	 	
Error in line 881:  	  R4		5	2	 5 		 			
Error in line 882: 	 		 R6 3	  				  9 7	 			 
Error in line 883:   R7	6 87
Error in line 884:   R9   	 19 			 7     	
Error in line 885:  		   R9			 4	  	 6		 10 	   		
Error in line 886: 	R7	 	5		7    1	  
Error in line 887:  		D1  9    	67			
Error in line 888:  	D5					7   	  4		6	 	  
Error in line 889: 	  D4					6  9	  			6	
Error in line 890: 	T4  			 8	   			9  	 			 4 9 
Error in line 891:   		C2 		2     6  8	 		  
Error in line 892: 	   C0			8 5  	 	  6  	 
Error in line 893: 	 	  D8   		 3	    	4  	 5		
Error in line 894: 		 	 	D9	  	 	9  5   8 			
Error in line 895: 		 C2   	 		2	 		 6		 		 7 
Error in line 896: 	   T3	 		1 			1 		 10 	 		 6  
Error in line 897: C1 					6				6    3	 		
Error in line 898: 		    R5		4 				2		2    	
Error in line 899: 	C0 	 	 1	  	 	4 2 	 		
Error in line 900: 	  		C4		5	 	9 		6	 	   	
Error in line 901:  			R2	9	 		 	8 	7
Error in line 902: 	 	 D2		 	 	7     1 	4    
Error in line 903: 	   D4			2 		1   	 	10	
Error in line 904:    	R8	 		5	 		49 
Error in line 905: 		 	C5		  	8 			 	3	5 
Error in line 906: 	D6 	 10 	6	 	 		5				 
Error in line 907:  		D1  	2  		 8  	 	  10 
Error in line 908: 	 	   	C3 		   9      3 	   	8	 
Error in line 909: 	C9 	4 	 8		 2  	
Error in line 910: 						R1	    	 6   29 	
Error in line 911: 		 	 C4 	6					 	2 	   1 		
Error in line 912: 	  			C2	5		 7 		9  	
Error in line 913:  R3 			 	 7 			 	 8			 	 4 	 
Error in line 914:  	R1 1		    5	7		  	
Error in line 915:    		D7		6	 8 		4	 
Error in line 916: 	D5	 10	8					4 			 		 
Error in line 917: 		 	 	C1		  	 3  	 	 2 		6 
Error in line 918:  C3 						6 				 6 	10 
Error in line 919: 		  C6  	 5 						10   		 9	
Error in line 920:  	 	C0		    4	   4  	 	  9 
Error in line 921: 		 	 D3  	4  			  	8				  	5   	 	
Error in line 922: 	 	 		 		D4  		2  3	 	   	9 
Error in line 923: 	 D6 		8	  	  6  	9 		   
Error in line 924:  D9	  44			10 
Error in line 925: D8 6   4	 	    	4				
Error in line 926:    	R8	 1		 3					10	    
Error in line 927: 	T5 3			1				 4	3
Error in line 928: 	C9	 6 	 7		   6	
Error in line 929:  T1	 	   7	  	4	1  4 	
Error in line 930:  	 R9	   10 			 		 5  4	 	   
Error in line 931:  	 		 	D9	 	 		5	2  		 2
Error in line 932: 		    C8 		 1	 		6	 8 	 		
Error in line 933:  R7 		4 		10 6		 	 
Error in line 934: 	  			   R4  5  6 			8 
Error in line 935: 	 	 	  D7	   1     5	 	2	 
Error in line 936: 	 		 D0 8			5	  4		
Error in line 937: 					T0		 2	 			1	   		10		 10 			 
Error in line 938:  		 T3    3		5	  				4	 			9	  		 
Error in line 939: 		 	 T8  	2  	7 	   6	 	  	 5		 		 
Error in line 940: 		 D61 6 	 		8		
Error in line 941:   C4  	7	  		7			 	 2  			
Error in line 942: 		  				R3 		 10		3  			5		   
Error in line 943: 	R8	    1		   8		  	 	 10	 	 	 
Error in line 944: 			 R8	10	 	5	  5   	  	
Error in line 945:  	   R2		 	  7 		 		3 	 	5    
Error in line 946: 	 			R8	  3 	 	 	6  	  			4   	
Error in line 947:  	  R2	4		   4   3	 	
Error in line 948:   		T1	 	 5	 2 	  1			 4 
Error in line 949:   			D7	 	1	  	 10	 		7  
Error in line 950: 						 R8			3 3	3     
Error in line 951:  	 	C6 	  	 10 	8		  10
Error in line 952: 	 	 	D7	4	 		 8   	6
Error in line 953:  	  	T9 			5 8		5		 	  	 	1	  	 
Error in line 954: 	  	 	D1		 			10 9   3	
Error in line 955:  		  	T8  3 	 5  			10 	9 		 
Error in line 956:   		C5  		 7			 	9		9		 			
Error in line 957: 		T6  	 	 	 5	    	 1		6					8	
Error in line 958:   	R6  		 		4		  		 7			 7      
Error in line 959: 			 T9	5 		   7	7	 7	    	
Error in line 960:  R118  10
Error in line 961: 	 	D32 		10	 		1   						
Error in line 962: 	  	T5 1	  		 2	   	4	 	10 
Error in line 963:  	R4 	  10	5		 	6		
Error in line 964:  	D3	 	 	2 	 	  	4	  		 	7	   	
Error in line 965: 			C7 		 2 	 	10  			3 			  
Error in line 966:  	 			 T8	   3 6 2   	    7 	 	
Error in line 967: R910 		  7 	 9  
Error in line 968:  	    T9		 8		  	 1 	38			    
Error in line 969:  	 C6		 5  10	7		
Error in line 970: 	D4	1	 	 	8 					6    	
Error in line 971: 	T2		9   10		8		   9  
Error in line 972: 	   R5	 	  5	 	 	 9	   4
Error in line 973: R8		19	2			  
Error in line 974: 	C4				 2		 4 	 3   	
Error in line 975: 				 C37 	 8    3	
Error in line 976:   	D6	  75					1	   
Error in line 977: 				 R9  1 	  2  	 	 6   	
Error in line 978:  		 		T3   9 				1 	10  			 2 	 	
Error in line 979: 		  T4 	 	4 5	 2 	   1				
Error in line 980: T1	 	 	  9		 	   	 610   	 	3	    	
Error in line 981: 	C8 		10 7	 	 	 	2   		  
Error in line 982:  	 	 	R5			 		5 	1   1	
Error in line 983: 			 	 	 R9 	 	5			1	8  	  
Error in line 984: 	   	 	C3 		 3			 10	 		 		1 			 
Error in line 985:  	  T5  5   	6 2		8 				
Error in line 986:  		 	C6 					6 4 	 		5				
Error in line 987:  T5	    		58 9  		1 
Error in line 988:  	D4   	 4	2  			3  	 	 	
Error in line 989:  D7	     6   	2 6  	
Error in line 990:   	  	R5 1		7	5 	 
Error in line 991:  T1	15 		6  				  	7				 	
Error in line 992:    	R0	 	  8 	 	  5 		 8				
Error in line 993: 						C2	 1	  	 		72			 		
Error in line 994:   	 		  C5 9	 			 		3		6	 	
Error in line 995:   	 C5		  	 	7			 6 	5	  	
Error in line 996:  	 	 T2			  8   	  3	 	2 			  2 	 	
Error in line 997:  	D1	1  61 		
Error in line 998:  T7  6	 7 	 	 5			  10	
Error in line 999:    		C9	   9 	 	 6		7
Error in line 1000: 	    D2	8	 	 		7 	   1 
Warning, unconnected node(s): 0
