Error in line 5:  R2 8 7 7 
Error in line 11:  D7 6 6 6 
Error in line 17:  R4 5 2 7 
Error in line 22:  R2 5 2 9 
Error in line 24:  R2 1 10 6 
Error in line 25:  R3 2 4 4 
Error in line 26:  T3 7 4 3 6 
Error in line 27:  T2 6 1 8 9 
Error in line 28:  R4 1 5 6 
Error in line 29:  R9 8 3 1 
Error in line 30:  R4 6 9 10 
Error in line 31:  R0 9 7 10 
Error in line 32:  R2 5 8 9 
Error in line 33:  T5 1 9 6 4 
Error in line 35:  R9 8 2 6 
Error in line 36:  C3 2 4 9 
Error in line 37:  T2 10 8 3 7 
Error in line 40:  D9 1 9 2 
Error in line 41:  T6 7 10 3 5 
Error in line 42:  R2 10 6 5 
Error in line 43:  R7 4 9 9 
Error in line 44:  T1 3 10 3 9 
Error in line 46:  R7 10 6 6 
Error in line 49:  T6 4 6 1 1 
Error in line 50:  T3 8 9 7 1 
Error in line 51:  C1 7 8 7 
Error in line 52:  T7 6 2 9 2 
Error in line 53:  T6 2 2 4 3 
Error in line 55:  T8 7 1 8 5 
Error in line 56:  D7 3 5 5 
Error in line 57:  R8 6 2 4 
Error in line 58:  T7 9 5 7 1 
Error in line 60:  T2 8 6 4 1 
Error in line 61:  R9 4 9 8 
Error in line 62:  C3 5 5 8 
Error in line 64:  C1 6 6 10 
Error in line 65:  C4 8 8 4 
Error in line 67:  R2 6 8 10 
Error in line 68:  R9 4 2 1 
Error in line 69:  C9 5 7 3 
Error in line 70:  D1 7 1 3 
Error in line 71:  D4 8 8 3 
Error in line 73:  D1 6 7 8 
Error in line 77:  T2 5 6 7 4 
Error in line 78:  C3 4 9 4 
Error in line 79:  D3 10 10 3 
Error in line 82:  T1 3 7 10 2 
Error in line 83:  R9 6 5 3 
Error in line 84:  C8 6 1 9 
Error in line 86:  C9 9 5 3 
Error in line 87:  D5 7 1 9 
Error in line 89:  T5 6 8 2 4 
Error in line 90:  T0 1 6 1 5 
Error in line 91:  T5 4 2 9 5 
Error in line 92:  C6 10 5 3 
Error in line 93:  R2 2 8 10 
Error in line 94:  T2 3 4 1 10 
Error in line 95:  C0 8 1 1 
Error in line 96:  T3 4 4 8 10 
Error in line 97:  C3 10 2 3 
Error in line 98:  T0 1 4 9 4 
Error in line 99:  C5 10 10 9 
Error in line 100:  D9 10 9 6 
Error in line 101:  T1 8 7 8 6 
Error in line 102:  T3 10 6 9 4 
Error in line 103:  D3 7 8 4 
Error in line 104:  R3 3 9 5 
Error in line 105:  C2 7 6 1 
Error in line 106:  R8 10 4 5 
Error in line 107:  C0 3 5 7 
Error in line 108:  R2 1 2 2 
Error in line 110:  T0 9 9 4 7 
Error in line 111:  D3 9 2 3 
Error in line 112:  C1 6 8 3 
Error in line 113:  T5 3 9 2 6 
Error in line 114:  D6 2 3 5 
Error in line 115:  R0 9 8 10 
Error in line 116:  R0 1 7 9 
Error in line 117:  C6 6 10 4 
Error in line 118:  D5 3 4 4 
Error in line 119:  D6 2 7 4 
Error in line 120:  R5 7 7 9 
Error in line 121:  T0 1 1 10 6 
Error in line 122:  C5 6 7 5 
Error in line 123:  R7 4 10 9 
Error in line 124:  T4 3 10 3 1 
Error in line 125:  C6 1 4 4 
Error in line 126:  R6 4 8 2 
Error in line 127:  T5 9 1 3 4 
Error in line 128:  T6 1 6 2 2 
Error in line 129:  D6 1 3 6 
Error in line 130:  C5 5 3 8 
Error in line 131:  R9 4 8 4 
Error in line 132:  T6 5 8 9 5 
Error in line 133:  D5 5 10 4 
Error in line 134:  D9 10 4 3 
Error in line 135:  C4 4 3 5 
Error in line 136:  T6 10 4 9 9 
Error in line 137:  T6 7 6 8 4 
Error in line 138:  C0 4 2 10 
Error in line 139:  R8 6 9 3 
Error in line 140:  T3 7 8 9 2 
Error in line 141:  C4 1 4 7 
Error in line 142:  R6 2 1 2 
Error in line 143:  D4 9 4 6 
Error in line 145:  C1 4 7 5 
Error in line 146:  C6 2 8 8 
Error in line 147:  D4 1 4 3 
Error in line 148:  C3 1 1 4 
Error in line 149:  D1 8 8 1 
Error in line 150:  D8 7 5 7 
Error in line 151:  R1 10 4 6 
Error in line 152:  D6 2 10 2 
Error in line 153:  D2 8 9 9 
Error in line 154:  T4 10 10 4 9 
Error in line 155:  D2 2 4 1 
Error in line 156:  R9 10 5 7 
Error in line 157:  D2 10 1 10 
Error in line 158:  D9 1 7 8 
Error in line 159:  T5 5 7 8 3 
Error in line 160:  C8 9 1 7 
Error in line 161:  D4 3 1 3 
Error in line 162:  R8 4 6 2 
Error in line 163:  D9 10 2 10 
Error in line 164:  C8 5 6 5 
Error in line 165:  T2 6 4 7 7 
Error in line 166:  R3 8 4 1 
Error in line 167:  D0 2 8 9 
Error in line 168:  R9 6 1 4 
Error in line 169:  T6 8 6 4 4 
Error in line 170:  C5 8 1 7 
Error in line 171:  D7 10 10 5 
Error in line 172:  T2 10 3 10 6 
Error in line 173:  T9 2 10 1 8 
Error in line 174:  D5 2 8 8 
Error in line 175:  T3 1 2 6 2 
Error in line 176:  T0 7 4 4 2 
Error in line 177:  R0 1 6 10 
Error in line 178:  T3 3 6 7 6 
Error in line 179:  D9 4 3 2 
Error in line 180:  C5 6 10 9 
Error in line 181:  T0 1 1 8 8 
Error in line 182:  T9 2 7 6 1 
Error in line 183:  R6 1 1 8 
Error in line 184:  T3 5 7 2 1 
Error in line 185:  D0 10 8 7 
Error in line 186:  C5 6 9 7 
Error in line 187:  D4 3 6 2 
Error in line 188:  R9 3 5 5 
Error in line 189:  D1 9 1 10 
Error in line 190:  C6 3 10 6 
Error in line 191:  R2 8 6 9 
Error in line 192:  C3 4 5 3 
Error in line 193:  C4 8 6 5 
Error in line 194:  D3 10 6 2 
Error in line 195:  C0 8 9 2 
Error in line 196:  C1 6 3 7 
Error in line 197:  T6 4 4 2 8 
Error in line 198:  T9 3 6 2 9 
Error in line 199:  R0 10 7 2 
Error in line 200:  C3 9 2 8 
Error in line 201:  D2 2 5 3 
Error in line 202:  R4 9 6 8 
Error in line 203:  T7 2 4 7 7 
Error in line 204:  D0 5 1 8 
Error in line 205:  C6 1 9 4 
Error in line 206:  R8 2 5 7 
Error in line 207:  C2 9 5 1 
Error in line 208:  R8 6 4 8 
Error in line 209:  D9 6 3 9 
Error in line 210:  R2 8 10 2 
Error in line 211:  R4 5 9 9 
Error in line 212:  D7 8 5 9 
Error in line 213:  T6 3 7 4 7 
Error in line 214:  D6 7 5 10 
Error in line 215:  C0 3 6 2 
Error in line 216:  T0 3 2 7 5 
Error in line 217:  T9 2 3 4 8 
Error in line 218:  D3 3 10 5 
Error in line 219:  D2 7 8 5 
Error in line 220:  C1 5 4 10 
Error in line 221:  T6 10 10 8 2 
Error in line 222:  D2 8 1 1 
Error in line 223:  R4 6 9 3 
Error in line 224:  R0 9 1 3 
Error in line 225:  C0 9 4 4 
Error in line 226:  R7 10 1 4 
Error in line 227:  T0 2 5 8 2 
Error in line 228:  R4 5 9 9 
Error in line 229:  T8 10 6 8 1 
Error in line 230:  R5 7 3 1 
Error in line 231:  D9 5 5 6 
Error in line 232:  R4 4 1 3 
Error in line 233:  T1 8 7 4 3 
Error in line 234:  C8 8 4 2 
Error in line 235:  D2 1 8 2 
Error in line 236:  T5 9 6 3 7 
Error in line 237:  R8 7 9 6 
Error in line 238:  T8 4 4 9 7 
Error in line 239:  T5 1 2 7 9 
Error in line 240:  R1 6 4 10 
Error in line 241:  D8 3 3 5 
Error in line 242:  R5 8 6 9 
Error in line 243:  T3 6 4 6 2 
Error in line 244:  R4 6 2 3 
Error in line 245:  D5 1 7 3 
Error in line 246:  D2 5 7 5 
Error in line 247:  T2 2 8 4 6 
Error in line 248:  T5 8 7 5 7 
Error in line 249:  R9 8 9 1 
Error in line 250:  D1 10 5 1 
Error in line 251:  R5 4 8 9 
Error in line 252:  D7 7 3 6 
Error in line 253:  D5 1 6 3 
Error in line 254:  C9 2 8 2 
Error in line 255:  C4 5 7 2 
Error in line 256:  D0 8 10 5 
Error in line 257:  C1 4 9 9 
Error in line 258:  D1 10 7 7 
Error in line 259:  D6 7 7 3 
Error in line 260:  R7 7 1 5 
Error in line 261:  R6 9 3 7 
Error in line 262:  D4 1 8 1 
Error in line 264:  T8 5 4 3 10 
Error in line 265:  T6 10 10 8 7 
Error in line 266:  C0 8 6 1 
Error in line 267:  R7 8 3 7 
Error in line 268:  R0 3 10 7 
Error in line 269:  T5 5 1 10 10 
Error in line 270:  R4 7 2 6 
Error in line 271:  D6 8 7 2 
Error in line 272:  R1 6 2 9 
Error in line 273:  D4 5 4 2 
Error in line 274:  R0 5 8 8 
Error in line 275:  T9 8 8 9 6 
Error in line 276:  C8 7 2 1 
Error in line 277:  R2 4 1 5 
Error in line 278:  T8 4 7 6 6 
Error in line 279:  T3 3 8 5 5 
Error in line 280:  D9 10 9 6 
Error in line 281:  T2 9 6 7 10 
Error in line 282:  R9 8 1 1 
Error in line 283:  T8 4 8 7 5 
Error in line 284:  R3 7 9 5 
Error in line 285:  C4 1 2 7 
Error in line 286:  D1 1 10 7 
Error in line 287:  D7 9 2 6 
Error in line 288:  C4 5 8 7 
Error in line 289:  D4 1 6 7 
Error in line 290:  C7 6 8 6 
Error in line 291:  T4 10 7 4 3 
Error in line 292:  R3 8 7 10 
Error in line 293:  D9 7 10 6 
Error in line 294:  R8 7 4 7 
Error in line 295:  C8 4 10 7 
Error in line 296:  R5 5 7 10 
Error in line 297:  T0 5 1 10 8 
Error in line 298:  R7 5 4 10 
Error in line 299:  R7 8 8 1 
Error in line 300:  T0 2 3 2 9 
Error in line 301:  C5 1 4 1 
Error in line 302:  D9 5 3 2 
Error in line 303:  T5 8 8 4 3 
Error in line 304:  C4 3 4 8 
Error in line 305:  R1 2 2 7 
Error in line 306:  T7 7 9 4 1 
Error in line 307:  C4 9 6 7 
Error in line 308:  R3 10 10 10 
Error in line 309:  D9 7 8 3 
Error in line 310:  R3 9 4 6 
Error in line 311:  T1 9 3 6 10 
Error in line 312:  D7 8 10 8 
Error in line 313:  C1 2 2 7 
Error in line 314:  D5 8 8 4 
Error in line 315:  R7 6 2 10 
Error in line 316:  T4 2 4 8 1 
Error in line 317:  D8 6 4 9 
Error in line 318:  C4 5 4 7 
Error in line 319:  C0 9 3 4 
Error in line 320:  T4 1 2 7 2 
Error in line 321:  T7 4 10 2 6 
Error in line 322:  D3 1 9 6 
Error in line 323:  C6 3 5 4 
Error in line 324:  D2 8 10 10 
Error in line 325:  D0 3 2 8 
Error in line 326:  T1 5 9 5 3 
Error in line 327:  C8 4 6 10 
Error in line 328:  T7 5 5 10 5 
Error in line 329:  C5 9 1 1 
Error in line 330:  D6 9 1 6 
Error in line 331:  R0 9 4 1 
Error in line 332:  T4 1 8 8 3 
Error in line 333:  T3 10 6 10 10 
Error in line 334:  R8 6 7 7 
Error in line 335:  R6 5 1 10 
Error in line 336:  C7 2 3 2 
Error in line 337:  R1 4 1 2 
Error in line 338:  C4 4 10 9 
Error in line 339:  D7 6 8 2 
Error in line 340:  T4 1 8 9 10 
Error in line 341:  C2 3 3 1 
Error in line 342:  C9 3 5 1 
Error in line 343:  R2 2 6 4 
Error in line 344:  R6 9 3 4 
Error in line 345:  R0 3 8 5 
Error in line 346:  C5 4 1 5 
Error in line 347:  R1 9 1 2 
Error in line 348:  C6 2 8 7 
Error in line 349:  D6 7 10 5 
Error in line 350:  T8 8 6 5 9 
Error in line 351:  R6 5 7 9 
Error in line 352:  C6 3 10 10 
Error in line 353:  C5 10 3 4 
Error in line 354:  R7 4 5 2 
Error in line 355:  C8 7 5 3 
Error in line 356:  D8 6 10 8 
Error in line 357:  C6 7 4 1 
Error in line 358:  R0 3 10 2 
Error in line 359:  D7 1 9 8 
Error in line 360:  R6 9 8 7 
Error in line 361:  T0 9 1 5 10 
Error in line 362:  C0 3 5 9 
Error in line 363:  T0 1 4 6 3 
Error in line 364:  R3 8 8 1 
Error in line 365:  R3 4 3 9 
Error in line 366:  C4 1 7 7 
Error in line 367:  T7 1 6 2 5 
Error in line 368:  C4 2 1 4 
Error in line 369:  D0 4 8 1 
Error in line 370:  T0 8 2 4 8 
Error in line 371:  R1 5 5 5 
Error in line 372:  D5 8 9 3 
Error in line 373:  R1 3 5 7 
Error in line 374:  D3 2 6 9 
Error in line 375:  R8 2 7 10 
Error in line 376:  D7 3 5 9 
Error in line 377:  T2 7 5 10 8 
Error in line 378:  R6 3 6 3 
Error in line 379:  D7 3 9 4 
Error in line 380:  C9 9 7 6 
Error in line 381:  R5 9 3 7 
Error in line 382:  D6 2 7 8 
Error in line 383:  T9 2 6 3 4 
Error in line 384:  R9 7 4 1 
Error in line 385:  C9 1 4 9 
Error in line 386:  R6 7 3 9 
Error in line 387:  D8 6 9 2 
Error in line 388:  C2 10 6 10 
Error in line 389:  T2 1 5 9 6 
Error in line 390:  R7 1 3 8 
Error in line 391:  R5 2 8 10 
Error in line 392:  D1 3 9 10 
Error in line 393:  T5 6 5 2 2 
Error in line 394:  R6 10 9 5 
Error in line 395:  C6 6 5 10 
Error in line 396:  C4 7 6 3 
Error in line 397:  R8 8 5 3 
Error in line 398:  T3 1 5 8 10 
Error in line 399:  C5 2 7 5 
Error in line 400:  R6 1 5 6 
Error in line 401:  D7 3 3 3 
Error in line 402:  D5 3 9 10 
Error in line 403:  R1 10 10 1 
Error in line 404:  T0 5 1 10 7 
Error in line 405:  C8 1 4 4 
Error in line 406:  T1 6 7 4 9 
Error in line 407:  T1 4 7 4 3 
Error in line 408:  C8 5 8 10 
Error in line 409:  R9 10 4 10 
Error in line 410:  D2 3 8 4 
Error in line 411:  R1 9 9 6 
Error in line 412:  R7 4 10 8 
Error in line 413:  C6 1 8 3 
Error in line 414:  R0 4 5 9 
Error in line 415:  C1 10 3 4 
Error in line 416:  T7 1 3 3 7 
Error in line 417:  D4 1 1 8 
Error in line 418:  C1 1 6 5 
Error in line 419:  R1 9 9 4 
Error in line 420:  T9 6 5 4 5 
Error in line 421:  T2 6 10 9 4 
Error in line 422:  R1 4 5 8 
Error in line 423:  T7 7 3 7 7 
Error in line 424:  R3 3 2 4 
Error in line 425:  D5 1 2 8 
Error in line 426:  T0 8 8 10 8 
Error in line 427:  T3 1 3 7 10 
Error in line 428:  D6 4 2 5 
Error in line 429:  D8 9 4 7 
Error in line 430:  C1 8 10 7 
Error in line 431:  R6 3 4 2 
Error in line 432:  T9 10 2 9 8 
Error in line 433:  C1 10 9 6 
Error in line 434:  R0 1 8 9 
Error in line 435:  T9 9 10 7 9 
Error in line 436:  T7 5 7 6 5 
Error in line 437:  C2 7 4 3 
Error in line 438:  R6 1 9 7 
Error in line 439:  D8 5 2 6 
Error in line 440:  T8 5 9 6 5 
Error in line 441:  T0 2 4 10 1 
Error in line 442:  T3 2 10 3 7 
Error in line 443:  C0 1 6 2 
Error in line 444:  D6 3 7 9 
Error in line 445:  R3 5 9 6 
Error in line 446:  D6 6 8 10 
Error in line 447:  C6 8 10 10 
Error in line 448:  T5 9 1 4 5 
Error in line 449:  D2 3 8 7 
Error in line 450:  D8 3 6 5 
Error in line 451:  C9 5 3 4 
Error in line 452:  T9 8 6 3 4 
Error in line 453:  T0 9 5 1 2 
Error in line 454:  R0 5 6 7 
Error in line 455:  C0 9 7 9 
Error in line 456:  T3 5 5 1 10 
Error in line 457:  T0 9 3 8 7 
Error in line 458:  T6 8 7 3 8 
Error in line 459:  C8 7 8 1 
Error in line 460:  R2 5 5 6 
Error in line 461:  D9 8 8 7 
Error in line 462:  D3 9 6 9 
Error in line 463:  C5 8 2 10 
Error in line 464:  T2 3 5 9 6 
Error in line 465:  R4 1 2 4 
Error in line 466:  R7 5 3 7 
Error in line 467:  T3 7 6 4 2 
Error in line 468:  D8 4 9 6 
Error in line 469:  D6 2 5 6 
Error in line 470:  R2 5 7 4 
Error in line 471:  T4 5 4 3 3 
Error in line 472:  R7 6 7 8 
Error in line 473:  D4 4 9 8 
Error in line 474:  C5 5 3 7 
Error in line 475:  R1 3 3 8 
Error in line 476:  D3 2 1 3 
Error in line 477:  D5 7 10 5 
Error in line 478:  D6 4 5 2 
Error in line 479:  T7 5 1 2 7 
Error in line 480:  D2 4 3 3 
Error in line 481:  C2 6 7 1 
Error in line 482:  T9 2 2 5 6 
Error in line 483:  D7 5 2 5 
Error in line 484:  C1 2 3 1 
Error in line 485:  R3 4 2 4 
Error in line 486:  T8 3 7 10 6 
Error in line 487:  R9 10 5 4 
Error in line 488:  T8 7 9 4 7 
Error in line 489:  R0 9 2 5 
Error in line 490:  C5 9 2 6 
Error in line 491:  D4 4 2 1 
Error in line 492:  C8 6 5 1 
Error in line 493:  T3 2 4 3 4 
Error in line 494:  R7 1 3 4 
Error in line 495:  T0 4 10 3 1 
Error in line 496:  C7 10 2 8 
Error in line 497:  D6 8 3 3 
Error in line 498:  D4 8 10 2 
Error in line 499:  R7 5 10 10 
Error in line 500:  T3 4 9 6 7 
Error in line 501:  C2 10 9 4 
Error in line 502:  T4 1 7 8 4 
Error in line 503:  R5 4 8 9 
Error in line 504:  T5 10 9 1 6 
Error in line 505:  D3 8 1 10 
Error in line 506:  R6 1 7 1 
Error in line 507:  R5 9 5 4 
Error in line 508:  T5 2 10 6 3 
Error in line 509:  D3 3 9 4 
Error in line 510:  T2 6 3 10 10 
Error in line 511:  C2 4 3 6 
Error in line 512:  D6 1 6 9 
Error in line 513:  C4 6 6 3 
Error in line 514:  R9 1 6 7 
Error in line 515:  D4 7 8 1 
Error in line 516:  R0 8 1 3 
Error in line 517:  C3 9 6 10 
Error in line 518:  R5 1 9 8 
Error in line 519:  C5 2 2 1 
Error in line 520:  R3 9 5 4 
Error in line 521:  D3 5 1 1 
Error in line 522:  T6 3 2 4 4 
Error in line 523:  D9 10 10 9 
Error in line 524:  D2 8 1 9 
Error in line 525:  T3 7 3 3 4 
Error in line 526:  T7 7 9 1 6 
Error in line 527:  D3 1 2 3 
Error in line 528:  C3 9 8 3 
Error in line 529:  R5 5 10 7 
Error in line 530:  C8 10 8 3 
Error in line 531:  R3 8 7 6 
Error in line 532:  C4 2 1 4 
Error in line 533:  R1 4 7 6 
Error in line 534:  R6 8 10 5 
Error in line 535:  T1 4 9 4 8 
Error in line 536:  R2 6 9 5 
Error in line 537:  D8 10 10 8 
Error in line 538:  R5 4 3 10 
Error in line 539:  T2 5 1 2 6 
Error in line 540:  T5 2 2 1 4 
Error in line 541:  R6 3 6 10 
Error in line 542:  T9 3 2 8 10 
Error in line 543:  D5 7 10 2 
Error in line 544:  R2 4 6 1 
Error in line 545:  R3 9 10 3 
Error in line 546:  T7 6 4 7 7 
Error in line 547:  D3 10 9 1 
Error in line 548:  C5 1 3 3 
Error in line 549:  D0 3 6 3 
Error in line 550:  C1 2 2 4 
Error in line 551:  T6 10 9 2 6 
Error in line 552:  D3 1 6 9 
Error in line 553:  D3 1 7 8 
Error in line 554:  C2 5 8 5 
Error in line 555:  T1 2 6 6 10 
Error in line 556:  C0 3 5 2 
Error in line 557:  D6 4 2 6 
Error in line 558:  R5 7 9 9 
Error in line 559:  T1 10 7 5 3 
Error in line 560:  D9 4 7 4 
Error in line 561:  C5 6 8 1 
Error in line 562:  D7 3 4 8 
Error in line 563:  D2 4 7 3 
Error in line 564:  R9 7 8 4 
Error in line 565:  R8 1 9 6 
Error in line 566:  C8 6 4 5 
Error in line 567:  C6 10 10 7 
Error in line 568:  T5 7 6 9 5 
Error in line 569:  R1 10 3 4 
Error in line 570:  T8 10 10 3 1 
Error in line 571:  D7 1 7 4 
Error in line 572:  C3 8 9 4 
Error in line 573:  D9 10 8 10 
Error in line 574:  D5 9 10 7 
Error in line 575:  D0 1 10 8 
Error in line 576:  C3 1 2 9 
Error in line 577:  D8 9 2 3 
Error in line 578:  T0 4 5 10 6 
Error in line 579:  C6 5 4 7 
Error in line 580:  C6 10 6 7 
Error in line 581:  D4 9 1 5 
Error in line 582:  C1 3 3 7 
Error in line 583:  C1 3 6 1 
Error in line 584:  R9 9 10 2 
Error in line 585:  D5 1 3 4 
Error in line 586:  C4 1 6 2 
Error in line 587:  T7 8 9 2 3 
Error in line 588:  R7 10 3 1 
Error in line 589:  R7 6 5 9 
Error in line 590:  C2 6 7 9 
Error in line 591:  R7 1 3 5 
Error in line 592:  C6 8 7 1 
Error in line 593:  T6 6 9 7 7 
Error in line 594:  D7 2 8 9 
Error in line 595:  R1 8 6 6 
Error in line 596:  R2 9 5 3 
Error in line 597:  C3 5 7 6 
Error in line 598:  R2 6 8 10 
Error in line 599:  D2 7 8 4 
Error in line 600:  R3 10 8 2 
Error in line 601:  T8 8 3 6 6 
Error in line 602:  R8 6 8 2 
Error in line 603:  C3 2 10 5 
Error in line 604:  T5 9 3 3 4 
Error in line 605:  D8 5 6 7 
Error in line 606:  T2 3 10 5 7 
Error in line 607:  T1 3 4 9 7 
Error in line 608:  C0 10 4 7 
Error in line 609:  D9 5 5 5 
Error in line 610:  C1 7 3 4 
Error in line 611:  C6 5 6 3 
Error in line 612:  C5 5 1 1 
Error in line 613:  T6 8 8 3 3 
Error in line 614:  R2 8 7 2 
Error in line 615:  R2 8 1 6 
Error in line 616:  C0 10 1 7 
Error in line 617:  T8 7 3 10 9 
Error in line 618:  D2 5 6 4 
Error in line 619:  R7 4 3 7 
Error in line 620:  D2 4 4 4 
Error in line 621:  C3 4 10 6 
Error in line 622:  R0 3 7 9 
Error in line 623:  R3 4 3 4 
Error in line 624:  D2 9 8 3 
Error in line 625:  C7 8 1 6 
Error in line 626:  C3 3 2 5 
Error in line 627:  T9 3 10 9 4 
Error in line 628:  T9 8 7 10 8 
Error in line 629:  T7 9 4 4 4 
Error in line 630:  C2 7 1 6 
Error in line 631:  R1 9 5 7 
Error in line 632:  C8 9 4 8 
Error in line 633:  C0 5 5 9 
Error in line 634:  C8 1 4 7 
Error in line 635:  R2 4 9 5 
Error in line 636:  C3 1 1 7 
Error in line 637:  C0 10 1 8 
Error in line 638:  T4 9 6 3 8 
Error in line 639:  D6 4 6 10 
Error in line 640:  T6 10 7 7 3 
Error in line 641:  R3 2 9 10 
Error in line 642:  D6 4 2 10 
Error in line 643:  R3 6 4 3 
Error in line 644:  R0 6 3 7 
Error in line 645:  T1 6 8 2 10 
Error in line 646:  D1 3 9 5 
Error in line 647:  R8 10 9 7 
Error in line 648:  T0 8 3 1 4 
Error in line 649:  R3 3 4 9 
Error in line 650:  R4 9 2 7 
Error in line 651:  T0 6 3 2 3 
Error in line 652:  T5 2 9 1 8 
Error in line 653:  T4 3 5 9 7 
Error in line 654:  R7 6 1 8 
Error in line 655:  C8 3 2 8 
Error in line 656:  D4 2 7 1 
Error in line 657:  T6 6 6 5 10 
Error in line 658:  R0 7 8 7 
Error in line 659:  C3 1 5 5 
Error in line 660:  D0 3 10 9 
Error in line 661:  T3 4 8 9 6 
Error in line 662:  R8 5 4 6 
Error in line 663:  T4 10 6 2 6 
Error in line 664:  C7 10 7 2 
Error in line 665:  D8 7 1 8 
Error in line 666:  R1 2 6 9 
Error in line 667:  R6 6 10 7 
Error in line 668:  C0 5 7 1 
Error in line 669:  D9 1 1 9 
Error in line 670:  D1 5 8 3 
Error in line 671:  C9 10 9 1 
Error in line 672:  T3 8 10 8 10 
Error in line 673:  T8 1 4 10 4 
Error in line 674:  C9 3 6 5 
Error in line 675:  R7 2 5 5 
Error in line 676:  R3 5 10 5 
Error in line 677:  C3 9 3 3 
Error in line 678:  C7 1 8 3 
Error in line 679:  D1 9 9 9 
Error in line 680:  D5 5 7 9 
Error in line 681:  T0 6 5 8 5 
Error in line 682:  C5 10 9 8 
Error in line 683:  C2 1 2 7 
Error in line 684:  R7 6 7 9 
Error in line 685:  T4 3 5 1 2 
Error in line 686:  D6 6 7 3 
Error in line 687:  D5 5 9 4 
Error in line 688:  C1 2 10 10 
Error in line 689:  D1 10 5 1 
Error in line 690:  T2 6 6 7 1 
Error in line 691:  D5 4 2 1 
Error in line 692:  T4 2 7 6 5 
Error in line 693:  R7 3 3 9 
Error in line 694:  D6 10 7 7 
Error in line 695:  R9 8 9 8 
Error in line 696:  T3 6 7 8 1 
Error in line 697:  T5 6 5 5 2 
Error in line 698:  T7 10 3 3 1 
Error in line 699:  D8 3 7 9 
Error in line 700:  C3 2 8 1 
Error in line 701:  R9 2 3 7 
Error in line 702:  D1 8 3 3 
Error in line 703:  R3 10 3 4 
Error in line 704:  R2 2 8 5 
Error in line 705:  D2 2 4 5 
Error in line 706:  R3 8 4 7 
Error in line 707:  R7 10 3 9 
Error in line 708:  T5 6 9 2 3 
Error in line 709:  D4 1 2 8 
Error in line 710:  D3 10 4 8 
Error in line 711:  C5 10 1 3 
Error in line 712:  R2 4 9 2 
Error in line 713:  T4 8 8 1 6 
Error in line 714:  T4 10 7 2 2 
Error in line 715:  T7 7 1 3 1 
Error in line 716:  D3 3 10 9 
Error in line 717:  R6 10 2 7 
Error in line 718:  C0 4 7 4 
Error in line 719:  R5 1 3 10 
Error in line 720:  D3 8 1 10 
Error in line 721:  D1 3 1 2 
Error in line 722:  T6 4 2 3 5 
Error in line 723:  D9 9 1 5 
Error in line 724:  D6 1 7 7 
Error in line 725:  R4 1 8 5 
Error in line 726:  C3 9 7 3 
Error in line 727:  R5 9 6 8 
Error in line 728:  R9 1 1 1 
Error in line 729:  D2 1 4 6 
Error in line 730:  T3 1 9 5 5 
Error in line 731:  T9 8 1 5 4 
Error in line 732:  C0 7 2 2 
Error in line 733:  T9 4 6 1 6 
Error in line 734:  T3 5 9 2 2 
Error in line 735:  T3 6 7 3 9 
Error in line 736:  T3 8 10 7 1 
Error in line 737:  T6 6 8 9 2 
Error in line 738:  D9 9 4 8 
Error in line 739:  R0 2 5 2 
Error in line 740:  T2 9 8 2 8 
Error in line 741:  R2 5 4 8 
Error in line 742:  C4 5 5 1 
Error in line 743:  D0 7 1 5 
Error in line 744:  D8 8 4 1 
Error in line 745:  T5 7 8 9 6 
Error in line 746:  T2 10 5 7 1 
Error in line 747:  C9 6 5 4 
Error in line 748:  T4 8 5 7 8 
Error in line 749:  T0 1 4 4 8 
Error in line 750:  T0 2 10 3 10 
Error in line 751:  C7 8 2 1 
Error in line 752:  C9 7 5 1 
Error in line 753:  R6 3 1 2 
Error in line 754:  C9 8 1 5 
Error in line 755:  C3 4 6 9 
Error in line 756:  T2 6 3 5 3 
Error in line 757:  D3 5 6 1 
Error in line 758:  T2 2 9 4 5 
Error in line 759:  D8 1 9 3 
Error in line 760:  D3 9 2 6 
Error in line 761:  C8 2 8 9 
Error in line 762:  D3 7 1 5 
Error in line 763:  R1 9 1 10 
Error in line 764:  R0 9 6 7 
Error in line 765:  R3 4 5 1 
Error in line 766:  D2 7 6 10 
Error in line 767:  T5 1 2 6 4 
Error in line 768:  T9 8 2 8 4 
Error in line 769:  R6 7 1 5 
Error in line 770:  R0 6 6 9 
Error in line 771:  D5 9 2 3 
Error in line 772:  T7 4 2 3 4 
Error in line 773:  R9 8 2 1 
Error in line 774:  T2 6 10 10 7 
Error in line 775:  C2 9 8 8 
Error in line 776:  C9 9 7 2 
Error in line 777:  C8 3 8 1 
Error in line 778:  D7 9 7 6 
Error in line 779:  C5 3 4 8 
Error in line 780:  R3 4 9 7 
Error in line 781:  C3 3 4 4 
Error in line 782:  D0 10 2 2 
Error in line 783:  T8 8 7 2 5 
Error in line 784:  D9 8 3 3 
Error in line 785:  R3 4 2 5 
Error in line 786:  C2 5 7 5 
Error in line 787:  C2 3 8 1 
Error in line 788:  R8 1 10 9 
Error in line 789:  C6 4 8 6 
Error in line 790:  C9 10 7 9 
Error in line 791:  C7 8 10 9 
Error in line 792:  T0 9 10 7 2 
Error in line 793:  C9 9 3 6 
Error in line 794:  C2 5 7 2 
Error in line 795:  T7 8 4 4 10 
Error in line 796:  T8 6 7 7 6 
Error in line 797:  T7 4 3 9 1 
Error in line 798:  T3 9 7 9 1 
Error in line 799:  T7 7 9 2 10 
Error in line 800:  T2 3 7 9 2 
Error in line 801:  T7 7 9 2 5 
Error in line 802:  C2 9 10 10 
Error in line 803:  T0 6 1 7 9 
Error in line 804:  C5 1 2 3 
Error in line 805:  D5 8 3 2 
Error in line 806:  R9 4 6 1 
Error in line 807:  T9 10 3 3 3 
Error in line 808:  D9 8 6 5 
Error in line 809:  R2 8 2 6 
Error in line 810:  T8 9 4 8 2 
Error in line 811:  D7 2 3 5 
Error in line 812:  T5 5 5 4 9 
Error in line 813:  T5 7 2 9 9 
Error in line 814:  R7 8 8 1 
Error in line 815:  D9 7 9 5 
Error in line 816:  R2 5 4 9 
Error in line 817:  R8 7 2 10 
Error in line 818:  T1 1 7 2 6 
Error in line 819:  D0 9 10 10 
Error in line 820:  C5 7 9 10 
Error in line 821:  D5 8 2 2 
Error in line 822:  C7 2 3 9 
Error in line 823:  D1 4 10 5 
Error in line 824:  R3 5 2 8 
Error in line 825:  C8 7 4 1 
Error in line 826:  T9 1 8 10 8 
Error in line 827:  R1 2 2 6 
Error in line 828:  C2 10 4 10 
Error in line 829:  R3 4 1 6 
Error in line 830:  T6 4 5 1 5 
Error in line 831:  C1 3 4 1 
Error in line 832:  R1 2 2 4 
Error in line 833:  C7 4 1 1 
Error in line 834:  R3 2 2 8 
Error in line 835:  R5 6 3 10 
Error in line 836:  T6 7 4 9 8 
Error in line 837:  C8 9 8 6 
Error in line 838:  C8 7 8 8 
Error in line 839:  D4 2 1 10 
Error in line 840:  D3 7 6 4 
Error in line 841:  T3 2 4 5 7 
Error in line 842:  R6 6 8 10 
Error in line 843:  R6 2 3 6 
Error in line 844:  R5 9 4 6 
Error in line 845:  T4 6 9 1 5 
Error in line 846:  C4 3 5 8 
Error in line 847:  D1 8 7 1 
Error in line 848:  D0 3 9 3 
Error in line 849:  C7 2 5 5 
Error in line 850:  T9 1 1 6 2 
Error in line 851:  T2 6 5 8 1 
Error in line 852:  D2 1 2 4 
Error in line 853:  C8 7 2 9 
Error in line 854:  D9 8 2 9 
Error in line 855:  D4 6 4 3 
Error in line 856:  R5 4 5 8 
Error in line 857:  R8 4 6 3 
Error in line 858:  R9 7 6 2 
Error in line 859:  C6 1 6 5 
Error in line 860:  T0 3 6 10 4 
Error in line 861:  R4 1 6 4 
Error in line 862:  T5 10 8 6 2 
Error in line 863:  C8 1 1 9 
Error in line 864:  R8 6 6 1 
Error in line 865:  D6 9 3 1 
Error in line 866:  C3 4 6 7 
Error in line 867:  C2 1 3 9 
Error in line 868:  D6 7 7 6 
Error in line 869:  T7 5 2 5 7 
Error in line 870:  T0 10 7 10 8 
Error in line 871:  T1 10 5 4 2 
Error in line 872:  D8 2 9 6 
Error in line 873:  R6 10 4 2 
Error in line 874:  C9 3 7 9 
Error in line 875:  T0 9 5 1 10 
Error in line 876:  T7 6 4 8 10 
Error in line 877:  R1 10 8 2 
Error in line 878:  R1 8 8 7 
Error in line 879:  R6 1 10 10 
Error in line 880:  D7 1 10 9 
Error in line 881:  T5 10 5 6 10 
Error in line 882:  D0 9 7 9 
Error in line 883:  R2 5 6 7 
Error in line 884:  R3 9 6 7 
Error in line 885:  T0 1 10 6 7 
Error in line 886:  C3 10 10 8 
Error in line 887:  D5 9 8 2 
Error in line 888:  D8 5 7 9 
Error in line 889:  T6 2 8 9 3 
Error in line 890:  T5 10 3 2 3 
Error in line 891:  T0 8 8 5 3 
Error in line 892:  R3 4 2 6 
Error in line 893:  D7 3 8 10 
Error in line 894:  R0 5 4 6 
Error in line 895:  T1 3 1 1 8 
Error in line 896:  C2 7 5 2 
Error in line 897:  D3 6 8 3 
Error in line 898:  D9 6 9 6 
Error in line 899:  D1 3 10 5 
Error in line 900:  D4 4 6 5 
Error in line 901:  D5 3 7 6 
Error in line 902:  C2 9 8 5 
Error in line 903:  R3 9 8 5 
Error in line 904:  C6 9 6 5 
Error in line 905:  T8 1 7 7 7 
Error in line 906:  C8 8 8 5 
Error in line 907:  R8 7 6 8 
Error in line 908:  D8 8 8 3 
Error in line 909:  R4 6 9 1 
Error in line 910:  R5 3 1 7 
Error in line 911:  R3 6 7 8 
Error in line 912:  R6 4 2 7 
Error in line 913:  T6 4 4 3 10 
Error in line 914:  D6 4 2 3 
Error in line 915:  C3 10 4 7 
Error in line 916:  C1 9 1 10 
Error in line 917:  D3 9 1 8 
Error in line 918:  T1 2 4 1 10 
Error in line 919:  R7 4 4 4 
Error in line 920:  R0 10 10 7 
Error in line 921:  D2 6 4 9 
Error in line 922:  C7 3 1 10 
Error in line 923:  R5 6 7 8 
Error in line 924:  C1 5 3 1 
Error in line 925:  C9 7 3 3 
Error in line 926:  C1 10 5 8 
Error in line 927:  C3 7 2 7 
Error in line 928:  C8 5 7 4 
Error in line 929:  R3 4 8 2 
Error in line 930:  R0 10 10 5 
Error in line 931:  C6 5 2 6 
Error in line 932:  R3 1 7 9 
Error in line 933:  D4 9 6 5 
Error in line 934:  C8 1 4 6 
Error in line 935:  C0 4 8 5 
Error in line 936:  T9 5 3 6 9 
Error in line 937:  R8 9 9 4 
Error in line 938:  R2 3 6 3 
Error in line 939:  T3 2 9 8 4 
Error in line 940:  D5 9 9 6 
Error in line 941:  D3 7 5 6 
Error in line 942:  R5 4 9 5 
Error in line 943:  D4 6 4 2 
Error in line 944:  T9 7 7 10 4 
Error in line 945:  D0 6 4 4 
Error in line 946:  D1 8 3 4 
Error in line 947:  R2 1 9 4 
Error in line 948:  R5 4 5 5 
Error in line 949:  C3 5 2 6 
Error in line 950:  T2 3 6 9 7 
Error in line 951:  R4 2 10 4 
Error in line 952:  C8 9 6 5 
Error in line 953:  T1 2 5 2 4 
Error in line 954:  D3 4 1 6 
Error in line 955:  D9 9 6 8 
Error in line 956:  D3 8 4 9 
Error in line 957:  R4 10 8 4 
Error in line 958:  D2 4 4 10 
Error in line 959:  C6 5 9 8 
Error in line 960:  R8 5 8 3 
Error in line 961:  C9 5 2 10 
Error in line 962:  R3 1 9 3 
Error in line 963:  D1 5 4 4 
Error in line 964:  T8 6 2 6 2 
Error in line 965:  D5 6 9 8 
Error in line 966:  C5 10 3 5 
Error in line 967:  T1 9 3 5 4 
Error in line 968:  R9 2 9 2 
Error in line 969:  D0 8 7 5 
Error in line 970:  C8 10 9 3 
Error in line 971:  T1 5 4 4 5 
Error in line 972:  C3 7 7 2 
Error in line 973:  R7 8 2 3 
Error in line 974:  T2 6 1 9 5 
Error in line 975:  D7 1 3 7 
Error in line 976:  C2 1 2 6 
Error in line 977:  D3 1 6 1 
Error in line 978:  C8 3 10 7 
Error in line 979:  R9 1 7 2 
Error in line 980:  R3 8 9 6 
Error in line 981:  D5 6 2 7 
Error in line 982:  D7 6 8 8 
Error in line 983:  T2 10 6 8 7 
Error in line 984:  C9 5 1 10 
Error in line 985:  D3 2 10 8 
Error in line 986:  R5 10 4 3 
Error in line 987:  T0 7 9 1 3 
Error in line 988:  C9 7 7 2 
Error in line 989:  C5 3 1 2 
Error in line 990:  D1 6 5 10 
Error in line 991:  T8 3 6 9 10 
Error in line 992:  D7 8 3 3 
Error in line 993:  D5 5 6 6 
Error in line 994:  D9 4 1 4 
Error in line 995:  R0 3 9 8 
Error in line 996:  C9 1 4 10 
Error in line 997:  T4 2 4 5 3 
Error in line 998:  D8 1 2 10 
Error in line 999:  T3 1 5 9 5 
Error in line 1000:  T9 10 4 2 4 
Warning, unconnected node(s): 0
