Error in line 6:  R0 1 3 3 
Error in line 10:  T2 7 4 9 4 
Error in line 11:  C0 7 7 7 
Error in line 18:  T2 4 10 3 7 
Error in line 19:  T2 9 8 4 10 
Error in line 20:  T5 10 1 10 6 
Error in line 23:  C4 5 8 2 
Error in line 24:  C4 10 8 7 
Error in line 25:  R9 9 5 7 
Error in line 29:  R6 3 3 7 
Error in line 30:  T5 4 2 8 7 
Error in line 33:  D7 9 6 7 
Error in line 34:  T3 9 6 8 5 
Error in line 37:  C4 3 5 9 
Error in line 39:  R5 7 8 10 
Error in line 41:  D2 6 3 6 
Error in line 42:  R1 2 2 1 
Error in line 43:  T5 1 6 4 4 
Error in line 44:  R5 6 5 2 
Error in line 47:  R5 2 3 6 
Error in line 49:  C0 2 8 7 
Error in line 50:  D1 4 2 10 
Error in line 51:  T2 2 1 4 10 
Error in line 53:  R9 9 1 7 
Error in line 54:  D1 5 6 10 
Error in line 55:  C6 1 1 1 
Error in line 56:  C2 3 6 6 
Error in line 59:  C9 6 4 1 
Error in line 62:  T7 3 2 10 7 
Error in line 63:  D1 1 7 5 
Error in line 64:  T5 2 7 2 2 
Error in line 65:  D3 2 10 5 
Error in line 66:  C8 8 4 9 
Error in line 67:  R0 3 8 3 
Error in line 68:  T0 9 1 1 8 
Error in line 69:  D2 8 6 5 
Error in line 70:  D9 7 1 5 
Error in line 71:  C0 7 3 2 
Error in line 73:  R7 3 7 4 
Error in line 74:  R7 4 1 8 
Error in line 75:  R2 1 8 4 
Error in line 76:  C0 2 4 9 
Error in line 77:  C1 8 5 5 
Error in line 78:  T9 2 9 7 1 
Error in line 79:  T7 10 1 4 10 
Error in line 80:  R9 8 2 9 
Error in line 81:  D0 2 10 3 
Error in line 82:  R0 3 7 2 
Error in line 84:  C6 2 9 6 
Error in line 85:  R2 8 2 8 
Error in line 86:  C9 7 1 5 
Error in line 87:  C2 5 1 10 
Error in line 88:  R4 6 10 7 
Error in line 89:  R7 6 7 5 
Error in line 90:  R5 2 2 5 
Error in line 91:  C1 10 10 3 
Error in line 92:  T6 3 1 5 9 
Error in line 94:  T3 4 4 3 6 
Error in line 95:  C1 10 10 2 
Error in line 96:  T3 10 5 1 8 
Error in line 97:  R5 1 9 5 
Error in line 98:  D3 3 1 4 
Error in line 99:  C5 4 6 2 
Error in line 100:  R2 6 10 9 
Error in line 101:  C9 7 5 8 
Error in line 102:  D9 5 10 7 
Error in line 103:  D0 10 6 7 
Error in line 104:  T0 2 6 5 5 
Error in line 105:  R2 4 10 5 
Error in line 106:  T7 6 7 7 9 
Error in line 107:  R0 4 7 2 
Error in line 108:  R5 8 5 4 
Error in line 109:  C9 5 5 10 
Error in line 110:  D2 8 7 9 
Error in line 111:  R4 4 1 10 
Error in line 112:  T4 5 3 4 9 
Error in line 113:  C6 6 1 2 
Error in line 114:  T7 8 7 6 10 
Error in line 115:  R4 8 6 8 
Error in line 116:  D7 8 3 5 
Error in line 117:  T1 7 10 7 4 
Error in line 118:  C7 1 3 3 
Error in line 119:  C2 9 7 9 
Error in line 120:  R0 5 4 6 
Error in line 121:  T7 10 2 1 6 
Error in line 122:  R9 3 3 4 
Error in line 123:  T1 6 6 6 3 
Error in line 124:  R9 5 3 9 
Error in line 125:  D3 8 3 7 
Error in line 126:  R2 3 2 4 
Error in line 127:  R7 3 3 9 
Error in line 128:  T9 10 7 3 9 
Error in line 129:  C0 1 3 6 
Error in line 130:  R2 4 8 5 
Error in line 131:  D2 5 9 1 
Error in line 132:  C8 9 1 9 
Error in line 133:  T9 4 9 1 6 
Error in line 134:  R5 6 1 6 
Error in line 135:  D8 10 4 6 
Error in line 136:  T4 8 1 8 10 
Error in line 137:  R7 6 5 5 
Error in line 139:  T4 4 2 7 4 
Error in line 140:  D3 4 7 7 
Error in line 141:  R1 1 7 4 
Error in line 142:  C1 3 6 10 
Error in line 143:  T7 2 7 7 5 
Error in line 144:  R2 7 5 7 
Error in line 145:  C6 3 2 5 
Error in line 146:  T0 1 8 10 4 
Error in line 147:  T3 2 6 3 9 
Error in line 148:  D7 4 9 6 
Error in line 149:  D1 7 7 4 
Error in line 150:  T1 10 1 5 7 
Error in line 151:  T7 3 3 10 4 
Error in line 152:  R0 9 10 7 
Error in line 154:  C2 9 2 5 
Error in line 155:  C4 5 7 5 
Error in line 156:  D2 3 9 10 
Error in line 157:  D1 4 2 5 
Error in line 158:  D2 4 10 9 
Error in line 159:  R4 10 10 1 
Error in line 160:  T4 1 2 9 7 
Error in line 161:  T6 10 4 8 2 
Error in line 162:  D6 9 2 4 
Error in line 163:  C4 8 6 9 
Error in line 164:  R4 2 10 1 
Error in line 165:  D1 2 3 9 
Error in line 166:  T4 1 8 9 10 
Error in line 167:  C1 5 2 10 
Error in line 168:  T5 9 1 7 6 
Error in line 169:  D9 10 10 6 
Error in line 170:  C0 2 5 2 
Error in line 171:  T2 10 10 7 10 
Error in line 172:  D3 5 8 3 
Error in line 173:  D0 3 8 7 
Error in line 174:  C4 6 4 6 
Error in line 175:  D1 5 2 4 
Error in line 176:  D7 2 1 10 
Error in line 177:  D8 4 3 7 
Error in line 178:  R7 5 4 7 
Error in line 179:  C5 10 1 2 
Error in line 180:  T2 6 5 9 2 
Error in line 181:  T3 3 9 6 8 
Error in line 182:  C8 2 4 4 
Error in line 183:  D6 6 9 7 
Error in line 184:  T1 9 4 4 8 
Error in line 185:  D1 2 8 3 
Error in line 186:  C6 2 8 6 
Error in line 187:  C9 6 5 8 
Error in line 188:  D6 3 10 2 
Error in line 189:  C0 2 8 3 
Error in line 190:  T5 4 1 3 5 
Error in line 191:  D8 9 5 1 
Error in line 192:  T4 4 9 5 5 
Error in line 193:  D6 5 1 4 
Error in line 194:  T0 5 3 8 1 
Error in line 195:  C0 10 6 2 
Error in line 196:  R8 6 6 10 
Error in line 197:  T3 10 5 3 2 
Error in line 198:  C4 3 7 7 
Error in line 199:  T1 3 9 7 9 
Error in line 200:  D3 10 8 3 
Error in line 201:  T1 2 8 10 1 
Error in line 202:  R6 2 2 4 
Error in line 203:  R8 2 4 1 
Error in line 204:  R1 6 8 9 
Error in line 205:  C9 1 6 4 
Error in line 206:  R9 2 1 8 
Error in line 207:  T7 4 9 3 4 
Error in line 208:  R8 1 2 10 
Error in line 209:  C9 5 10 7 
Error in line 210:  D4 2 8 1 
Error in line 211:  D7 4 8 5 
Error in line 212:  C9 10 8 3 
Error in line 213:  C2 9 6 3 
Error in line 214:  R1 6 2 1 
Error in line 215:  T2 5 1 3 6 
Error in line 216:  R6 5 8 3 
Error in line 217:  D7 2 4 1 
Error in line 218:  D1 7 5 2 
Error in line 219:  C2 8 7 1 
Error in line 220:  C2 6 4 6 
Error in line 221:  C9 9 7 6 
Error in line 222:  R8 7 1 10 
Error in line 223:  D9 9 4 2 
Error in line 224:  R8 4 10 4 
Error in line 225:  R6 3 4 6 
Error in line 227:  R2 6 7 10 
Error in line 228:  C4 7 6 6 
Error in line 229:  D7 5 9 4 
Error in line 230:  C6 3 4 4 
Error in line 231:  D9 2 10 7 
Error in line 232:  R5 10 6 8 
Error in line 233:  C1 8 1 8 
Error in line 234:  T0 2 5 1 2 
Error in line 235:  D4 7 10 5 
Error in line 236:  T7 6 8 5 5 
Error in line 237:  C7 4 3 9 
Error in line 238:  T9 1 10 1 4 
Error in line 239:  D1 3 4 7 
Error in line 240:  T8 4 1 3 4 
Error in line 241:  C4 1 9 5 
Error in line 242:  D6 9 5 4 
Error in line 243:  C1 1 6 5 
Error in line 244:  R2 3 1 9 
Error in line 245:  D1 8 7 9 
Error in line 246:  C3 10 6 6 
Error in line 247:  T6 7 5 8 6 
Error in line 248:  T1 7 4 2 10 
Error in line 249:  D6 3 4 2 
Error in line 250:  T0 5 6 1 6 
Error in line 251:  D1 4 4 7 
Error in line 252:  C7 10 8 3 
Error in line 253:  T5 8 3 7 7 
Error in line 254:  C0 2 7 5 
Error in line 255:  C7 7 6 5 
Error in line 256:  C0 7 8 7 
Error in line 257:  T5 4 10 10 7 
Error in line 258:  C7 10 10 9 
Error in line 259:  R0 6 6 6 
Error in line 260:  T4 7 4 1 6 
Error in line 261:  C0 8 8 8 
Error in line 262:  C6 1 8 10 
Error in line 263:  D6 9 2 7 
Error in line 264:  T2 3 5 9 1 
Error in line 265:  R5 5 9 4 
Error in line 266:  R8 7 3 2 
Error in line 267:  T7 5 8 4 6 
Error in line 268:  D9 3 9 8 
Error in line 269:  C2 7 10 8 
Error in line 270:  R2 8 8 9 
Error in line 271:  R2 4 6 6 
Error in line 272:  C2 8 6 8 
Error in line 273:  D9 4 6 4 
Error in line 274:  R5 8 10 2 
Error in line 275:  R6 10 3 5 
Error in line 276:  T9 5 10 10 7 
Error in line 277:  R1 9 7 6 
Error in line 278:  D0 8 10 4 
Error in line 279:  R1 2 4 3 
Error in line 280:  R7 8 6 3 
Error in line 281:  R1 10 10 2 
Error in line 282:  D6 7 7 10 
Error in line 283:  T9 4 2 1 6 
Error in line 284:  C3 7 8 9 
Error in line 285:  R4 4 8 4 
Error in line 286:  C8 9 10 2 
Error in line 287:  R8 3 5 7 
Error in line 288:  C7 10 2 9 
Error in line 289:  R7 10 6 3 
Error in line 290:  C6 5 2 10 
Error in line 291:  D8 1 3 6 
Error in line 292:  R0 4 8 4 
Error in line 293:  R5 2 7 3 
Error in line 294:  C0 7 7 5 
Error in line 295:  C5 2 10 2 
Error in line 296:  C7 10 7 7 
Error in line 297:  T7 2 4 8 1 
Error in line 298:  C7 2 3 3 
Error in line 299:  R1 7 5 4 
Error in line 300:  R6 5 3 5 
Error in line 301:  T7 9 10 2 10 
Error in line 302:  C9 8 4 3 
Error in line 303:  C3 2 2 7 
Error in line 304:  D2 5 8 4 
Error in line 305:  R7 6 10 5 
Error in line 306:  T9 5 3 2 1 
Error in line 307:  C6 7 5 5 
Error in line 308:  C9 2 1 10 
Error in line 309:  T8 1 4 10 1 
Error in line 310:  D8 3 2 3 
Error in line 311:  R7 3 1 7 
Error in line 312:  C7 6 9 7 
Error in line 313:  R2 7 2 7 
Error in line 314:  T6 8 9 9 7 
Error in line 315:  C5 4 6 8 
Error in line 316:  C2 1 3 5 
Error in line 317:  R7 3 8 1 
Error in line 318:  C7 6 6 4 
Error in line 319:  C6 3 5 1 
Error in line 320:  R2 7 2 10 
Error in line 321:  T7 2 2 5 8 
Error in line 322:  C2 9 10 6 
Error in line 323:  C8 8 2 9 
Error in line 324:  D6 10 3 5 
Error in line 325:  D1 5 2 2 
Error in line 327:  T4 1 8 7 1 
Error in line 328:  R3 5 6 10 
Error in line 329:  D7 1 1 1 
Error in line 330:  C8 3 1 8 
Error in line 331:  R4 5 2 6 
Error in line 332:  D5 5 10 6 
Error in line 333:  C7 1 10 2 
Error in line 334:  D7 1 2 8 
Error in line 335:  R5 3 8 3 
Error in line 336:  C6 1 10 8 
Error in line 337:  C5 9 5 8 
Error in line 338:  R4 10 1 1 
Error in line 339:  D4 8 5 3 
Error in line 340:  R8 9 5 6 
Error in line 341:  R7 8 4 10 
Error in line 342:  T7 3 8 4 8 
Error in line 343:  R5 9 8 8 
Error in line 344:  T2 5 7 8 8 
Error in line 345:  T8 3 1 3 7 
Error in line 346:  R6 3 9 8 
Error in line 347:  D2 6 4 8 
Error in line 348:  R7 5 9 7 
Error in line 349:  T8 8 7 1 3 
Error in line 350:  T6 4 7 8 8 
Error in line 351:  R0 6 4 3 
Error in line 352:  R0 2 5 9 
Error in line 353:  R2 2 8 3 
Error in line 354:  R5 10 6 10 
Error in line 355:  T5 3 6 9 3 
Error in line 356:  R4 5 9 10 
Error in line 357:  R3 7 2 3 
Error in line 358:  C4 7 10 8 
Error in line 359:  R4 10 6 1 
Error in line 360:  C2 5 3 4 
Error in line 361:  D0 2 6 5 
Error in line 362:  T5 6 1 5 1 
Error in line 363:  D9 3 9 2 
Error in line 364:  R8 5 6 9 
Error in line 365:  T4 10 6 1 1 
Error in line 366:  D4 6 10 4 
Error in line 367:  D6 4 9 7 
Error in line 368:  T2 8 6 9 4 
Error in line 369:  C1 7 8 5 
Error in line 370:  C0 1 7 10 
Error in line 371:  R4 7 7 7 
Error in line 372:  D7 7 8 8 
Error in line 373:  D5 7 5 9 
Error in line 374:  D7 9 6 1 
Error in line 375:  C2 3 5 10 
Error in line 376:  D8 2 7 8 
Error in line 377:  R5 4 1 4 
Error in line 378:  R7 4 10 3 
Error in line 379:  D0 10 7 6 
Error in line 380:  R8 4 1 5 
Error in line 381:  D0 6 10 6 
Error in line 382:  T7 5 6 10 6 
Error in line 383:  C6 4 7 10 
Error in line 384:  C5 5 1 1 
Error in line 385:  D0 5 5 5 
Error in line 386:  T2 6 3 3 9 
Error in line 387:  T0 5 1 9 6 
Error in line 388:  T0 9 6 3 4 
Error in line 389:  T2 9 4 7 4 
Error in line 390:  D6 8 8 4 
Error in line 391:  D3 4 7 7 
Error in line 392:  C5 9 6 7 
Error in line 393:  R3 9 1 2 
Error in line 394:  C8 9 10 3 
Error in line 395:  C5 6 2 4 
Error in line 396:  C8 10 2 8 
Error in line 397:  T5 4 10 5 3 
Error in line 398:  D6 10 8 8 
Error in line 399:  R9 4 3 2 
Error in line 400:  R7 5 8 4 
Error in line 401:  D5 5 5 2 
Error in line 402:  R8 1 6 2 
Error in line 403:  C3 7 1 4 
Error in line 404:  T0 10 4 7 2 
Error in line 405:  C3 6 10 5 
Error in line 406:  R9 3 1 10 
Error in line 407:  R9 2 9 5 
Error in line 408:  C6 3 7 10 
Error in line 409:  D3 8 5 6 
Error in line 410:  R8 2 3 10 
Error in line 411:  R8 10 5 9 
Error in line 412:  T1 3 10 1 3 
Error in line 413:  R2 2 2 10 
Error in line 414:  D1 6 8 7 
Error in line 415:  D6 9 9 4 
Error in line 416:  D8 10 3 6 
Error in line 417:  D4 3 5 7 
Error in line 418:  D2 10 7 7 
Error in line 419:  C5 10 6 5 
Error in line 420:  C7 10 1 9 
Error in line 421:  D2 10 2 8 
Error in line 422:  T9 10 3 1 3 
Error in line 423:  R6 7 1 2 
Error in line 424:  C2 8 5 8 
Error in line 425:  D1 9 4 3 
Error in line 426:  T0 2 7 7 1 
Error in line 427:  T4 7 5 5 6 
Error in line 428:  R9 9 8 10 
Error in line 429:  C0 7 3 8 
Error in line 430:  D6 5 10 10 
Error in line 431:  C1 8 5 5 
Error in line 432:  C7 2 5 5 
Error in line 433:  D3 5 3 8 
Error in line 434:  T2 9 1 1 5 
Error in line 435:  D0 6 10 10 
Error in line 436:  T5 8 8 5 10 
Error in line 437:  R2 6 7 10 
Error in line 438:  D7 8 10 6 
Error in line 439:  R2 1 5 9 
Error in line 440:  D4 8 8 1 
Error in line 441:  R3 5 4 1 
Error in line 442:  D5 8 3 5 
Error in line 443:  D7 4 1 3 
Error in line 444:  T9 1 9 1 8 
Error in line 445:  T2 6 3 4 5 
Error in line 446:  C6 3 6 7 
Error in line 447:  R7 10 1 5 
Error in line 448:  R2 3 9 3 
Error in line 449:  C6 4 9 6 
Error in line 450:  T1 2 6 3 8 
Error in line 451:  T8 4 10 2 7 
Error in line 452:  D5 10 2 8 
Error in line 453:  T3 4 6 8 2 
Error in line 454:  C2 1 8 4 
Error in line 455:  R9 4 3 1 
Error in line 456:  T6 8 3 8 10 
Error in line 457:  R1 4 10 1 
Error in line 458:  T2 8 3 10 2 
Error in line 459:  R7 9 7 10 
Error in line 460:  D0 7 9 5 
Error in line 461:  D4 4 1 2 
Error in line 462:  T4 9 3 6 3 
Error in line 463:  R7 3 10 8 
Error in line 464:  D0 5 9 10 
Error in line 465:  C8 4 7 5 
Error in line 466:  T8 3 9 2 7 
Error in line 467:  R9 4 4 7 
Error in line 468:  D2 6 2 1 
Error in line 469:  R6 5 6 3 
Error in line 470:  R7 9 9 6 
Error in line 471:  T1 6 3 7 1 
Error in line 472:  T1 3 4 1 10 
Error in line 473:  C3 8 8 8 
Error in line 474:  C9 9 1 3 
Error in line 475:  D1 2 7 6 
Error in line 476:  D0 6 8 4 
Error in line 477:  R4 10 8 10 
Error in line 478:  T7 1 5 6 1 
Error in line 479:  T4 6 5 1 10 
Error in line 480:  C6 5 10 9 
Error in line 481:  T9 1 4 10 8 
Error in line 482:  R6 7 5 2 
Error in line 483:  C9 1 7 7 
Error in line 484:  R0 4 8 3 
Error in line 485:  R1 8 7 8 
Error in line 486:  D9 5 1 6 
Error in line 487:  D9 10 3 6 
Error in line 488:  C4 10 2 1 
Error in line 489:  C3 4 2 4 
Error in line 490:  D1 8 5 10 
Error in line 491:  R5 4 9 8 
Error in line 492:  D9 1 7 8 
Error in line 493:  C4 1 5 9 
Error in line 494:  C7 10 7 8 
Error in line 495:  D3 5 5 4 
Error in line 496:  C7 3 5 10 
Error in line 497:  T8 2 3 10 7 
Error in line 498:  R8 4 9 3 
Error in line 499:  T1 2 8 6 7 
Error in line 500:  C5 1 1 6 
Error in line 501:  T3 9 9 3 6 
Error in line 502:  T8 5 7 3 7 
Error in line 503:  D2 1 3 1 
Error in line 504:  T0 6 1 7 1 
Error in line 505:  R4 1 6 6 
Error in line 506:  D1 3 7 6 
Error in line 507:  T9 7 10 9 6 
Error in line 508:  D3 4 5 10 
Error in line 509:  T5 9 7 7 9 
Error in line 510:  C6 9 10 8 
Error in line 511:  T6 4 9 6 6 
Error in line 512:  R2 1 5 2 
Error in line 513:  D4 2 4 6 
Error in line 514:  R5 3 4 2 
Error in line 515:  D3 4 10 2 
Error in line 516:  T0 4 1 3 6 
Error in line 517:  R3 1 7 1 
Error in line 518:  T3 6 2 2 5 
Error in line 519:  T8 6 5 6 8 
Error in line 520:  D8 5 10 9 
Error in line 521:  R8 3 2 6 
Error in line 522:  C6 8 2 10 
Error in line 523:  T0 3 2 10 3 
Error in line 524:  C8 5 9 7 
Error in line 525:  C6 3 9 4 
Error in line 526:  D8 2 4 10 
Error in line 527:  R6 10 9 9 
Error in line 528:  C1 7 1 3 
Error in line 529:  T5 10 8 5 9 
Error in line 530:  C6 6 1 6 
Error in line 531:  C2 5 5 6 
Error in line 532:  C4 5 6 1 
Error in line 533:  T5 4 1 7 4 
Error in line 534:  T2 2 3 8 4 
Error in line 535:  D8 10 5 7 
Error in line 536:  D6 2 5 7 
Error in line 537:  C5 3 9 4 
Error in line 538:  C7 7 10 7 
Error in line 539:  T5 3 10 4 7 
Error in line 540:  R2 1 4 4 
Error in line 541:  D9 2 10 3 
Error in line 542:  D2 7 4 7 
Error in line 543:  T6 3 5 6 9 
Error in line 544:  R1 8 8 8 
Error in line 545:  R2 7 8 1 
Error in line 546:  D8 9 5 2 
Error in line 547:  C1 1 6 5 
Error in line 548:  D4 8 10 5 
Error in line 549:  D4 10 3 1 
Error in line 550:  D0 4 8 9 
Error in line 551:  D2 2 5 7 
Error in line 552:  T4 1 5 5 3 
Error in line 553:  D9 1 5 6 
Error in line 554:  C6 2 7 7 
Error in line 555:  T4 8 2 3 9 
Error in line 556:  T6 10 4 2 9 
Error in line 557:  C3 4 8 5 
Error in line 558:  R6 2 2 3 
Error in line 559:  D4 10 9 10 
Error in line 560:  R6 6 2 2 
Error in line 561:  R8 7 7 5 
Error in line 562:  R8 10 3 3 
Error in line 563:  D3 5 6 4 
Error in line 564:  C5 7 4 7 
Error in line 565:  D5 4 8 2 
Error in line 566:  D2 1 1 7 
Error in line 567:  D4 4 10 9 
Error in line 568:  D8 10 4 9 
Error in line 569:  T9 10 1 4 8 
Error in line 570:  C9 3 4 3 
Error in line 571:  T5 9 7 5 6 
Error in line 572:  C2 3 9 1 
Error in line 573:  R6 6 2 2 
Error in line 574:  T8 2 2 7 6 
Error in line 575:  D9 7 4 6 
Error in line 576:  D3 3 10 7 
Error in line 577:  D4 4 10 9 
Error in line 578:  R3 9 6 4 
Error in line 579:  D7 7 7 2 
Error in line 580:  C6 8 2 4 
Error in line 581:  R7 4 4 4 
Error in line 582:  C8 2 8 4 
Error in line 583:  T7 3 2 9 8 
Error in line 584:  C9 9 7 5 
Error in line 585:  R3 10 1 8 
Error in line 586:  D0 2 3 6 
Error in line 587:  T8 10 2 2 6 
Error in line 588:  D9 9 6 6 
Error in line 589:  D1 3 1 4 
Error in line 590:  D5 10 7 8 
Error in line 591:  T4 6 9 5 9 
Error in line 592:  C9 3 4 9 
Error in line 593:  R6 3 6 2 
Error in line 594:  R8 10 8 6 
Error in line 595:  D5 6 6 3 
Error in line 596:  T9 9 10 4 4 
Error in line 597:  D5 2 9 9 
Error in line 598:  R5 6 2 4 
Error in line 599:  R5 7 7 9 
Error in line 600:  T2 8 7 10 1 
Error in line 601:  D3 4 3 5 
Error in line 602:  R4 2 5 6 
Error in line 603:  R2 6 4 5 
Error in line 604:  D4 6 10 1 
Error in line 605:  T3 5 6 1 1 
Error in line 606:  C9 8 9 3 
Error in line 607:  T4 8 7 4 3 
Error in line 608:  T3 4 6 2 3 
Error in line 609:  R4 7 2 2 
Error in line 610:  C8 9 4 3 
Error in line 611:  D7 8 1 10 
Error in line 612:  D8 3 9 5 
Error in line 613:  C8 3 4 6 
Error in line 614:  R0 3 9 8 
Error in line 615:  T3 6 7 1 3 
Error in line 616:  C0 5 3 5 
Error in line 617:  R4 10 6 2 
Error in line 618:  T2 8 7 3 5 
Error in line 619:  T0 10 1 4 8 
Error in line 620:  C1 3 2 10 
Error in line 621:  D5 6 7 6 
Error in line 622:  C8 2 7 10 
Error in line 623:  T0 3 4 1 10 
Error in line 624:  C3 6 4 2 
Error in line 625:  D4 2 7 9 
Error in line 626:  R1 10 1 5 
Error in line 627:  T7 8 1 3 5 
Error in line 628:  T6 7 9 1 7 
Error in line 629:  D8 10 5 7 
Error in line 630:  C6 9 4 4 
Error in line 631:  T5 6 9 8 5 
Error in line 632:  R7 6 1 6 
Error in line 633:  C2 9 6 10 
Error in line 634:  D6 5 4 2 
Error in line 635:  C4 6 4 5 
Error in line 636:  T4 9 8 2 3 
Error in line 637:  C8 10 6 3 
Error in line 638:  T2 8 2 9 4 
Error in line 639:  T6 10 3 2 7 
Error in line 640:  T4 9 2 9 7 
Error in line 641:  D8 2 2 6 
Error in line 642:  R9 7 7 4 
Error in line 643:  T9 9 5 10 5 
Error in line 644:  T7 2 1 2 10 
Error in line 645:  D0 7 5 5 
Error in line 646:  R9 8 4 8 
Error in line 647:  T3 4 10 2 7 
Error in line 648:  C0 6 2 3 
Error in line 649:  R7 9 5 4 
Error in line 650:  T4 1 3 4 4 
Error in line 651:  C1 2 1 9 
Error in line 652:  D5 6 5 3 
Error in line 653:  T5 7 5 1 5 
Error in line 654:  T4 10 7 4 9 
Error in line 655:  C3 7 3 4 
Error in line 656:  C1 10 9 7 
Error in line 657:  R2 5 3 6 
Error in line 658:  D0 2 9 2 
Error in line 659:  T1 1 6 9 5 
Error in line 660:  T3 8 2 2 4 
Error in line 661:  D2 1 9 1 
Error in line 662:  C3 3 8 2 
Error in line 663:  D5 2 10 5 
Error in line 664:  C9 10 6 6 
Error in line 665:  R1 5 2 8 
Error in line 666:  R7 5 8 4 
Error in line 667:  C7 6 10 8 
Error in line 668:  D7 2 6 8 
Error in line 669:  R4 4 5 1 
Error in line 670:  C4 5 3 4 
Error in line 671:  R9 3 6 2 
Error in line 672:  R7 6 8 3 
Error in line 673:  R3 5 9 7 
Error in line 674:  C6 10 2 6 
Error in line 675:  D5 7 10 6 
Error in line 676:  R9 3 8 7 
Error in line 677:  D4 1 1 1 
Error in line 678:  C5 8 5 8 
Error in line 679:  C0 3 4 2 
Error in line 680:  C1 2 5 10 
Error in line 681:  D4 1 4 2 
Error in line 682:  D4 6 2 3 
Error in line 683:  T8 3 3 1 7 
Error in line 684:  C8 7 9 2 
Error in line 685:  D2 10 9 7 
Error in line 686:  R6 6 7 4 
Error in line 687:  C0 1 3 4 
Error in line 688:  R5 10 7 7 
Error in line 689:  R2 7 8 1 
Error in line 690:  R0 9 6 2 
Error in line 691:  R1 9 9 3 
Error in line 692:  D1 6 5 8 
Error in line 693:  D0 5 1 9 
Error in line 694:  C6 6 4 5 
Error in line 695:  T3 3 9 5 7 
Error in line 696:  R4 9 8 9 
Error in line 697:  R7 6 9 3 
Error in line 698:  C7 2 2 10 
Error in line 699:  R5 3 3 5 
Error in line 700:  C9 3 8 8 
Error in line 701:  C4 8 7 2 
Error in line 702:  C7 5 7 3 
Error in line 703:  D3 10 6 1 
Error in line 704:  T3 1 4 6 4 
Error in line 705:  D4 10 10 10 
Error in line 706:  R2 8 9 1 
Error in line 707:  T3 10 5 2 8 
Error in line 708:  C5 3 6 10 
Error in line 709:  C6 6 5 6 
Error in line 710:  C0 1 8 8 
Error in line 711:  D1 5 8 4 
Error in line 712:  R0 4 3 2 
Error in line 713:  T2 8 9 3 7 
Error in line 714:  T0 3 6 1 9 
Error in line 715:  T9 7 10 2 7 
Error in line 716:  T4 6 7 9 9 
Error in line 717:  D1 8 6 10 
Error in line 718:  C7 7 1 1 
Error in line 719:  D3 1 9 3 
Error in line 720:  C5 5 6 5 
Error in line 721:  T9 7 2 2 10 
Error in line 722:  D2 1 6 4 
Error in line 723:  C3 7 8 9 
Error in line 724:  D1 7 3 6 
Error in line 725:  T4 3 8 4 2 
Error in line 726:  R1 5 2 5 
Error in line 727:  C7 6 9 2 
Error in line 728:  C0 6 10 3 
Error in line 729:  R8 5 2 8 
Error in line 730:  C4 4 5 7 
Error in line 731:  R7 6 4 8 
Error in line 732:  T0 7 7 5 6 
Error in line 733:  R3 2 2 5 
Error in line 734:  T7 8 5 1 2 
Error in line 735:  C8 3 9 5 
Error in line 736:  T0 1 3 7 2 
Error in line 737:  R3 5 10 3 
Error in line 738:  R4 7 2 10 
Error in line 739:  C8 10 6 10 
Error in line 740:  R5 10 7 1 
Error in line 741:  C3 7 2 7 
Error in line 742:  R3 8 4 7 
Error in line 743:  D2 3 5 9 
Error in line 744:  R6 6 6 1 
Error in line 745:  R4 9 5 6 
Error in line 746:  T8 9 10 4 5 
Error in line 747:  D1 8 2 4 
Error in line 748:  C2 7 3 9 
Error in line 749:  R3 8 10 10 
Error in line 750:  R7 9 9 2 
Error in line 751:  C4 2 3 6 
Error in line 752:  R3 9 1 4 
Error in line 753:  C4 4 1 7 
Error in line 754:  D1 3 9 10 
Error in line 755:  T5 7 10 6 8 
Error in line 756:  C0 9 10 9 
Error in line 757:  T0 1 1 8 9 
Error in line 758:  R4 2 10 10 
Error in line 759:  D0 9 8 3 
Error in line 760:  T7 10 4 10 5 
Error in line 761:  R2 3 1 7 
Error in line 762:  R0 9 3 5 
Error in line 763:  R6 1 7 2 
Error in line 764:  D8 9 5 1 
Error in line 765:  D0 4 3 6 
Error in line 766:  R0 9 6 6 
Error in line 767:  D1 4 8 10 
Error in line 768:  D9 9 4 1 
Error in line 769:  D1 10 2 4 
Error in line 770:  D6 7 3 10 
Error in line 771:  C0 9 1 7 
Error in line 772:  T5 7 6 4 6 
Error in line 773:  R3 5 2 10 
Error in line 774:  D5 5 9 8 
Error in line 775:  T6 9 4 7 2 
Error in line 776:  D0 3 5 9 
Error in line 777:  D3 7 2 5 
Error in line 778:  D0 2 10 9 
Error in line 779:  D1 6 5 1 
Error in line 780:  D8 2 1 2 
Error in line 781:  R5 6 5 3 
Error in line 782:  C6 4 8 10 
Error in line 783:  C1 9 3 5 
Error in line 784:  D9 1 5 3 
Error in line 785:  D2 6 4 1 
Error in line 786:  R1 3 6 1 
Error in line 787:  T9 10 8 5 4 
Error in line 788:  D4 9 3 3 
Error in line 789:  C1 2 8 8 
Error in line 790:  T0 7 5 7 9 
Error in line 791:  T5 4 6 4 6 
Error in line 792:  C7 10 7 10 
Error in line 793:  R5 3 2 2 
Error in line 794:  T2 5 8 5 7 
Error in line 795:  D0 1 7 8 
Error in line 796:  C2 9 10 9 
Error in line 797:  T5 1 6 6 4 
Error in line 798:  D5 2 9 5 
Error in line 799:  T9 6 6 4 3 
Error in line 800:  T4 2 6 4 7 
Error in line 801:  C6 9 7 8 
Error in line 802:  C5 2 9 3 
Error in line 803:  D5 9 8 6 
Error in line 804:  C0 10 3 8 
Error in line 805:  C9 2 2 8 
Error in line 806:  C5 7 3 7 
Error in line 807:  C2 5 6 2 
Error in line 808:  R0 5 8 8 
Error in line 809:  T9 5 4 5 5 
Error in line 810:  C0 1 8 8 
Error in line 811:  R3 3 7 10 
Error in line 812:  T9 1 3 6 6 
Error in line 813:  C1 9 10 5 
Error in line 814:  D8 3 6 8 
Error in line 815:  D0 1 4 7 
Error in line 816:  R0 6 5 5 
Error in line 817:  D2 2 3 9 
Error in line 818:  D1 2 10 5 
Error in line 819:  D3 5 5 5 
Error in line 820:  R3 4 9 7 
Error in line 821:  D4 10 7 6 
Error in line 822:  D8 9 7 5 
Error in line 823:  T7 4 1 5 5 
Error in line 824:  R1 6 2 6 
Error in line 825:  C1 2 4 10 
Error in line 826:  C0 3 5 9 
Error in line 827:  T6 8 6 2 7 
Error in line 828:  T3 10 7 9 7 
Error in line 829:  D5 6 3 9 
Error in line 830:  T2 9 2 10 6 
Error in line 831:  C6 5 8 6 
Error in line 832:  C1 4 6 7 
Error in line 833:  R3 1 6 8 
Error in line 834:  C8 2 2 2 
Error in line 835:  R3 8 7 6 
Error in line 836:  R0 4 8 8 
Error in line 837:  T8 6 6 10 8 
Error in line 838:  C8 8 9 10 
Error in line 839:  C7 1 9 7 
Error in line 840:  D4 1 4 5 
Error in line 841:  T2 7 3 1 1 
Error in line 842:  D9 1 6 4 
Error in line 843:  T5 7 2 8 5 
Error in line 844:  T2 1 9 5 8 
Error in line 845:  D4 4 10 6 
Error in line 846:  D7 5 4 9 
Error in line 847:  D8 10 6 8 
Error in line 848:  C9 4 7 7 
Error in line 849:  C4 7 3 6 
Error in line 850:  R1 1 8 5 
Error in line 851:  R7 4 8 9 
Error in line 852:  D8 2 3 8 
Error in line 853:  R3 2 6 5 
Error in line 854:  D7 8 1 5 
Error in line 855:  T6 3 5 7 8 
Error in line 856:  D7 2 6 2 
Error in line 857:  C1 9 3 3 
Error in line 858:  C6 1 9 6 
Error in line 859:  C2 6 7 4 
Error in line 860:  R6 8 9 2 
Error in line 861:  D4 2 7 9 
Error in line 862:  T3 8 10 5 5 
Error in line 863:  R3 2 3 5 
Error in line 864:  T6 1 8 4 2 
Error in line 865:  C2 9 1 8 
Error in line 866:  R2 9 8 10 
Error in line 867:  D7 6 10 10 
Error in line 868:  C8 3 4 6 
Error in line 869:  T1 1 8 2 4 
Error in line 870:  C3 5 10 4 
Error in line 871:  T4 4 3 8 3 
Error in line 872:  C9 1 6 4 
Error in line 873:  C6 4 8 6 
Error in line 874:  D3 1 3 4 
Error in line 875:  T8 3 6 7 10 
Error in line 876:  D2 1 3 1 
Error in line 877:  D9 5 8 9 
Error in line 878:  C9 8 3 9 
Error in line 879:  R5 5 1 7 
Error in line 880:  D8 10 4 3 
Error in line 881:  T4 1 6 8 6 
Error in line 882:  C5 3 3 8 
Error in line 883:  T0 10 1 1 2 
Error in line 884:  R2 2 6 9 
Error in line 885:  D1 6 9 8 
Error in line 886:  R5 8 5 7 
Error in line 887:  D8 3 7 10 
Error in line 888:  T1 8 3 8 2 
Error in line 889:  D6 9 6 3 
Error in line 890:  D5 2 5 6 
Error in line 891:  R2 3 9 5 
Error in line 892:  T8 10 10 6 8 
Error in line 893:  C3 6 5 3 
Error in line 894:  D0 4 4 6 
Error in line 895:  R4 10 8 3 
Error in line 896:  C2 7 6 9 
Error in line 897:  T6 10 4 7 7 
Error in line 898:  C7 9 6 8 
Error in line 899:  D3 1 6 10 
Error in line 900:  C7 5 10 2 
Error in line 901:  D5 7 5 4 
Error in line 902:  T2 2 9 3 9 
Error in line 903:  T0 2 5 5 7 
Error in line 904:  C5 10 7 6 
Error in line 905:  D3 3 9 3 
Error in line 906:  D2 4 2 9 
Error in line 907:  R9 8 2 4 
Error in line 908:  D8 8 4 9 
Error in line 909:  R8 10 7 4 
Error in line 910:  D7 8 3 4 
Error in line 911:  R4 9 9 1 
Error in line 912:  D5 9 2 1 
Error in line 913:  C9 2 5 10 
Error in line 914:  C5 7 1 5 
Error in line 915:  R2 9 3 2 
Error in line 916:  T4 7 4 8 4 
Error in line 917:  C1 8 2 8 
Error in line 918:  D4 2 8 4 
Error in line 919:  C4 10 9 1 
Error in line 920:  R0 10 4 1 
Error in line 921:  T9 8 8 9 6 
Error in line 922:  T8 9 7 4 7 
Error in line 923:  R4 4 7 7 
Error in line 924:  R8 2 5 2 
Error in line 925:  C5 2 2 7 
Error in line 926:  T5 7 10 8 9 
Error in line 927:  D7 5 8 7 
Error in line 928:  R0 1 4 10 
Error in line 929:  R0 8 7 10 
Error in line 930:  R0 3 5 1 
Error in line 931:  C3 2 9 1 
Error in line 932:  R8 9 10 7 
Error in line 933:  R1 8 1 6 
Error in line 934:  C8 2 1 5 
Error in line 935:  D2 2 8 4 
Error in line 936:  T4 1 9 5 8 
Error in line 937:  C1 5 6 10 
Error in line 938:  R8 6 4 10 
Error in line 939:  C4 6 9 4 
Error in line 940:  C5 5 3 9 
Error in line 941:  R3 7 10 6 
Error in line 942:  C6 6 1 7 
Error in line 943:  R8 7 3 6 
Error in line 944:  T5 7 2 6 7 
Error in line 945:  D5 4 1 4 
Error in line 946:  C8 5 6 4 
Error in line 947:  R1 6 7 4 
Error in line 948:  D9 9 3 1 
Error in line 949:  R3 4 6 9 
Error in line 950:  D5 8 7 6 
Error in line 951:  C4 10 1 4 
Error in line 952:  R3 10 1 4 
Error in line 953:  T4 5 9 3 3 
Error in line 954:  T3 6 7 9 9 
Error in line 955:  R5 3 2 8 
Error in line 956:  C0 7 5 10 
Error in line 957:  C6 2 2 7 
Error in line 958:  T2 5 10 2 1 
Error in line 959:  R3 9 3 8 
Error in line 960:  R8 10 8 4 
Error in line 961:  C7 6 2 7 
Error in line 962:  R2 9 3 9 
Error in line 963:  T4 4 1 4 5 
Error in line 964:  R7 7 7 6 
Error in line 965:  C0 8 1 3 
Error in line 966:  D5 8 1 10 
Error in line 967:  R3 4 1 5 
Error in line 968:  T6 8 8 1 7 
Error in line 969:  C2 6 5 6 
Error in line 970:  T6 6 5 5 3 
Error in line 971:  T5 1 7 4 5 
Error in line 972:  T4 3 3 8 2 
Error in line 973:  R9 5 4 3 
Error in line 974:  T0 7 2 7 9 
Error in line 975:  D6 10 3 9 
Error in line 976:  R3 2 7 9 
Error in line 977:  R0 9 7 3 
Error in line 978:  T6 3 5 7 7 
Error in line 979:  T7 1 6 8 9 
Error in line 980:  D7 7 9 3 
Error in line 981:  C2 6 10 6 
Error in line 982:  C0 3 10 8 
Error in line 983:  D6 5 8 9 
Error in line 984:  T1 1 4 7 4 
Error in line 985:  D6 9 8 2 
Error in line 986:  T7 5 5 2 5 
Error in line 987:  R7 5 3 1 
Error in line 988:  R1 7 9 5 
Error in line 989:  R7 8 1 10 
Error in line 990:  C3 4 8 1 
Error in line 991:  T2 3 9 4 5 
Error in line 992:  T1 6 7 8 9 
Error in line 993:  D8 7 10 6 
Error in line 994:  R3 1 8 4 
Error in line 995:  D1 4 8 4 
Error in line 996:  T4 10 8 4 4 
Error in line 997:  C5 4 5 9 
Error in line 998:  T2 4 5 2 5 
Error in line 999:  C9 2 5 1 
Error in line 1000:  R9 2 8 5 
Warning, unconnected node(s): 0
