Error in line 1: 	 	 D2 		10 	 	10  10  		 	
Error in line 8:  T210  	7  1   7				 	 	
Error in line 11: 		 				C1	 	   		 4	6	 	6 	 	 		
Error in line 18:  				C0 	   	10						 5		5 		
Error in line 19:   		D1		  	 	5	7	 		 7 	 		 
Error in line 20: C0 			 	6		 	8		 	  	1 	 
Error in line 23: 				  D2   3  	 	 7  	 6 
Error in line 25: 			  T13	 2	 	 		 	10 	  3	  	
Error in line 26:     	C0  9	 	 	3	7
Error in line 27:  	D8   	8				 		5 5     	 
Error in line 28:       	C8 	 	 4 	 	 10 		 8	 
Error in line 29: 	 	T4			8			6 	 	1 	2	  	 
Error in line 32:  	  		 D4 9	   	 6	7 			 
Error in line 34: 	   	R9		    3			6 	2 	
Error in line 35:    			 T4   	 1	   		 5 10	 7	
Error in line 37:   	  		C8	 4	 4  5		 
Error in line 40: 		T2	6		 		   4					 10		  10 	 
Error in line 44:  		 	D6	   399		 	
Error in line 46: T2 	4				 2  9		 10	
Error in line 48:  T6					  	1    	7 	  6	  			8  		
Error in line 49:  R1  	 	 1 	   1   		7   	
Error in line 50: T2 	8		  	  3			72		   	
Error in line 51:    	 C8  	 8			   		1 		 6
Error in line 52: 	 	 	  	R9      6 	4	 3   		
Error in line 54: 				  R6		 4	 5		 	 6				
Error in line 55:  	   	  D3 	 4		 6			4 	   				
Error in line 56:  T6	9 			7 	 9  	 	2			 	
Error in line 57: 	   	 	T3 8	 		 6	   6	8		 
Error in line 59: 	C0    	7 	 	7			 4  	 	  	
Error in line 60:  	   C0	 	6 			6	 	4	
Error in line 62: C7  9 8		  	 10 		 		 	
Error in line 65: 	  D8 			  6 	5	10  		
Error in line 66: 		C6 	4    6	4	 	 
Error in line 67:  		  T21 			  3	  		5 	  9  	 
Error in line 69:    R1 		 	  	 2			  24 	 
Error in line 70: 	 	R0		  10			2	 	 		10 		
Error in line 72: D1    		5	 	8	1	 	
Error in line 73:   	   		C8	 	 		7	  	  	10 1		  	 
Error in line 74:  	 T8 	  	 3  			  		9	7 7 	 	
Error in line 75:  	   		D1	6  6	 	 	3	  	   
Error in line 76:  		C7  	   8	   	 9     5	 	   
Error in line 79: 	      D2	 		 2			 	 9			8		 	
Error in line 80:     R8	3    4		 2   	 
Error in line 81: 		  T8 	5	2		8  		 9	
Error in line 82:   	C3		 	 	3 3		   	6 	   
Error in line 83: 	  			C7	10			   		1 		 9
Error in line 84: 	C2	 	 	 			4 		 4  	10   		 	
Error in line 85:    		T2 		 	6  	 9  	  	8			  7
Error in line 86: 	 		 T0   			 7					2  4    	10 				  
Error in line 87:   T9	 		 2	  	7			 		  6		9  			 	
Error in line 88: 	R4  	    3 			 3						 8 		
Error in line 89: 	T2		 	   8 	 	6		 			7  		  10
Error in line 90: 				 R6 	   	6 					 10		  		8	  		 	
Error in line 91:   		 	R3 	2 	  6			 			9   		 
Error in line 92:  R4 	 		3    5   	9	  		    
Error in line 93:   	 	 T4 		  2	  4	  		7		5  
Error in line 94:  			 	T2 	 	 3		8  	7 	 5  		 	
Error in line 95:  R3	1 	   	3	  	 1	  	 
Error in line 96:  			 T9		  	 2	 2  	 7 	 7  	 	 	
Error in line 97: 	 	R6 		 		 	 5 		 	6		 4		   
Error in line 98: 	D7	3	 5		 						10	
Error in line 99: 		   	 C310	 	  6			 	 9	 
Error in line 100: 	 			R0      		 9	7 	6 	
Error in line 101: 	T9 		7	10		 	5 	 4 		 
Error in line 102:     D7			3		 	  7	 	  1 		  
Error in line 103: 			 R3	 		  	4	4   		10  
Error in line 104:  	 	 R7		 	  6			7	 	 		 4 	  
Error in line 105:  	 	T0	  3	1	1	 6 
Error in line 106: 	C9 			710	  	  1	 	  
Error in line 107:   	 R6 2	 4    8		 		
Error in line 108:   		R5	 		 8	  	4	   10			
Error in line 110:   		C1	 	27 		 		 7 	 
Error in line 111: 	 	     R9	10	   9 		9		  
Error in line 112: 	D2  6 		 	 	 7 	 		 	5 		
Error in line 113: 		 D87   	2 8	
Error in line 114:  	  	D0   	 	 4  	 		 4	   7		 
Error in line 115: T0   	 		9 		 6 3	   9 	 
Error in line 116:    R3	8 			 	 7  		5 	 
Error in line 117:  	  	C3	 10 	2			 1 		
Error in line 118:   	T9 			 3 				2	 2	 	 3		
Error in line 119:   	T0	 	3	 5			 	 7	 	 		10			
Error in line 120: 	D5				5	4   	   1		 
Error in line 121:  			   	T0		 	  10  5	   	7  4		
Error in line 122: 			  		T9 5  	  2	   		5			  	 10		 	
Error in line 123: 		  			D9	 10 			9		  	10				   	
Error in line 124: 		 			   C7 3	 		2 		6    				
Error in line 125: 	 C1 		8	  10	  					2  	   
Error in line 126: 	  		C6		7	   4 		9    
Error in line 127: 			D6 	  7	 			 3			 	 5				
Error in line 128:   	R0 	10 3 	7	  
Error in line 129: 		 D5			 	 1   		8	8 			   
Error in line 131:       R5		 2		 			9  	 			9	 		
Error in line 132:      		C3 	 	    8	  4	2				
Error in line 133:   R7	 	  6		2	9	 	 
Error in line 134:  		C3 	    	7 				2   		6		 		
Error in line 135:  D3	  4		10   		8   
Error in line 136: 	 C3		6 	   9	5 	 	 
Error in line 137: 	D9	  8	 2  1     	
Error in line 138: 		D6 8 		 		   7 		 10		   
Error in line 139: 	  	 		R9	 	 	  	2	 1 	 	   5  	  
Error in line 140:  	 			R9 8			2			 			4	 	  
Error in line 141: D5		 		  7		 	  3  7	    
Error in line 142:  		  R8 		10 	 6  2  		 
Error in line 143:  	R53	4 	  2	 	  	
Error in line 144: 	C4	 		7	     			2  4 		 
Error in line 145: 				 R3  	 	3 6		6				  
Error in line 146: 			 	  T8	9			3		  7   		 		3 	 		
Error in line 147:     	 		 D76			 3 	6			 	  
Error in line 148:    R9     9	 	 9		  		1      	
Error in line 149: 	 D3 9	8 3 	 
Error in line 150:  T1   			 1 	2		6	 	3 	 	 
Error in line 151: 				R1	  7		  2	 		 		5	 	  
Error in line 152:   D1 2 	7			7	
Error in line 153: 			 	 	 T1     	2	 			7     8	  			 	10	 	 	  	
Error in line 154: 	 	D5		3  		  1			 	2
Error in line 155: R9			 9	 8	8	
Error in line 156:     	R8	 	  			8 	8  	  		10	 	 	
Error in line 157:  R0			9 	1 	 		6  	
Error in line 158: 	R4		  2 		 		67			 
Error in line 159: 		C1  7   	4  		 		 6	
Error in line 160:   	 	 	T1  	 2 		 3 		  	 2	1 	
Error in line 161:  D9 9    		5   1 	
Error in line 162:  R9 1  10	 		1 		 
Error in line 163: 		  	  T4 	  6	 	1 6  	7 	 
Error in line 164: 			 	  T7	1 9 	 2  	3 	 	  
Error in line 165:  	 	 C9  	 9 1	 9
Error in line 166:   		  	T6	      6	 		3	 	  		9		  7    	 		
Error in line 167:  	 		C3  	   5 10		 	  10   			
Error in line 168: 	 R0 		   7  10	1 				
Error in line 169: 	C1	 5  2    9   		
Error in line 170:   	  T8	 	  	6			 3				8  		 9  	 
Error in line 171: R8			2			  	 10 1   	   
Error in line 172: 			 	 	T4 	 8	      3			 2	9			
Error in line 173:  	 C5 	 		   5		8	  	  	 3		 	 
Error in line 174: 				 R1  	6	   	 7	  	2	
Error in line 175: 	C3 1	 10    4   
Error in line 176: 	  	 	R6	 6			2					   7 	  
Error in line 177: 				  C6   3		 2	  	9		
Error in line 178: 			 	D2 	     3 	  4		  		  6  
Error in line 179: 					 R7	 	  10		 			10 			7 		 	 
Error in line 180: T8			 1	  	  10 				1  		 5	  	
Error in line 181:    T7 	  3 6 1	2  		
Error in line 182:  D8 	 	 3	 	 9	 	8     	
Error in line 183:    C3 		8			 	5		  8		 		
Error in line 184: 	D0 4	 			7 	 1 	 	 	
Error in line 185: 	 		T1		 	2	  5  	  5 10  
Error in line 186: 	       C6 		1	  	 	45 			 	
Error in line 187: 	R9		  8		 3					  	6
Error in line 188:  T4   		   3	    10	7 			  4		 		
Error in line 189: 	     R610 	1		1	
Error in line 190: 	C0	6	 	1 	 	 9     	
Error in line 191:   D5   	   4 		1		8	 
Error in line 192: 			T4	 	 5			 		6	2		   	6 	 		 
Error in line 193: 	 	  			D5 	3			  3 	 	   2
Error in line 194:  	R5			  8  8	   	  		6	 	  	
Error in line 195:   	 T0 3 7				 5	 	  		 3  	 	
Error in line 196:  R3  		4			7	8  		 	
Error in line 197:  	C5		 	10 13		  	
Error in line 198:    	R7 10	  	 9					10 	
Error in line 199: T0	  	  	 7	 1	1	 		9 				
Error in line 200:  T4 1  	 	 6	10		1      
Error in line 201: 		 	C9		 		  7 	4	4		
Error in line 203:   T6   4			9 		  6 	7   	
Error in line 204: 		 	D9    1 		 	  1	  	 	 5  	 	 
Error in line 205:  			D3 	 2 10	10			   
Error in line 206:   	 		C2 10 	   	1		 	 		3 
Error in line 207:    D6 	   10	 			 9    		8	
Error in line 208: 			 D6		4	6	 		3 	  	
Error in line 209:  	D610 		6	 	  6	   	
Error in line 210: 		  		 T7	 2 		   32				  8			 			
Error in line 211:  T6 2	7	8	 		 			1 	
Error in line 212:  	T7	 	 				7	   8	4  			1	   	 		
Error in line 213:  	R0   	  7	5 3  	  
Error in line 214: 	 			D4 				 	10 		 	8 		 8  
Error in line 215:   	T6		  8  9	3		 		 		10	   
Error in line 216:  	  	C2	 		 	3 	 		 9	 	 5		
Error in line 217: T48 1	1  1 	 
Error in line 218:   C9 	 				10	 	10  			 	2 	   
Error in line 219: 			C5 7 10	  8 			
Error in line 220: 		 	C0	  6 				5 	 	 	9 
Error in line 221:  			 R3	 	2	 	5  	 	 3   
Error in line 222:      C3 6	    	4				  	8				 	
Error in line 223: 	C1 	  		10 	  	5	 5	
Error in line 224:    		C6     2   3			 5	
Error in line 225:  					D0 	  	  	3	8	 	  7    
Error in line 226: 	  R0		  3	  	7	  	2		   	 
Error in line 227:  	C5					 2  6    	 10 
Error in line 228:    C6 		1  	3	4  	
Error in line 229: 	R59  	1	  4	 
Error in line 230: D2		6	 10 	  4		   	
Error in line 231:  T0	 	8			3 		 			 7	 10 	 	
Error in line 232:  	   T9			5		  	1 			 	9  2 
Error in line 233: 				 T5	1 		 5						4   5 
Error in line 234:   C7 6	  	4			3  	
Error in line 235:   	D4 	    5	  5		 	 	 2 
Error in line 236:  	   C2 9 		 	8	  6 	 			
Error in line 237: 	D7	  8	 	10	   	 6	   			
Error in line 238:  	 R0 8	 		8 		6    
Error in line 239: 		 		T4 		 10 	6 	 			9	 		 8		
Error in line 240: 	    R8  	8 		   7	   	  9	 
Error in line 241:  	 			C4	8 	4	7 
Error in line 242:  	 		R5 				2    	2 	6			
Error in line 243: 	  	C2  7 			9	 	6			
Error in line 244: 	 C1 	  	5	9  9 	 	 
Error in line 245: T6	   	  1		 	8	 1 	 4   
Error in line 246: 	  	  D4  	 6  	 		9 	 	  3 	 
Error in line 247: R1	 7	  		3 	  2 				
Error in line 248:  		R5 		9 6 	  3		 
Error in line 249:    T5	 	 7 	2  	6	 	6 		
Error in line 250:  R8 	  6	10   	9   
Error in line 251: 		   C3 	 	11 	  7 	
Error in line 252: 	 T0  		 	9	 			 1	105			
Error in line 253:    				D5	9	 	3  9		 		
Error in line 254: 	 	  	 D7    	2 	 5	 	 	   7		 				
Error in line 255:  	D7			  3  				 1	   8  	  	 	
Error in line 256:   D8		  10			1	  	2
Error in line 257:     	C5 			 		6	 	  6		 	5	 					 
Error in line 258: 	R5	 	2		 	1 		6	 		
Error in line 259: 	     C0		   3 6			6		 	 
Error in line 260: 	 	D5			9	9 2	 			  
Error in line 261: 				 T3	 	4 	7 	 	5 			 		10 
Error in line 262:     T1	  1 		7		 		 9 	   6 	  
Error in line 263: 		 	  R3		 1	 4  			  4	 	   	 
Error in line 264:    	 C3	    10	 	  	7 	1	 
Error in line 265: 	D3	5 	  7	4 	
Error in line 266:   		D4 69	 			7   
Error in line 267: 	 C2				8  5	 		 			1     
Error in line 268:       C4		6 	 4 	  				3  
Error in line 269: 			R8 		7		5  3 	 			 	
Error in line 270:  C8  5		10	 	 	 		 6			 
Error in line 271: R8    5		105  
Error in line 272: 	  	D0	 7 		7	     	3	 	  
Error in line 273:      		  D0  			7 10  	 	9 			
Error in line 274:  R46 	8 		  1			
Error in line 275:   D9	 	  1  			7 		   	8	
Error in line 276:  		 		 		R1 	  		10 			6				2 	 	
Error in line 277:   				T3  1   10	7   		 8 
Error in line 278: 	 	 D8 7   		5 		 		 10	  	
Error in line 279: 	T6 	10    	 24 				7	 	 	
Error in line 280: 			  R6		6	 10   6	 		
Error in line 281: 		 C0	 	 3	  5  	   8   				 
Error in line 282: 	C1	 	5					3 		7	
Error in line 283: 	R1	   1 7	10   		 	
Error in line 284:  	D6	   8		 		6		   	1		  		
Error in line 285:  	 					C3	 	3 	 	 	 	7	 			 5 	 		
Error in line 286:    	   	R8     9	8 	7	 
Error in line 287:      	D8 		 9			 77
Error in line 288:  		 D4 10		 	8 		10	 				
Error in line 289: 	 	 D2	 			 	2  	4 	 			5 
Error in line 290:  T1	 			2		10	 6		2  	
Error in line 291:    	 T9 9	 		  2	   	 7			 5  	
Error in line 292: 	  R9  			6   	7	 7   		 
Error in line 293:   C0		  	10  9 				6	 	  
Error in line 294: 			D1   	10 	  	 8	 8		 	 	
Error in line 295: 				C9	  	 2 9  2		
Error in line 296: 	  			 C5 	  	5	 	2  	  1	  
Error in line 297: 	D9	  	 7	 10	   	  		5
Error in line 298: T7 	8 	  7	 		  10 	 	10 	 
Error in line 299: 	T0 	10 		 12	  	10					 
Error in line 300:  			 D9					 7  	   6  		 		8	   	
Error in line 301:  D0 		 	 	8   	10 	   4		   	  
Error in line 302:  D5 		  	 10	    	10	 		5 
Error in line 303: 	R3 		   	7				9	 1 
Error in line 304:    		T7 7 	 5		 2		 3					 
Error in line 305:     		T6	1   	6	  8				5   			 
Error in line 306: 	 	D3  3 		  6	 	9	
Error in line 307: 	   D1		    98  			 3
Error in line 308: 		D3 		3 2		9 	 		
Error in line 309:  	 D6			1	    4 			10  	 	 	
Error in line 310:  	T4	  	 5			  7		7 		   4   	 
Error in line 311: 	 C4 					3			5  		9	
Error in line 312:    	 	D8	 10   			5 		 	4 	
Error in line 313: 			 D3  		4	 		 		7  	   9 	 
Error in line 314:   R3	  			5	 6	2			
Error in line 315: 		R5    8	 					1 	   	 1			 
Error in line 316: T3	6 			  2		    8	    		10	 	
Error in line 317:    T4	 	  	8       7	   4   3	   	 
Error in line 318: 	 	 	R3 	 	4	 		 	2		  7	 	 		
Error in line 319: 		 	T8 2 2	 9 		9 	 				
Error in line 320: 		  		 D5 				9 8		 			 	 8				 
Error in line 321:  		 	 	C7 		4		   3  			 	2 	
Error in line 322:  	  			D4 			 4	4		 	3	
Error in line 323:  C9 	  	6		    	 	3	   	 	3  
Error in line 324: 	C3 7	 	  1 	   	 6	 	     
Error in line 325: 	  	 C5  		5 		 		10  		 10
Error in line 326: 						 C0	10 	1	8 	
Error in line 327: 		R2	  	5		 	6		4   
Error in line 328: 	 			C0	1			2 	  8 	
Error in line 329:  	 			 	D7 	 	5 7	8		 
Error in line 330:  			T7	2	1	 	9	  	3			  	
Error in line 331:  	C4		9 	 4  9	
Error in line 332: 		 T8	  6 	  			1  	  			 10	 9	 		
Error in line 333:    	 	R7	  6  6		 4	
Error in line 334: 			R2 	 9		 		23			 
Error in line 335: 		  R1		  6 8	 	 6	  
Error in line 336: 					C1	    8			 1				  	8	 
Error in line 337: 	R9 		 10	 	 4 	8			
Error in line 338:     	 	D3		4 				 8   	 10
Error in line 339: 		C4 			10  	  6	 1		 	
Error in line 340: 	   	  D2					6 9	  	  	  10	 			
Error in line 341:  	 	D3 10	6  4	 
Error in line 342: 	 	  	T6			1		  				 5 21	 	
Error in line 343: 		  		C4			6    9		 5	    	
Error in line 344: 	  	D1 		 	1		  5	     	3  		
Error in line 345: 				D9 8	  5	 10
Error in line 346: 	T3   		8		    1 2   	2	 
Error in line 347: 	   R7	 		1 	 2    10				 
Error in line 348:   	  T3	   	5 		 9		4 		6    	 	
Error in line 349: 	T6	  	5	9 1  			9	
Error in line 350: 	T7		  			10		   1   10	 				7 		 
Error in line 351: 	   		D7	 			4			3   	 	8 	   
Error in line 352: T3 4  	 	2 				10	2  		 	
Error in line 353: 	 T5    	5 	7    2  	 8     	
Error in line 354:    R5		     6  6	 	 9	    
Error in line 355: 	 R7   	 1     2  	 	 10 		 
Error in line 356: 	C8 8 10				  8
Error in line 357: 	 T3	 9  	4 6 		2		   
Error in line 358:  R0 		4  			 4	8		  
Error in line 359:  	 R2	  	8 					 7 	       3   
Error in line 360:  	 	 	T21  			 	 10			 7	1	 
Error in line 361: 		R1	10 	 	3					6	   	 	 
Error in line 362: 	  	 	C5	 	1		  3	3		
Error in line 363: 		 T1 9  	 		 3 					 	3  9			
Error in line 364:  	  R0  3	2   	10	 
Error in line 365: 	     	T8 		1   2	    	23 
Error in line 366:  	 	 	T18		9    	 1 	7   	  
Error in line 367:   	D5  	 6	 1 		10 	
Error in line 368:   		D8 7	 	 10 	 	10			 	
Error in line 369:  	C7	3  	2		1					
Error in line 370: 		 C5		2	     5		  		5		  
Error in line 371: 	  	  	 T2	 		  		8	 		7 8  8 		   	 
Error in line 372: 	D8 4		   3 	6	
Error in line 373: T1 	  10 		1310 	
Error in line 374: T6 	 	  	1	 	3 		10 		1	
Error in line 375:   	C2 	9	 1 9			 
Error in line 376: 	 T2				  		4		8		2	1		 
Error in line 377: 	  D0			  4 		 		 10  10	    
Error in line 378:  	R5	 		 79 		1     		
Error in line 379: 			 T5  	 10 5	7	 	10   
Error in line 380: 		C3 		1 		2  2  
Error in line 381:  C7 9 		   6	 5	   	
Error in line 382: 	  C0 1 	10   	8				
Error in line 383: 		R7   		 	1		 1   6 		
Error in line 384:    D8	     8 	3	  	  		5    
Error in line 385: 	C0	 						6	 	2	 	8 				
Error in line 386:  T8	4				4	 	 	  1 	 6 	
Error in line 387:   		  C1  		 	7   		9	  		 	 1 	 	 
Error in line 388: 	  	 T7				2 8	 8	  		 9    
Error in line 389:  	   D6  10 		  		9  4 
Error in line 390:   D6		  9	6 	6 
Error in line 391:    	D9 9 			  5		 9 			
Error in line 392:  	C9					 107	 6  		 
Error in line 393:   	 T4		6	 	 	9	 2 	7	 	 	
Error in line 394: 	    	 T5  	8		  	5 		  6	 	5 
Error in line 395: 				R6   	  9 			 		105	 
Error in line 396:   		  	  R0	  		 	 4	9 	7
Error in line 397:     	T0			4	  		 5	 			3 	   		 2 
Error in line 398:  R7	 		  4 	 		  2		5      	
Error in line 399:  C5 	 7 		 6	 	 10			
Error in line 400: C5     		9  6			  		10 
Error in line 401: 	  R9		10 		7	 	  8	 		
Error in line 402: 	 C2 	  	  7		9	  9 	 
Error in line 403: 				 		 R3	 3 33	  	
Error in line 404:   	R5   	 1 	 86		  	   
Error in line 405: 	 	  	D5   	6  	 	6  	4		
Error in line 406: 				 C7 		 	10 						8 	 1	  
Error in line 407: 				R0	7	7	 	 	1	  		
Error in line 408:   	 		 	T6		55 		9 		  1  
Error in line 409:  	  	 	R8	 	4 					 3	 			4			
Error in line 410:  	  C1	 	    		10 	   9	1 		
Error in line 411:   		D2   	 7 		1			 	 6
Error in line 412: 		 		R5  	10 	 	 	10 10  	
Error in line 413: 			C8		  9	   4    		6		 	
Error in line 414:    T1 5   				6 5	 	9			
Error in line 415: 	 	 	C0			6		  	 3	 		1	 
Error in line 416:  R7		1  	 8   5  
Error in line 417: 	T7  	  1 		5  		 	 	8	 	 3	 	 	 
Error in line 418: 		 		D1	   	  	 8    	 1	 	  	1
Error in line 419: 		 	D6 		10	  		8  			4 
Error in line 420: 		 		 		C2		2	 	10     		3    	
Error in line 421: D3		7			1			3	
Error in line 422: 	  R2	5		  9      7			 
Error in line 423:  	T1			 	1 3	  	   3 				 	3	 	 	 
Error in line 424:  	D5	4 	 			2  		 	6 			
Error in line 425:  	 	R6   2  	 8 			7		 	
Error in line 426: C2 2	 	8	5  
Error in line 427: 	C3	 1			  6	8 
Error in line 428: 			 R2	  8   				  1 10
Error in line 429: 	D1    	 8    6 	  	1  	 
Error in line 430: 	 				 D7  82	9		
Error in line 431:  			 C1  2	  3	 7 	
Error in line 432:  	R7			 10 	 3	9	
Error in line 433: 	  	 	R7	 		49	6	 	 	 
Error in line 434: 	 		 		 C5 		 2  9 10	  	
Error in line 435:     	  T6 	3     	8	 					10  6		 		 
Error in line 436:     T9	 6				  6		 5 		  	 		1 	
Error in line 437: 						C6 		10  		5	 						8  
Error in line 438:  	    C0   3  		  10 10	 	 	 
Error in line 439:    		 		D5				2 8 			 		7			
Error in line 440:  			   R7  3 10	 	 	  	1		
Error in line 441:  	     D2 	6  	8   7    			
Error in line 442:  	  	 T8	   		 2			 			  3	 5  	8	 	 
Error in line 443: 		C0 			 	9	    4 	5	  	
Error in line 444:   	 				D9  	 	 		7	8		  1 
Error in line 445:    D8		 7	  8  	10	
Error in line 446:     	T6 10  51	7 	 
Error in line 447:   	   T7      5	 	 	 9  	5 2	    
Error in line 448:  R1			   5 	   8	9    	
Error in line 449: 	  	C7			 2   				  4		5	 	
Error in line 450: 	 	C8 		 7	2	4	  	
Error in line 451:  D4  	  		  1	1		1	
Error in line 452: 		 	 T8			8		3  	 	5 3 	  	
Error in line 453:  	  	T9 			  	7 5 	     	8	1    	
Error in line 454:    R0  		  9      	8 				 6	  	
Error in line 455:  	  T9  	4			9	   4  	6  
Error in line 456:   		C11   					10 			7  
Error in line 457:    T3	6 	29	 	  5 
Error in line 458:   D7	 9  	4	  	 		4 	 	 
Error in line 459:  R2	 5  	 10   9 
Error in line 460: 	 	 T8		 8 		   10		9 	 7   	 	
Error in line 461:     T2 3 			7 	8   	 2	
Error in line 462: 	  T3			  7		 	10 9		 4 		 	
Error in line 463:  		 		  C4 	7	 7 9  	
Error in line 464:  	  			D2  		 4		  7	7			    
Error in line 465:  R4   	9 	  3				 8				 
Error in line 466: 	 			T5	   10 	   	  9 6		 	10	  
Error in line 467:   	   	T8	 1	7   8 8		
Error in line 468: 		R8 	4			 	   73 
Error in line 469: 			D9   		  9   	 810	
Error in line 470:  D4 	  	 	23 	 	 9 
Error in line 471: 	 		 D2  8 2 			 4  	 	  
Error in line 472: 		 R4	  	6   10 		 	3 
Error in line 473:  R7 			 	4 		 		1		8	 				 
Error in line 474:   		  	D2		 7		 	  1010		 	
Error in line 475:  		D7 	  5			 	 2 		3 
Error in line 476:  T5   5	 			 8	7	 	 8 
Error in line 477: 			 			T8	  89	  		 		7  		 		9
Error in line 478: 	D1 2	 7 8	  	
Error in line 479:  D3	 5	 7	8  		  	 
Error in line 480:     R1						10	    	9						 5	 	  			
Error in line 481: D2		 	 	 11   	   5  		
Error in line 482: 	T5					 9 5 		1  	  		5 				 	  
Error in line 483: 	R0 				8	 8  1 	     
Error in line 484: 	 D7 6		1 10	    
Error in line 485: 	T5	    	9 1	 8 	 	8 	 
Error in line 486:  	 	 T8  	6			71		2	 
Error in line 487:  	 				R6			6   8  6 	   	 	
Error in line 488: C1   	 4	 	 10 	  	 4 	
Error in line 489: 	  			  D1				5 8 			  10	
Error in line 490:  		C1 		4			6  	8
Error in line 491:  T0  	 		 5   	  4  		 3	 	3		
Error in line 492: 	 	T1		 1		   9   2	 		 3  		   
Error in line 493: 	D8	 	2 8 			    1		  
Error in line 494:   	  R5	3	3	 	 	 	5	
Error in line 495: 			 	T0  		8	10		  				8		 3	
Error in line 496: 	R2   57	9   
Error in line 497: 	 	R2 9     6 1 	   
Error in line 498:  D3 	8  	 7		1    	
Error in line 499:       T7 		 1	 2 		8 		2 			
Error in line 500: 		R6		 3				  5		 	 1 			
Error in line 501: 	 T3 3		6 	4	7	
Error in line 502: 	 			R1 	2   	5	2	   	
Error in line 503: C3	   				2	 	 	 	 1	  		  	5	
Error in line 504: 		  	 	 R4    9 	 	  8		  3 				
Error in line 505:    	C0				7  10		 5	
Error in line 506:  	   R8	 	  2			   9 8  
Error in line 507:   C2				 6	7	 			2	   
Error in line 508: 			  		 R6 10 		 9 3 	 
Error in line 509: 		 D6     10 7  10 			
Error in line 510: 		 R7 			  9		 	9 	9		 	
Error in line 511:   	 		R6		4 10		  5 	 		 	 
Error in line 512: 	   	T3 		   5  		 4 8  6	
Error in line 513: 	  			 D3  	5 8 2 
Error in line 514:  		T9	3	  3  5	3		
Error in line 515:  D0     	 9 	  	8 		10					 	
Error in line 516:   	  D3 	910 	 3			  	
Error in line 517: 	C4  		 		10  	 	1 		  	6		
Error in line 518: 	 C7 			 	 		4	   	5	  7 		
Error in line 519: R4		 3 	 	 10	  7		
Error in line 520:  					T6 3 4   			7 		    8			  	 	
Error in line 521:  R2   	 2	 	 			4	 	 3			  
Error in line 522:   T8			4		1 			6		1	 		
Error in line 523:  C3	 	3 	10 				4    
Error in line 524:  		 D5		  	 2 	 	5							 10    		 
Error in line 525: 	 	 R3	     	9 			9   	  8	 		 
Error in line 526: T6   	 7	 	 	9		  6    	5  
Error in line 527:  		 		 T2  8 97			  	  4	 
Error in line 528:  	 C9       4   5		9     
Error in line 529:  	  T7 			 10		 4	 	 	1	 5  
Error in line 530: 						D7  3		 1 	  5 	
Error in line 531:    T9	3 2  4		 3 	
Error in line 532:     D53  	10   	 		3  		
Error in line 533:  D0 		3	 	   8		  		3	 
Error in line 534: 	 	 	R5		   5  5	 	  5 		 		
Error in line 535:  	 	  D4	  				3		2 4		  	
Error in line 536:  			  D6  		  3  4	5 
Error in line 537: 	 T9	  3		    4	 	 1		 6		 		 
Error in line 538: 	  		  D9	 	 2	6  		2	
Error in line 539:  	 	 T3			 1 	 	34 6 	
Error in line 540:     				 D5 2	  5 6		 
Error in line 541: 			   R1 			 2 		9	  1			 
Error in line 542: 					T8 				9		8  	 4 		3 
Error in line 543:  	 	 T4		74				  8	 	 4			
Error in line 544:  	R5	9	 	5   	1  
Error in line 545:  	   	D3	3 	 6		 			6 
Error in line 546: 	  		R0 		 83	  6		   		  
Error in line 547:  	 	 	C6  	  	109			 	10	
Error in line 548:  			C6  1 	 		 2	 	 	  4			
Error in line 549:  		C0    	  10	 1    1  
Error in line 550: 		T9 	10 	 			 	5		10	 	6 					
Error in line 551: 			 	T4		 	 	1	 		 7  7 9 
Error in line 552: D9 	 1 	 9				8	 	
Error in line 553:    	    T7	    	  	5 	 5     		6    		 8				  	
Error in line 554:   	    C6		   7			1 	8 	 
Error in line 555:  			T7	 		4    		3	   9	  7	 
Error in line 556: 	  	  R7 		2  		2	  	1 		
Error in line 557:    		  C2  10 	 	 	 9 	2		  	
Error in line 558: 			 R3				 9							9			 10  
Error in line 559: 	 	T2   8  8		 		 	5		 		9 	 	
Error in line 560: 	 		D4 	49 	 	10 	  
Error in line 561: 		 R0 	5 		9				  1		
Error in line 562:  	 		R6    		7		   		7				7   			
Error in line 563: 	 			D6			  3 		 2   	    8	 	  		
Error in line 564:  	D3 	 	9   4 		1		   
Error in line 565:  			  R2 7		 5 	 		5 
Error in line 566:  		 	T7	 47 	 		 	10	  10		   	 
Error in line 567: 		    	T5		1 		   8	 	 6	10	
Error in line 568: 	 		 	D4	5		3		 9  
Error in line 569:    	C3			    8   	7   	7		
Error in line 570:     T1	10		7					2 					6  		 
Error in line 571: 	   T0 6  			1 		1				4    
Error in line 572:   		D4	3 	2  		 10  	 		 
Error in line 573:   			  		T8 	 			6	  	8    7			  9 	
Error in line 574: 		R8 	6  		10 5	 		
Error in line 575:  	 			T1			 	8	8			   6 					 	2 	    
Error in line 576: 		     T8 6	   2     3 			1		 		
Error in line 577: 	 	  C1 7	 	 5 	 4 			
Error in line 578:    	   T4	  108 		3 1      
Error in line 579:     	 R41	 	9  	 6	
Error in line 580: 	  			 D4	 					  10	   		 1 	7			
Error in line 581:   			R3 		  	 	5	  					3		 	3 	 
Error in line 582: 	 	 	  D6	 				7 	  101 
Error in line 583: 		C0			5  97	 
Error in line 584:   	 	D7	 		5	 		7  	  8 
Error in line 585:  T7	 	   6 	  1 	  5	 6
Error in line 586:  D3	 	 7 	  	  	8	 		4	 
Error in line 587:  R24		 9		6  
Error in line 588: 	    C9 			6			 10   	5	 	
Error in line 589: 	  D0 		6 		  		 3	    3 
Error in line 590: 		R8	 4  			 	6  5		  	
Error in line 591: 				D2 9 	7 	  				6	 	 
Error in line 592: C8 10   		9		 	 2
Error in line 593: 		D2		 5	  10	 	 				8	 	 	 
Error in line 594:      C5	   7 	 	5	  	  	10				 
Error in line 595: 	 	 D7		    2		  47	   
Error in line 596:  	C1    	8		6			  6	  		
Error in line 597: 	  D5	 				9				6	 5 	  	
Error in line 598:  R4 		 	29	6		  	
Error in line 599:   			 	D8	 1	 	  3	  7    
Error in line 600: 		   		T4		 1	   9     4 		6 		 	  
Error in line 601:  		 		C1 		 2	  5 	 			8		  
Error in line 602: 	 D9		 10				 7	2 	 
Error in line 603: 	 C0	2 		 4		10	
Error in line 604: 		 C1	 	 	 4	  1	  	 	5	   	
Error in line 605: 		 	 	R3 	 3 	   		1			   	4    	
Error in line 606:  D3		8	6 	  7	 
Error in line 607: 	 	 		C9	8	8	 			9	  
Error in line 608:  	 	 C2	 1		 		 1  	6		
Error in line 609:   		 C3		  3 	  9		  10    		 
Error in line 610: 	   	D5 		 9	 1   	  	1   
Error in line 611:  		 R0 8	6	9			 		 	 
Error in line 612: 	C6 7  	6		  	 10    	
Error in line 613:  	 R0 	 5  	 	  5   		3 
Error in line 614:  D4	    6  	 	10  		 1
Error in line 615:   T1	  	3 		  7    48	 	 
Error in line 616:   R4	  2				3   				 2	
Error in line 617:  	  	D6   8 	    10  	5  			
Error in line 618: 		 	 T8		 		3 			 2   2 	6		 				
Error in line 619: 				C0 		 5 			2 			  	 4 	
Error in line 620: 			 	 C1	10						 6    		7					
Error in line 621: 	T7  8 8	7	6  		 	
Error in line 622: 						 C0 				 8 		 7   5  	
Error in line 623: 	 T4	    3 	  1	    	 10	6		  	  
Error in line 624: 			 	C7		 	 16  7	
Error in line 625:   	  	D6  1  1			5 			 		
Error in line 626: 	T610	7	    	8   	  3	
Error in line 627:   R2  	7 	 	8	8							
Error in line 628:    	  R0  	  9	 	  			9	3 		
Error in line 629: 	 	 		 D6	 		2	 		 6	 	 6		 
Error in line 630: 	 T4			9 	  7 	 3   			4 	
Error in line 631:    R2 10	   		3	 		  3 
Error in line 632:   T52    2	   4   9				
Error in line 633:   D0    7				10 	8	
Error in line 634: 	 		T7   9	   10	  	 	4	 	 9 	   	
Error in line 635:  D2	 		4  1 	4    	
Error in line 636: 	R4 			 8  6							3  	 		 
Error in line 637:  	  		D2  10		 				8 5		 
Error in line 638: 			 D2	 		 		4			 10			  3	
Error in line 639: 					C6	5	  	 5	  		8  	 	
Error in line 640: 		 R4	  	4	10 	 	 	2  	 
Error in line 641: 		 T9 		 9	1  		  9				10		 
Error in line 642: R4	  	 7		4	  1		 	  
Error in line 643:   		 	R7  8					 6	9  	 
Error in line 644:  				C6 		 			2 		9 5	   	
Error in line 645:   			C9	  5 	    1				 	8	
Error in line 646: 	 		C1   		 3	 8		 		9		
Error in line 647:    T9  		 10 	   3  	 	 2  	 				4 	   	 
Error in line 648:     R3	 	9		 	6		 2    		
Error in line 649: 	R0  	 6   8  10 	 	
Error in line 650: 	  R5	4	 6 7						
Error in line 651:  	C2	 	  	8		2 1 	  
Error in line 652:   D4  	 1  3	 	10
Error in line 653:   	 	 T3    	 1 	  	9	 	    8 	   	9 		
Error in line 654:  		 		T1  2  	1 	 6	  7   
Error in line 655: 	 C4   	1   	  10 				9		 
Error in line 656: C1      7	 	6  7	 	
Error in line 657: 	   		 C4	     4  9		   3 
Error in line 658: 	C8	 		4  3	3	 
Error in line 659: 	   C3     	    2  		7 			1		
Error in line 660: 			R8 8		8			 	 6	   	 		
Error in line 661: 		 	D1  	1	9			 		 7			
Error in line 662: 		D1	 	  			7 	   7 		     8 	
Error in line 663:  D8					 	9	2    6 
Error in line 664:  T0 	    62		 	3    7  	 		
Error in line 665: T9				2  			4	  1 	3		   		 	
Error in line 666: 	 C6 	3   	  	91  
Error in line 667: 		T9		2	 2  3				9	
Error in line 668: 	 		T8		 	 		2 	7			 		  	2  6	
Error in line 669:   T7   6		 6		 4  9 
Error in line 670: 	  	C6	 		7  1    5 		 
Error in line 671:   	 	  D7  	10 	 		8			  6 	  
Error in line 672: 		 			C0	1 9  	10  	 	 
Error in line 673: 	 C9	 3			 9		  5		
Error in line 674:  			 R9 	 9			  	 7						9 	 	
Error in line 675:   						R8 6		      	4	 	  1  					
Error in line 676:   	 	 	R8		  	8		   6			 4 
Error in line 677: 	  	 R8  8  	    8 	  	 6 
Error in line 678: 	D6 	 		 8	31		  
Error in line 679: 	 	  C1	 		 2	 	   	10		 	2				 	 
Error in line 680:  T2 		 7  3	  7	1    
Error in line 681: 	   D6	      	6	  7		 	10			
Error in line 682: 	D8	8	  		2	7   		
Error in line 683: 		T5	10		  	 9	7	5   	  
Error in line 684:  	  T2  		  			6	  	5 	 	4 	  	 9 	   
Error in line 685:  R0 	 	 	8 6 6  		 	 	
Error in line 686: 	 	C0	9			5   		5 	 	    
Error in line 687: 	C8	2	  		4			 4 	 
Error in line 688: 	 	  	T1		   6   	  	 4	 6  		4	 	
Error in line 689:  T1   10	 10		10  		  	4	 				
Error in line 690: 	 	T67 			 9	    	 93		
Error in line 691:  T6	 2    4 					 9 9			 
Error in line 692: 			  C9		 	 3   4    	 	  4			 
Error in line 693:  		D0	 	3 	 9	 6			 	  	
Error in line 694:  	 	 C5	 	  5	6			  7 	  	  
Error in line 695:   	 T5  	 3   	7 4	 4			 	 
Error in line 696: 		 	D0	 6	1	1 	  		
Error in line 697: 	 C9    7	 64			 		
Error in line 698:     R0			  10     5	7 	
Error in line 699:   R4	 8				 	28
Error in line 700:  C0 	  	 	2	 	 	10		7	
Error in line 701: 	  R5	 		 	 4 6 7		 
Error in line 702: 				T0  7 	1	 			 10 	    	2		
Error in line 703:  C9	 	 	1	6		 2    		 
Error in line 704: 		C1		 	 	9 		3				   10				  
Error in line 705: 	 	C8  			6  	10 		   2		  
Error in line 706: 				T4			   	1			5     	 	8		  	6  
Error in line 707: 	R3 		2  	 	8 10  	 	 
Error in line 708:  C6 	10 5 		 3		  		
Error in line 709: 			 	D1 9 		  3 10 		 	
Error in line 710:  	   D1	8 10	 		3		   
Error in line 711: 	C5	 	 9		8	  	 	10	  
Error in line 712:   	R6			 	1  4	 1	 	 
Error in line 713: 	R6 	1	  	  	10 3			
Error in line 714:  	   	 	 T4      1 	 9 	  		5 4  	  
Error in line 715:   	 T8 	 	4				4 4	  8  			  
Error in line 716: 			R0   	 	3	6 	 	 9			  	 
Error in line 717:  T6	3	 	 	 	2	   	7	10		 		 
Error in line 718: 			 		 T8	 	 4	 	3				   1	3		 
Error in line 719: 		  C2 	 4  		 	 2  		8		 	
Error in line 720: 	 	C1 	1 10				2 		
Error in line 721: 	 	 	T3 		 6 	9		5		3 	
Error in line 722:  	 	 		R4 	 	1		  	 710 	 
Error in line 723: 		 				C4 	    		 7	  	10    		5  	
Error in line 724:  R9	7 	10  	8	  	
Error in line 725: 	 T9	 9 	6  6   3		
Error in line 726:  	 		C0 			   2				9  		 		2	 	
Error in line 727: 			   	D8 	  3    	5 3	
Error in line 728: 	 			T8	 8	 	8			 	 	5	 	1
Error in line 729: 	  	T8 2	  7 	8 	2		
Error in line 730:  	 D4	 		3		 8  5  
Error in line 731: 		C0 		6	  8 6	  
Error in line 732:  	R5				9 	 		1	 4	   
Error in line 733: 		 	 R3   9 	  	1 8	 	 	 
Error in line 734: 	     R1 3  	 9	  		4		 	 
Error in line 735:   			C0				 3   8 	3				
Error in line 736:   		 T7				10 5  9  9 	  	 
Error in line 737:  	 	T02  3  84   			
Error in line 738:  	 	C3 	 	 10   		  8 		10	 
Error in line 739:    	C3  	 8				  10	4
Error in line 740:   			T86 			 	6	 2	 		8  	     
Error in line 741: 		 T2 	 	 10	9	3     8 	    	
Error in line 742:   		C2   8	   6 	 2	
Error in line 743:  T3					  6   4	 		1	   	 6   	  	 
Error in line 744: 	 		D2		 	78	 7	 		  	
Error in line 745: 		D2 	 9 		 3   			4		 
Error in line 746: 		T9  8 	  8					9	  		 5		
Error in line 747: 	D44    	 10  1			  
Error in line 748:   C4 84	 		5 	
Error in line 749: 		 				C8 	 8 	     2  8  		
Error in line 750: 			C0		   9 		9	 		 3		  
Error in line 751:   	 		T1 	1 		  5	8				7		 
Error in line 752: 	R8 8   		 4 	 	 	10 
Error in line 753:  	  	T0 		2   		 	5	 			4 	   6		 	 	
Error in line 754:   	 	R3 724		   			
Error in line 755: 		  D0  3	  	 10		1 
Error in line 756: 	 T5 	5		2		  	7		6  
Error in line 757:   		 T8		  	10 	     2 		10 6 	   
Error in line 758: 	  T7	10 	  4	  	1	2	 	
Error in line 759: 	 	R7	 	 		5  10		     10 
Error in line 760: 	   	 R6 	 1		 1	 1  	
Error in line 761: 	 	T0	 	  	5			  102    9    	  
Error in line 762:    	 R6	  7 			 4  	   		6		 	
Error in line 763: 		 	  	R6		10   			 4		 	 8 	  
Error in line 764: 			T22 		9  2  	 	 		5			
Error in line 765: T2	9			 	7		  	18 
Error in line 766: D9	 2  9 	 	 	2	 	
Error in line 767: 	C1  				 7	  	  	 8 10	 	
Error in line 768:  				D895   	 	 9    			
Error in line 769: 	D9  		8	  	  7 1				 	
Error in line 770:    	D3	    	7		  2	  	 5	 
Error in line 771: 		C3	9 	 8	  9 
Error in line 772:    T3	4	 		7			5 				2		
Error in line 773: 				T3		 4	  3	46	   	
Error in line 774: 	D9  	1   	10	9 		  	
Error in line 775: 	  		 T9	 	2	 3   	  8 	   9
Error in line 776: 		R5		  			1 	  	 4  4	
Error in line 777: 			 	 R7   2 5  	9			 
Error in line 778:  	 	  	T9 710 				 5		  				4	 
Error in line 779:  		  	C0 	 	1 	 2		7	   
Error in line 780:  		 	   D0  	1 9  		  8			 
Error in line 781: 	 	 R3	64			 	 6		   		
Error in line 782: 	T2 	 7  	3	  				9 			9 		
Error in line 783: 	  R2				 2 2 		 			5		
Error in line 784: 	  	  R0			5 		 		4 4 	
Error in line 785: 	    		C8   3  	 	4		 		4  
Error in line 786: 	 		D4	    		5			1   	 7		
Error in line 787: 	 		  C7		 4		4  		 		8 	  
Error in line 788:  						R5 	 	 	 	7	 	4	 		 	10		 			
Error in line 789:  	  	 T0	 4 	3		5		 	 9 			
Error in line 790:    	C2			  	4		1		 		2   	 
Error in line 791:     C3 	   6  		  7 1	
Error in line 792:  	   R3  3 9				 4	  	 	 	
Error in line 793:  		  C9 72  	 2	 				  	
Error in line 794: 	 	 C3   	 2	 		9				  6	
Error in line 795: 	  	 D3	 		  10 	2			   	 8	 	 
Error in line 796:  	D5	 		 5 		1	6	
Error in line 797:  	D0 		6 1   	   5 	  
Error in line 798: 			R8	   	 9   	  2				 	8	 			
Error in line 799: 		 D7   7	 	8 			 	6 		 		 		
Error in line 800: 		R5		   29		 	 3	 				 
Error in line 801: 		T0   5   7 5  			 	10			 
Error in line 802:   				C9    	  9		 	8 	 9 
Error in line 803:  	D5			 	2  		5	    4	  	
Error in line 804: 	   	 T6 		  52	  1    3		 	  
Error in line 805: 	  	C4  	103 	 	 9 	   
Error in line 806:  T1	 			  8	 6  	 	2	 	 9   	 	
Error in line 807:    	 T7			 	2  8   4 	 	 		5	 				
Error in line 808: 				C0	  7 8  2	 
Error in line 809: D9 			3    3 	2 		 	
Error in line 810: 	R3 	 4 5 	 			8	    	
Error in line 811: 	T4  4 		 	 			5 			28 	  	
Error in line 812:  R0	 		 		8 				 8 		 6	   
Error in line 813: 	T6	 	  	7	 	2  	   	1		 	  6	  				
Error in line 814:  				 T4    			10	 7			9  1	
Error in line 815: 	 T3	 			 	9 	 	 	 		9 	2	 	  	10 		 		 
Error in line 816: 	 R4	  4		  		7		5 	 	  		
Error in line 817:   		D6 	    3		  	  8	7
Error in line 818: 	 			 C8	9  	87	
Error in line 819: 	R2	10	 	  	2 			 10 	 	
Error in line 820:   	T0 	 5  	   6	4  	   1	 		
Error in line 821: 				 D3 	 			7		  	 9	 3 
Error in line 822:  	 D9	   6		 	 	 7  	2	 		
Error in line 823: 			 R4			  	8   		3	  10 			 
Error in line 824:  	 	 D1	 	 4  9 					1 		
Error in line 825: 	 T5 	9			 1 				2  	  2
Error in line 826: 		  T1 	6     1   	  5						9	 
Error in line 827:  C5     4	 	7				8 
Error in line 828: R8 	 4 	2	 2 
Error in line 829: 	 	R7	3	3   1  
Error in line 830: 			R9			    4  			  9 	    10
Error in line 831:  	T0 10	  		1	 	7    9	 
Error in line 832:  D1	  	 	 5 		 		3	   		5			 	 
Error in line 833:    	 R3 		 4	   		2	 2 	 	  	
Error in line 834: 		C8 	7	  6 			 			8 		 	 	 
Error in line 835: 	     	C6 	7 			  	4		 4   
Error in line 836:  R0 	8		 9		 		 4	 	 		
Error in line 837: 			R4	  8					5				 	 	10	  
Error in line 838:  	  	D7   10	 6    			9		 
Error in line 839: 		C8	6 	 		  1		 8 		
Error in line 840: C5					3	5		   10	
Error in line 841:  	D8 	2 			 10		 		1	 			 		
Error in line 842: 		    T4	 		9 	 2	 	10	8	    	
Error in line 843:    R3	   1	 	 	4 			 		 7
Error in line 844:   C2		8 6  	   5				
Error in line 845: R5		 8	3 7	
Error in line 846: 	 	D6	  	  		1			2		   	 3  
Error in line 847: 	 		R0			9 		4 	4		   		
Error in line 848:  	  C0	 	4 			 10	  		 5		  	
Error in line 849: 	C6  		4 			 		3 	  4	 	
Error in line 850:  R7 6  5 	2      
Error in line 851:  	  		 D8 6					10  2	
Error in line 852: 		  D6 	 	 	10	 		  3  6 	 		 
Error in line 853: 	 	D0	 		7	 		 	 4 	 1			  
Error in line 854:   D9	3				 	 9 	2	  		 	
Error in line 855: 		D8 	 	 		 10	9 8	 	
Error in line 856:     C3	 			9	1	   	 	 1 	 	 
Error in line 857: 	 R9  		 10 8 	 		6  
Error in line 858:   		 C5	 7  	2	9	 	
Error in line 859: T1			 	8 5	   		4 2   			 
Error in line 860: 		  D2 				6 	  1 4
Error in line 861: 	 C0		 	   4 	  8	2	
Error in line 862: 	 		T9  	 7  	 	 6	 	 	 	3 8    	  		
Error in line 863: 		D9	  2	  	  			2  5		 		  
Error in line 864:  	    R8	 		108	 			7
Error in line 865:  R9	 		38	 9	 
Error in line 866:  		 	T5 	    1	 		  2 3					  	2
Error in line 867: 	  	  	T6	 4 	210  1					
Error in line 868: 			 T6	3 	 6	 	 	  4   	10  			 
Error in line 869: 	  		T5	10	  	 	  10	9	  10
Error in line 870: 		R9	5 8 		  	8 
Error in line 871:   R0 4   			 1 2	   
Error in line 872:   	 	T6		6 			   7 	 5  		 4 	   
Error in line 873:   		T08 	2 	   	2	5	    
Error in line 874:  		     C3  	2   7	   	 10				  
Error in line 875: 	 D5 2  	 4	5	 
Error in line 876: 		T6 4		 	16	5
Error in line 877: 			 		T8 		8		34  	 	 	3		 	 	 
Error in line 878:   D3    	5			    10			      3 		 
Error in line 879:  		D6  4			 	10				 	2	    	
Error in line 880:  	  R7 		  5	9	  	9 	 
Error in line 881: 	  D9 				1  	9 6  		
Error in line 882: 	 	C6		6	 	     4	 5 	 	
Error in line 883:  C0	   	 6  		 	10	  	  4 	   	
Error in line 884:  				 D1 1  	3	1     
Error in line 885: 	 	D0 2 3	  	5 	 
Error in line 886:    D5  				 	  3 	4 9    
Error in line 887:  			 	C4  7  4	5					 		
Error in line 888: 		  		T8	 	8	8 	  2		  	2  
Error in line 889: 				 		R9 8 	   		9				 1  	 		
Error in line 890: 	T9 	 	9	6	 		   2					 6 
Error in line 891:  R56    10	 		  	 2 	   
Error in line 892:   T4  1     9	 	6		 5 
Error in line 893: 	 R2 	   2	   2     		 7   	 	
Error in line 894: 	R0 	7		  2   		 6    
Error in line 895: 		 	 R0   4	   9  1	 
Error in line 896:   			T9   51 		  	 10  7 
Error in line 897:  	   C4	 	   7  	8  			8
Error in line 898: 				 T0	 9	  		3	 	  	4 	8 	 	
Error in line 899: 	 D5	1  		 	110    	
Error in line 900:  C8      	9		 	 9	  8	 	 		
Error in line 901:      D0 3	 				1 			 		2	
Error in line 902: 	  	  T6    	7	 7  			4   10	 
Error in line 903:  T1 8 	 	 2 				   6     2	  		 
Error in line 904:  C6 	10					5 	  	 	4	  
Error in line 905: 			 R3	10   		 	4					4  	
Error in line 906:       C1		 	8 		1	7	    		
Error in line 907:  	 	  D5  2 2	 8		 	 
Error in line 908: 			  	R2   9	 	 	 	8		8 
Error in line 909:  C0 	 8 		9   	8
Error in line 910:  	D4	4 		3	   5			    
Error in line 911: 			 D7		 			 	 10		3	2			
Error in line 912:    	  T1   10 9			 	 	42  
Error in line 913:  	 D8 		3	97			
Error in line 914: 		  D1   	10  		    4   		 5 	 		 	
Error in line 915:   	 			 	D9  1 3			 	  	5		
Error in line 916: 					C8	 	2 	   5  	  	9  
Error in line 917:   C4 2	 	2			8 
Error in line 918: 	  D4 	 1	 	3		5    
Error in line 919: 		 	D8			9		 10	 9 	
Error in line 920: 		 		T8	  6			  	 4	  			7  3
Error in line 921: 	  	R9 	8 	    	6			 7  	
Error in line 922: 	 			T010	 		2 		 		 	9		2		  	
Error in line 923:   R8	 	 	6 5			8		
Error in line 924:    	 	 			T3 	   	7	 3 	 3 		 	   7    
Error in line 925: 	  	D5 			 	 	1		 		  	1		  9	
Error in line 926: 	D1  3 	 			6 		10	 		  
Error in line 927:  			 T7  	 8  	 2 		9    	 9 			 
Error in line 928: 	 	T2	  3	  	6	 		 	7 	 	  2	  
Error in line 929:  			C9 2  3 9 	 
Error in line 930: 		 	 D2			 	 	82	 	 6		 	   	
Error in line 931: 		 		D7  2 	   3	 	  		4	  	  	 	
Error in line 932:  		T5	 	   	5 6			10 	8    	
Error in line 933: 	C1 		 		9	6			 			2    
Error in line 934: 				   	C4			 3				10	 	 8	 
Error in line 935: 			 R8		 7	 	 2	2	 	 
Error in line 936:  	 C6	   6	9	 3					  
Error in line 937: 		 D3 		  9 	 	 1 5  	 		 
Error in line 938: 		R2		 		2 	8	 			3 		   
Error in line 939: T0 	 8	  	  2 			8	  	  	5	  		 	
Error in line 940:   	 C8    		5  	 	10	  9	  		
Error in line 941:  	   	R5	 17	10 	  	 	
Error in line 942:  D1	7 	8	10				
Error in line 943:  		 	D4				 	3	  3	4 
Error in line 944:  		  T0   	  3 	  			7 8		 3	 			
Error in line 945:    	T9	96	 	86	  	 	
Error in line 946: 		 			R3 10 	 	9  4			
Error in line 947: 				 	D3		5	  6 9	 	
Error in line 948: 	 R495		 10  
Error in line 949: 		 	 R7	 		8	 	 6 			 		 1  
Error in line 950:  	   	 R8	    3	   6			 		 6		   		
Error in line 951: 		  		 	D9  	3 4		 	1  
Error in line 952:  R4	    		1 		 	9	3	
Error in line 953: 	C9		 4	9 		   8 				
Error in line 954: 	  	T8	   		 6	 	 3 	  	4	 8	
Error in line 955:    			D1	    5		10 	 	3 	
Error in line 956: 	  	R3	 		7	4 7  
Error in line 957: T2	5 	 		2 		4  	 5			
Error in line 958: 	  		 	T7	6			 	 3 	 	 1  	3 	  
Error in line 959: 	T0 				 	10	 	10	 	 1		3  		
Error in line 960: 		  C75  			 	 	7	 			 	10	 		
Error in line 961: 		D5	10 		 		9 	  8	 	
Error in line 962:      D72    10 		7		  	 
Error in line 963:  		 T6 8				10 	 	5 	  7	 	 
Error in line 964: 	D8 	 		 8	4	     7	
Error in line 965: 	C9 7 					1 2 	 
Error in line 966:   D1		  7		 	 5	2		  
Error in line 967:  	 	T9 	  8 	  4  	4   	 9
Error in line 968: 	 	T7    3  9			2	1  
Error in line 969:   	 R7 		 	 5  				1			9		  
Error in line 970:   	T2  1 	  		7			   	1		3   
Error in line 971:  	  R4				 	2	2					1    			
Error in line 972: 	   C4		   6	 	 4		 9	
Error in line 973: 	D0	   	8    		8	  	3			  
Error in line 974:  T3 	 	 	 9 3  3  	  1	  	  	
Error in line 975:  D0	 3   			 4 	 6 	 
Error in line 976:  C6 		   	1		 10 8	
Error in line 977: 		 D1		  9		  	 	2 5 	 			
Error in line 978:   	C0    			10	   	 2		4	 
Error in line 979:  R5		 	5 				10		 	7 		 	 		  
Error in line 980: 	  R9	 	6	  4	 		 9	  				
Error in line 981: 			 C4	 1		 	 7 3	 		  
Error in line 982:   D0		 		1	 	3  	10 		  	
Error in line 983:   R4	2		   	 	  2 		9					
Error in line 984: 	R1 			2 	   4  	 		4				
Error in line 985:   	  D8	 6	 		 	91 
Error in line 986:  C5	6		  	 	9	 7 	
Error in line 987: 		D2	2		 7		  	9  
Error in line 988: 	T2   	 10 	1	2	3  	
Error in line 989: 		T8	 			 7	 	   7	 		2 		9			
Error in line 990: 				 	R7 	9 		 2	6	 
Error in line 991:  		   	D8				 			7  	 	7 4	 	 
Error in line 992:  		T0				7	 	 78 	7	
Error in line 993: 	D2	 	3	 5	 		7  	 
Error in line 994: 	 	  R0			 	 6    	96 			 
Error in line 995:   		 	 R2	 8	 2	  6 
Error in line 996:   C9	 5	 	 	 1	5   
Error in line 997: 	   C6  		 		2 	9	   	8   	 
Error in line 998: 		 	T0  9 	6			7		9	  
Error in line 999:  		R8  2	 	8  			  	5	  	
Error in line 1000:   D48	  2		5	 		
Warning, unconnected node(s): 0
