Error in line 1:  D2 5 10 10 
Error in line 9:  R5 7 10 6 
Error in line 12:  D5 5 8 8 
Error in line 23:  D6 9 2 5 
Error in line 24:  C7 5 10 9 
Error in line 25:  T8 6 9 3 5 
Error in line 26:  T2 3 3 4 4 
Error in line 27:  R2 4 7 2 
Error in line 28:  R3 3 2 5 
Error in line 30:  D8 6 8 9 
Error in line 34:  T5 7 7 10 7 
Error in line 35:  C8 7 2 1 
Error in line 36:  R5 4 5 7 
Error in line 39:  C1 4 1 1 
Error in line 42:  T6 1 4 8 1 
Error in line 44:  T0 5 6 3 6 
Error in line 45:  T3 1 3 3 9 
Error in line 46:  T8 9 5 7 8 
Error in line 47:  D0 5 4 9 
Error in line 48:  D2 10 2 10 
Error in line 50:  T0 8 2 3 1 
Error in line 51:  R2 3 1 5 
Error in line 52:  C7 2 5 4 
Error in line 53:  T3 1 2 3 9 
Error in line 54:  T3 5 4 8 1 
Error in line 56:  R0 8 2 7 
Error in line 57:  T5 8 10 4 7 
Error in line 58:  C7 4 10 1 
Error in line 60:  R4 8 8 10 
Error in line 61:  T2 2 2 1 6 
Error in line 62:  T0 2 9 6 2 
Error in line 63:  R0 6 8 1 
Error in line 64:  C9 1 8 3 
Error in line 65:  T9 9 10 2 6 
Error in line 68:  T2 1 9 5 7 
Error in line 69:  T9 3 2 3 2 
Error in line 70:  T0 3 7 2 3 
Error in line 71:  C7 5 1 4 
Error in line 72:  R1 3 3 3 
Error in line 73:  R4 5 6 10 
Error in line 74:  R2 4 2 9 
Error in line 75:  D5 3 5 8 
Error in line 76:  C7 2 10 4 
Error in line 77:  R5 2 4 2 
Error in line 78:  C7 9 6 10 
Error in line 80:  R0 1 10 8 
Error in line 82:  T4 3 8 9 3 
Error in line 83:  C5 5 6 4 
Error in line 84:  T2 4 6 8 8 
Error in line 85:  T8 1 5 7 5 
Error in line 86:  C7 8 10 10 
Error in line 89:  T6 5 9 9 4 
Error in line 90:  R9 3 9 10 
Error in line 91:  T0 10 8 2 1 
Error in line 92:  T0 1 5 3 3 
Error in line 93:  T5 6 4 7 2 
Error in line 94:  D1 8 4 8 
Error in line 95:  D2 7 4 9 
Error in line 96:  T8 4 4 1 2 
Error in line 97:  T0 9 9 3 9 
Error in line 98:  C0 3 2 1 
Error in line 99:  T8 7 5 4 5 
Error in line 100:  C0 9 1 5 
Error in line 101:  R3 4 7 7 
Error in line 102:  T3 6 3 4 1 
Error in line 103:  T0 5 9 2 10 
Error in line 104:  R3 5 6 4 
Error in line 105:  R7 6 3 6 
Error in line 106:  R6 5 4 4 
Error in line 108:  C6 7 3 8 
Error in line 109:  C5 7 5 3 
Error in line 110:  T0 10 9 6 6 
Error in line 111:  T6 6 10 2 1 
Error in line 112:  R8 4 8 4 
Error in line 113:  R6 5 8 6 
Error in line 114:  R5 10 4 8 
Error in line 115:  R1 7 2 2 
Error in line 116:  C8 6 4 9 
Error in line 117:  R3 3 6 6 
Error in line 118:  D3 7 3 6 
Error in line 119:  T7 8 1 5 5 
Error in line 120:  T8 10 5 10 1 
Error in line 121:  D4 5 7 6 
Error in line 122:  R9 8 2 2 
Error in line 123:  T4 7 7 9 6 
Error in line 124:  T3 5 2 8 9 
Error in line 126:  D1 9 8 9 
Error in line 127:  C2 9 10 10 
Error in line 128:  R7 5 3 6 
Error in line 129:  R6 10 5 9 
Error in line 130:  R6 9 10 7 
Error in line 131:  C7 10 1 4 
Error in line 132:  R3 6 1 8 
Error in line 133:  D2 5 8 10 
Error in line 134:  D7 1 1 5 
Error in line 135:  T8 5 4 10 2 
Error in line 136:  T2 8 3 6 6 
Error in line 137:  R2 2 7 8 
Error in line 138:  D5 9 9 7 
Error in line 139:  C0 3 7 3 
Error in line 140:  D8 1 4 9 
Error in line 141:  C4 6 3 3 
Error in line 142:  C3 7 7 2 
Error in line 143:  C4 4 6 7 
Error in line 144:  R7 7 10 4 
Error in line 145:  R5 7 4 3 
Error in line 146:  C8 3 5 4 
Error in line 147:  C3 5 2 6 
Error in line 148:  R2 5 6 3 
Error in line 149:  R0 3 8 4 
Error in line 150:  C5 4 5 2 
Error in line 151:  D7 5 5 4 
Error in line 152:  T8 10 3 4 9 
Error in line 153:  T3 4 10 10 5 
Error in line 154:  T5 3 2 3 5 
Error in line 155:  D6 1 10 10 
Error in line 156:  C8 6 1 9 
Error in line 157:  C6 4 4 3 
Error in line 158:  T7 2 5 7 8 
Error in line 159:  T6 4 2 1 4 
Error in line 160:  R6 4 1 4 
Error in line 161:  T1 10 2 2 1 
Error in line 163:  C0 4 3 8 
Error in line 164:  C3 9 1 6 
Error in line 165:  R4 2 8 5 
Error in line 166:  D0 3 2 7 
Error in line 167:  C2 6 10 8 
Error in line 168:  T7 8 2 5 7 
Error in line 169:  T4 4 10 2 10 
Error in line 170:  R9 3 2 1 
Error in line 171:  D4 5 4 3 
Error in line 172:  R9 7 5 10 
Error in line 173:  C7 9 6 7 
Error in line 174:  T7 9 8 1 10 
Error in line 175:  R0 5 6 2 
Error in line 176:  D4 8 10 2 
Error in line 177:  D2 9 7 8 
Error in line 178:  D0 1 2 1 
Error in line 179:  T6 3 3 5 1 
Error in line 180:  T8 5 5 8 6 
Error in line 181:  T8 5 8 1 7 
Error in line 182:  D4 1 2 2 
Error in line 183:  C1 2 10 7 
Error in line 184:  R6 2 2 2 
Error in line 185:  R3 3 5 4 
Error in line 186:  C8 4 1 8 
Error in line 187:  R3 2 3 7 
Error in line 188:  T9 1 7 9 2 
Error in line 189:  D4 2 2 9 
Error in line 190:  R7 1 2 10 
Error in line 191:  C2 10 9 1 
Error in line 192:  C0 1 8 9 
Error in line 193:  T2 5 3 4 4 
Error in line 194:  C7 10 7 3 
Error in line 195:  T5 1 6 3 3 
Error in line 196:  T4 10 2 7 9 
Error in line 197:  C4 10 9 4 
Error in line 198:  T7 6 3 7 3 
Error in line 199:  T7 6 5 6 8 
Error in line 200:  T4 3 3 3 4 
Error in line 201:  D2 4 4 4 
Error in line 202:  D7 4 7 1 
Error in line 203:  C8 7 8 3 
Error in line 204:  T2 10 8 3 2 
Error in line 205:  D0 10 10 8 
Error in line 206:  D3 2 10 7 
Error in line 207:  R3 6 10 2 
Error in line 208:  T5 9 9 8 1 
Error in line 209:  R3 3 7 5 
Error in line 210:  R1 9 10 5 
Error in line 211:  T8 9 6 7 10 
Error in line 212:  C1 6 5 3 
Error in line 213:  T6 6 1 1 6 
Error in line 214:  D4 10 5 2 
Error in line 215:  D9 9 10 5 
Error in line 216:  T9 9 2 5 9 
Error in line 217:  D7 9 5 4 
Error in line 218:  R8 1 4 2 
Error in line 219:  R7 2 7 5 
Error in line 220:  R4 2 8 4 
Error in line 221:  C9 6 8 10 
Error in line 222:  T3 4 5 3 6 
Error in line 223:  T6 7 7 2 7 
Error in line 224:  C5 2 6 8 
Error in line 225:  T8 4 3 2 3 
Error in line 226:  C6 1 1 9 
Error in line 227:  R9 4 3 4 
Error in line 228:  C2 1 9 10 
Error in line 229:  T7 1 7 8 4 
Error in line 230:  T9 10 10 9 5 
Error in line 231:  C3 2 3 7 
Error in line 232:  T2 6 6 6 2 
Error in line 233:  R2 6 2 7 
Error in line 234:  R8 2 9 7 
Error in line 235:  D0 2 2 10 
Error in line 236:  T0 2 10 10 5 
Error in line 237:  T1 2 9 9 3 
Error in line 238:  R1 1 7 4 
Error in line 239:  T6 2 7 4 5 
Error in line 240:  T9 5 4 3 9 
Error in line 241:  T9 10 1 2 6 
Error in line 242:  C8 8 9 1 
Error in line 243:  C2 6 10 6 
Error in line 244:  R0 8 6 3 
Error in line 245:  R7 10 7 8 
Error in line 246:  D2 6 3 10 
Error in line 247:  C3 3 5 5 
Error in line 248:  D1 2 7 8 
Error in line 249:  T1 1 1 2 6 
Error in line 250:  T1 10 7 6 3 
Error in line 251:  T7 10 8 5 7 
Error in line 252:  T1 9 1 9 3 
Error in line 253:  D9 2 5 2 
Error in line 254:  D8 3 6 1 
Error in line 255:  C9 2 4 7 
Error in line 256:  T3 2 1 9 5 
Error in line 257:  T4 4 2 10 9 
Error in line 258:  R4 10 2 9 
Error in line 259:  R2 1 5 8 
Error in line 260:  C2 2 9 1 
Error in line 261:  R7 10 9 6 
Error in line 262:  D6 6 1 8 
Error in line 263:  R7 2 3 3 
Error in line 264:  D9 3 3 10 
Error in line 265:  C5 8 10 2 
Error in line 266:  C9 1 4 7 
Error in line 267:  R5 9 1 3 
Error in line 268:  T1 2 3 1 1 
Error in line 269:  D1 2 2 5 
Error in line 270:  D3 2 1 10 
Error in line 271:  C0 5 7 4 
Error in line 272:  R4 2 3 5 
Error in line 273:  T7 8 8 6 6 
Error in line 274:  C4 1 7 8 
Error in line 275:  T8 5 6 2 4 
Error in line 276:  D1 10 3 4 
Error in line 277:  R7 1 1 7 
Error in line 278:  R4 3 2 8 
Error in line 279:  T3 2 4 9 7 
Error in line 280:  R0 5 6 2 
Error in line 281:  T3 10 7 1 7 
Error in line 282:  D4 4 5 8 
Error in line 283:  T8 2 6 4 2 
Error in line 284:  R9 2 2 9 
Error in line 285:  R7 8 5 5 
Error in line 286:  C9 6 1 9 
Error in line 287:  R0 1 7 7 
Error in line 288:  C9 4 5 5 
Error in line 289:  C8 7 6 5 
Error in line 290:  R8 6 7 8 
Error in line 291:  R1 8 2 10 
Error in line 292:  D0 2 6 1 
Error in line 293:  R3 7 9 8 
Error in line 294:  D3 2 6 4 
Error in line 295:  D0 9 8 7 
Error in line 296:  D2 3 8 6 
Error in line 297:  R4 7 2 3 
Error in line 298:  R5 8 7 10 
Error in line 299:  R2 3 2 6 
Error in line 300:  T2 1 6 3 7 
Error in line 301:  R6 2 1 3 
Error in line 302:  D9 5 1 1 
Error in line 303:  T8 9 1 1 3 
Error in line 304:  R9 2 6 2 
Error in line 305:  T9 10 7 3 3 
Error in line 306:  R8 5 10 4 
Error in line 307:  T6 7 1 4 3 
Error in line 308:  C2 8 6 9 
Error in line 309:  R6 7 1 10 
Error in line 310:  R7 3 3 8 
Error in line 311:  R4 2 8 9 
Error in line 312:  D1 1 4 6 
Error in line 313:  D9 3 5 9 
Error in line 314:  T5 4 4 8 1 
Error in line 315:  T6 2 6 2 1 
Error in line 316:  C7 7 5 2 
Error in line 317:  T2 10 8 9 10 
Error in line 318:  D5 3 5 1 
Error in line 319:  D3 9 6 9 
Error in line 320:  T0 4 1 3 4 
Error in line 321:  D1 6 2 1 
Error in line 322:  T8 5 5 3 7 
Error in line 323:  D1 10 1 6 
Error in line 324:  D0 6 2 8 
Error in line 325:  R9 10 3 10 
Error in line 326:  C9 7 3 6 
Error in line 327:  T0 8 3 10 2 
Error in line 328:  T4 3 2 8 10 
Error in line 329:  T7 7 2 8 7 
Error in line 330:  T0 6 8 2 4 
Error in line 331:  C3 7 5 6 
Error in line 332:  D4 9 6 4 
Error in line 333:  T9 1 5 6 4 
Error in line 334:  C4 7 4 4 
Error in line 335:  D5 9 10 3 
Error in line 336:  T4 7 8 2 10 
Error in line 337:  D6 10 2 9 
Error in line 338:  T2 3 1 7 1 
Error in line 339:  T1 9 2 4 10 
Error in line 340:  D0 2 10 2 
Error in line 341:  R2 8 9 4 
Error in line 342:  D9 2 6 9 
Error in line 343:  T6 7 4 4 2 
Error in line 344:  C0 10 9 5 
Error in line 345:  T5 5 5 6 3 
Error in line 346:  C0 6 4 3 
Error in line 347:  D7 1 10 2 
Error in line 348:  R6 8 2 3 
Error in line 349:  C2 4 1 9 
Error in line 350:  D1 9 4 1 
Error in line 351:  T8 10 7 8 5 
Error in line 352:  R9 3 3 4 
Error in line 353:  D4 6 4 2 
Error in line 354:  C5 5 8 8 
Error in line 355:  T4 9 5 3 2 
Error in line 356:  T1 8 7 1 9 
Error in line 357:  T6 1 1 7 7 
Error in line 358:  D9 4 3 5 
Error in line 359:  T2 3 5 6 8 
Error in line 360:  T1 10 5 6 9 
Error in line 361:  R0 8 3 3 
Error in line 362:  T5 8 7 3 6 
Error in line 363:  T2 2 9 1 2 
Error in line 364:  T1 5 6 1 2 
Error in line 365:  D8 10 8 2 
Error in line 366:  C8 5 6 6 
Error in line 367:  R7 7 8 6 
Error in line 368:  D7 10 6 8 
Error in line 369:  R1 9 4 2 
Error in line 370:  R9 7 6 1 
Error in line 371:  D9 10 1 9 
Error in line 372:  R9 10 7 8 
Error in line 373:  C0 8 3 7 
Error in line 374:  T9 7 4 7 5 
Error in line 375:  D2 6 5 7 
Error in line 376:  T4 1 8 7 1 
Error in line 377:  D4 10 10 2 
Error in line 378:  R1 1 8 1 
Error in line 379:  C9 8 3 3 
Error in line 380:  R7 9 8 7 
Error in line 381:  R3 7 3 3 
Error in line 382:  T5 6 3 5 4 
Error in line 383:  C2 4 3 3 
Error in line 384:  T9 10 2 4 6 
Error in line 385:  C8 2 7 8 
Error in line 386:  C9 10 1 1 
Error in line 387:  T1 10 8 4 2 
Error in line 388:  C0 7 6 1 
Error in line 389:  R7 8 5 10 
Error in line 390:  T6 5 1 10 10 
Error in line 391:  T4 1 4 9 3 
Error in line 392:  R6 10 7 9 
Error in line 393:  T4 9 8 9 4 
Error in line 394:  T0 3 7 1 4 
Error in line 395:  C7 2 1 8 
Error in line 396:  T8 2 5 2 3 
Error in line 397:  R4 8 2 7 
Error in line 398:  D8 5 8 1 
Error in line 399:  D2 10 5 8 
Error in line 400:  T5 8 10 7 10 
Error in line 401:  T1 9 1 10 2 
Error in line 402:  T4 4 10 1 1 
Error in line 403:  R2 6 2 5 
Error in line 404:  T6 7 2 2 1 
Error in line 405:  C3 1 5 9 
Error in line 406:  D8 2 5 5 
Error in line 407:  R6 1 1 1 
Error in line 408:  R6 9 5 5 
Error in line 409:  D7 9 6 2 
Error in line 410:  R4 6 7 3 
Error in line 411:  T7 3 6 7 3 
Error in line 412:  T9 5 9 3 5 
Error in line 413:  T0 7 10 8 8 
Error in line 414:  C6 9 7 6 
Error in line 415:  C3 1 10 10 
Error in line 416:  T8 7 7 7 1 
Error in line 417:  R0 10 2 9 
Error in line 418:  C8 7 2 6 
Error in line 419:  D6 10 2 7 
Error in line 420:  C2 8 5 7 
Error in line 421:  D5 7 4 5 
Error in line 422:  D8 9 6 4 
Error in line 423:  R4 3 1 4 
Error in line 424:  R0 7 5 8 
Error in line 425:  C2 3 7 2 
Error in line 426:  D4 9 5 4 
Error in line 427:  R0 3 3 10 
Error in line 428:  C2 1 7 4 
Error in line 429:  T6 5 5 8 9 
Error in line 430:  T6 2 10 2 5 
Error in line 431:  R2 3 4 3 
Error in line 432:  D3 7 5 2 
Error in line 433:  T0 2 9 6 7 
Error in line 434:  T9 5 5 3 7 
Error in line 435:  R8 10 10 3 
Error in line 436:  D1 9 3 2 
Error in line 437:  C5 8 3 4 
Error in line 438:  C0 1 5 3 
Error in line 439:  T1 7 2 9 8 
Error in line 440:  C3 10 7 9 
Error in line 441:  C1 2 3 5 
Error in line 442:  T2 8 6 10 4 
Error in line 443:  D4 2 4 7 
Error in line 444:  C2 2 6 9 
Error in line 445:  C6 9 2 2 
Error in line 446:  R3 4 2 7 
Error in line 447:  D3 3 8 5 
Error in line 448:  D6 3 5 3 
Error in line 449:  R3 8 9 10 
Error in line 450:  C7 9 7 5 
Error in line 451:  T4 6 2 2 7 
Error in line 452:  R9 7 10 7 
Error in line 453:  D5 7 10 8 
Error in line 454:  C5 9 6 9 
Error in line 455:  D5 1 9 10 
Error in line 456:  R2 5 1 1 
Error in line 457:  R0 6 5 9 
Error in line 458:  T2 4 8 10 8 
Error in line 459:  D1 1 6 6 
Error in line 460:  C9 4 4 10 
Error in line 461:  D6 4 10 5 
Error in line 462:  T6 1 6 6 4 
Error in line 463:  C4 8 1 2 
Error in line 464:  T2 7 5 3 4 
Error in line 465:  T9 4 8 10 4 
Error in line 466:  T7 4 2 5 8 
Error in line 467:  T9 8 9 7 6 
Error in line 468:  R0 7 9 1 
Error in line 469:  C6 2 5 3 
Error in line 470:  D9 6 8 3 
Error in line 471:  T0 2 3 8 8 
Error in line 472:  T9 2 6 7 1 
Error in line 473:  D1 4 1 7 
Error in line 474:  R3 4 1 2 
Error in line 475:  R6 8 1 6 
Error in line 476:  D9 3 7 10 
Error in line 477:  C8 1 8 7 
Error in line 478:  R6 1 1 3 
Error in line 479:  R5 4 3 5 
Error in line 480:  C3 6 1 6 
Error in line 481:  C9 7 8 3 
Error in line 482:  T0 4 5 10 7 
Error in line 483:  C9 3 2 9 
Error in line 484:  D1 5 1 2 
Error in line 485:  C9 6 6 10 
Error in line 486:  T5 4 7 1 8 
Error in line 487:  R8 7 2 6 
Error in line 488:  D4 10 5 6 
Error in line 489:  D5 10 3 10 
Error in line 490:  D6 9 2 8 
Error in line 491:  R7 6 10 7 
Error in line 492:  D9 6 3 8 
Error in line 493:  D6 4 9 6 
Error in line 494:  D0 10 4 2 
Error in line 495:  R1 10 4 2 
Error in line 496:  D5 4 2 4 
Error in line 497:  T6 5 6 3 2 
Error in line 498:  T1 2 1 5 6 
Error in line 499:  C5 8 7 9 
Error in line 500:  D0 5 5 10 
Error in line 501:  R8 8 1 2 
Error in line 502:  C2 4 4 3 
Error in line 503:  T6 4 4 5 6 
Error in line 504:  R2 1 5 7 
Error in line 505:  D7 2 6 10 
Error in line 506:  C0 6 9 3 
Error in line 507:  C2 7 5 10 
Error in line 508:  R2 3 5 10 
Error in line 509:  C4 8 7 4 
Error in line 510:  R3 6 1 5 
Error in line 511:  R6 4 7 10 
Error in line 512:  T8 8 5 10 3 
Error in line 513:  R9 2 9 8 
Error in line 514:  R6 3 7 7 
Error in line 515:  D0 7 2 3 
Error in line 516:  C1 1 10 3 
Error in line 517:  D8 6 7 2 
Error in line 518:  T0 1 4 9 9 
Error in line 519:  T1 7 2 7 3 
Error in line 520:  D1 1 1 3 
Error in line 521:  R8 5 1 2 
Error in line 522:  C5 8 4 7 
Error in line 523:  D7 8 1 3 
Error in line 524:  T1 5 1 2 7 
Error in line 525:  R7 1 8 1 
Error in line 526:  T0 3 7 4 6 
Error in line 527:  R5 1 9 5 
Error in line 528:  D6 3 5 5 
Error in line 529:  D5 6 10 4 
Error in line 530:  T8 8 7 8 10 
Error in line 531:  C1 1 1 4 
Error in line 532:  R5 9 10 8 
Error in line 533:  R0 2 10 2 
Error in line 534:  C1 8 10 1 
Error in line 535:  R8 9 8 10 
Error in line 536:  T8 3 9 6 4 
Error in line 537:  T3 1 4 4 7 
Error in line 538:  C6 4 5 8 
Error in line 539:  C2 8 1 7 
Error in line 540:  D1 10 6 7 
Error in line 541:  C8 10 2 10 
Error in line 542:  D8 4 10 10 
Error in line 543:  D4 7 4 1 
Error in line 544:  T7 8 4 9 2 
Error in line 545:  C6 9 3 7 
Error in line 546:  R3 10 3 1 
Error in line 547:  C1 9 1 4 
Error in line 548:  R9 10 6 3 
Error in line 549:  C4 10 10 6 
Error in line 550:  C4 5 3 9 
Error in line 551:  C0 2 6 5 
Error in line 552:  T4 5 2 8 3 
Error in line 553:  C6 6 4 2 
Error in line 554:  R7 7 5 9 
Error in line 555:  D2 1 7 6 
Error in line 556:  C9 4 6 2 
Error in line 557:  T4 3 4 3 9 
Error in line 558:  D0 7 2 7 
Error in line 559:  R1 5 9 7 
Error in line 560:  T4 10 4 5 4 
Error in line 561:  R2 1 4 6 
Error in line 562:  C5 3 9 7 
Error in line 563:  R2 9 1 10 
Error in line 564:  T2 9 6 5 4 
Error in line 565:  T0 6 4 6 2 
Error in line 566:  D8 10 8 5 
Error in line 567:  T9 6 7 2 5 
Error in line 568:  C3 7 8 9 
Error in line 569:  C4 9 5 2 
Error in line 570:  D1 5 6 6 
Error in line 571:  R4 4 5 4 
Error in line 572:  D9 7 4 8 
Error in line 573:  D2 4 2 2 
Error in line 574:  C2 8 7 8 
Error in line 575:  D2 3 2 10 
Error in line 576:  D1 1 4 2 
Error in line 577:  T7 3 8 9 10 
Error in line 578:  T7 1 3 1 10 
Error in line 579:  C5 4 4 8 
Error in line 580:  C8 4 8 1 
Error in line 581:  T6 6 10 6 2 
Error in line 582:  C5 2 6 7 
Error in line 583:  T2 4 4 5 3 
Error in line 584:  C7 6 8 9 
Error in line 585:  D7 4 1 5 
Error in line 586:  R1 9 5 8 
Error in line 587:  D1 1 3 6 
Error in line 588:  T9 10 8 1 8 
Error in line 589:  T4 4 3 8 6 
Error in line 590:  T1 8 10 4 3 
Error in line 591:  C7 5 8 4 
Error in line 592:  T0 4 2 9 7 
Error in line 593:  D2 8 4 7 
Error in line 594:  T1 3 8 3 1 
Error in line 595:  D4 7 7 3 
Error in line 596:  D0 9 6 4 
Error in line 597:  D8 10 8 10 
Error in line 598:  R3 10 9 5 
Error in line 599:  R0 2 5 1 
Error in line 600:  C7 5 2 6 
Error in line 601:  C3 10 1 5 
Error in line 602:  T1 9 10 3 3 
Error in line 603:  R9 7 1 5 
Error in line 604:  D1 1 5 4 
Error in line 605:  R1 7 7 2 
Error in line 606:  T9 4 6 4 1 
Error in line 607:  R3 2 2 2 
Error in line 608:  D7 7 10 5 
Error in line 609:  C4 6 9 9 
Error in line 610:  D2 1 2 6 
Error in line 611:  T7 7 6 1 1 
Error in line 612:  R8 10 2 6 
Error in line 613:  D9 9 1 10 
Error in line 614:  D7 5 10 10 
Error in line 615:  T3 4 3 7 7 
Error in line 616:  C6 1 3 7 
Error in line 617:  T5 5 1 6 3 
Error in line 618:  C5 4 5 1 
Error in line 619:  D7 1 1 5 
Error in line 620:  D0 8 6 9 
Error in line 621:  D7 2 8 6 
Error in line 622:  T6 8 9 5 2 
Error in line 623:  D6 10 5 5 
Error in line 624:  R9 8 2 10 
Error in line 625:  R3 3 10 10 
Error in line 626:  C8 6 1 6 
Error in line 627:  R4 10 10 8 
Error in line 628:  D8 9 4 6 
Error in line 629:  D8 4 5 10 
Error in line 630:  C0 8 10 8 
Error in line 631:  R9 9 5 9 
Error in line 632:  C0 6 6 7 
Error in line 633:  R2 9 9 2 
Error in line 634:  C4 3 5 8 
Error in line 635:  T3 2 2 8 3 
Error in line 636:  C7 7 4 10 
Error in line 637:  D8 2 9 7 
Error in line 638:  T0 2 1 2 6 
Error in line 639:  T0 3 1 4 4 
Error in line 640:  C7 4 2 7 
Error in line 641:  D3 8 3 6 
Error in line 642:  T3 1 5 1 5 
Error in line 643:  C7 1 8 8 
Error in line 644:  R0 6 9 3 
Error in line 645:  D3 5 8 6 
Error in line 646:  C4 7 10 7 
Error in line 647:  R4 9 5 7 
Error in line 648:  T5 5 6 6 2 
Error in line 649:  T3 8 10 4 10 
Error in line 650:  R7 9 1 7 
Error in line 651:  T8 2 10 5 3 
Error in line 652:  T3 3 8 9 5 
Error in line 653:  C9 10 1 5 
Error in line 654:  R5 9 8 2 
Error in line 655:  R8 5 3 5 
Error in line 656:  R7 1 8 3 
Error in line 657:  C2 1 3 6 
Error in line 658:  C6 7 4 4 
Error in line 659:  R1 2 5 2 
Error in line 660:  R3 9 6 5 
Error in line 661:  D4 3 10 1 
Error in line 662:  R7 3 6 6 
Error in line 663:  R0 9 7 9 
Error in line 664:  D8 8 3 1 
Error in line 665:  R7 7 3 1 
Error in line 666:  D8 3 7 7 
Error in line 667:  R5 8 1 7 
Error in line 668:  T7 1 10 3 5 
Error in line 669:  D7 9 1 4 
Error in line 670:  R6 4 7 8 
Error in line 671:  C5 7 10 5 
Error in line 672:  T0 6 6 1 6 
Error in line 673:  D0 10 3 6 
Error in line 674:  D6 8 3 3 
Error in line 675:  D8 6 8 1 
Error in line 676:  T5 6 9 10 3 
Error in line 677:  D6 5 2 3 
Error in line 678:  C4 5 4 6 
Error in line 679:  T4 1 4 7 3 
Error in line 680:  R6 9 7 7 
Error in line 681:  R3 5 5 3 
Error in line 682:  C2 4 2 10 
Error in line 683:  R3 1 2 7 
Error in line 684:  T8 8 9 3 6 
Error in line 685:  D2 6 8 2 
Error in line 686:  D5 6 8 4 
Error in line 687:  D3 1 5 9 
Error in line 688:  C9 1 8 1 
Error in line 689:  D6 5 2 2 
Error in line 690:  D3 4 2 5 
Error in line 691:  C6 1 5 6 
Error in line 692:  R8 5 5 2 
Error in line 693:  D0 8 2 3 
Error in line 694:  D1 10 6 10 
Error in line 695:  T7 1 7 9 8 
Error in line 696:  D5 6 1 10 
Error in line 697:  R1 6 9 7 
Error in line 698:  C0 10 2 5 
Error in line 699:  C9 2 6 4 
Error in line 700:  C3 9 8 6 
Error in line 701:  D3 6 4 8 
Error in line 702:  R4 10 9 6 
Error in line 703:  C6 7 2 4 
Error in line 704:  T9 9 6 4 9 
Error in line 705:  D5 3 1 7 
Error in line 706:  T1 3 2 4 10 
Error in line 707:  D4 5 10 2 
Error in line 708:  T5 7 8 4 9 
Error in line 709:  T6 6 10 9 8 
Error in line 710:  C3 2 1 8 
Error in line 711:  C8 5 9 5 
Error in line 712:  T3 3 1 9 9 
Error in line 713:  D2 10 1 10 
Error in line 714:  D7 1 2 8 
Error in line 715:  T9 1 10 7 5 
Error in line 716:  R0 10 1 1 
Error in line 717:  C9 10 2 7 
Error in line 718:  D4 7 3 1 
Error in line 719:  C9 8 8 1 
Error in line 720:  C2 9 7 5 
Error in line 721:  R3 6 3 4 
Error in line 722:  R7 7 10 10 
Error in line 723:  D0 5 9 3 
Error in line 724:  R7 7 5 3 
Error in line 725:  T7 1 10 5 6 
Error in line 726:  C2 1 7 8 
Error in line 727:  D9 10 6 5 
Error in line 728:  C8 6 7 1 
Error in line 729:  D4 2 2 1 
Error in line 730:  C4 8 5 2 
Error in line 731:  R4 4 4 1 
Error in line 732:  C5 7 3 3 
Error in line 733:  C4 1 5 9 
Error in line 734:  T6 1 1 5 3 
Error in line 735:  R6 4 6 6 
Error in line 736:  R6 4 2 2 
Error in line 737:  T5 4 8 8 1 
Error in line 738:  R7 6 4 8 
Error in line 739:  D5 5 1 7 
Error in line 740:  T0 2 2 9 10 
Error in line 741:  C1 3 4 1 
Error in line 742:  C1 5 3 6 
Error in line 743:  R1 10 5 4 
Error in line 744:  D9 2 7 1 
Error in line 745:  T7 1 4 3 9 
Error in line 746:  C0 10 3 10 
Error in line 747:  D6 1 10 6 
Error in line 748:  T5 7 10 6 1 
Error in line 749:  D0 3 3 9 
Error in line 750:  C9 10 4 8 
Error in line 751:  T8 4 2 4 3 
Error in line 752:  T6 8 10 4 10 
Error in line 753:  C4 8 4 1 
Error in line 754:  C5 10 2 4 
Error in line 755:  D2 5 9 3 
Error in line 756:  D8 5 5 2 
Error in line 757:  D3 3 8 4 
Error in line 758:  C1 9 1 3 
Error in line 759:  T0 7 4 1 6 
Error in line 760:  D3 6 5 7 
Error in line 761:  R1 3 6 4 
Error in line 762:  D7 9 9 1 
Error in line 763:  C2 4 1 6 
Error in line 764:  T0 9 3 3 5 
Error in line 765:  R5 6 4 5 
Error in line 766:  D4 5 3 7 
Error in line 767:  R3 3 8 4 
Error in line 768:  D6 3 3 1 
Error in line 769:  D0 2 3 5 
Error in line 770:  D9 3 6 4 
Error in line 771:  R2 1 10 5 
Error in line 772:  D8 9 4 2 
Error in line 773:  R7 7 8 2 
Error in line 774:  D5 6 10 8 
Error in line 775:  R8 10 10 3 
Error in line 776:  C1 4 8 3 
Error in line 777:  C0 4 4 8 
Error in line 778:  T5 4 3 3 10 
Error in line 779:  C7 10 1 6 
Error in line 780:  C9 2 4 9 
Error in line 781:  D2 2 6 5 
Error in line 782:  R1 7 3 5 
Error in line 783:  C6 2 3 5 
Error in line 784:  C4 7 6 10 
Error in line 785:  C4 10 2 1 
Error in line 786:  C0 3 6 9 
Error in line 787:  T0 1 3 4 10 
Error in line 788:  C2 10 5 7 
Error in line 789:  D7 8 10 4 
Error in line 790:  T3 3 9 3 4 
Error in line 791:  C2 10 2 8 
Error in line 792:  R2 10 1 3 
Error in line 793:  D8 10 7 2 
Error in line 794:  C0 7 7 7 
Error in line 795:  D9 2 3 5 
Error in line 796:  T3 8 7 7 1 
Error in line 797:  D6 10 10 4 
Error in line 798:  T3 10 9 3 3 
Error in line 799:  T4 1 7 8 4 
Error in line 800:  R2 10 4 1 
Error in line 801:  D6 4 3 2 
Error in line 802:  T8 4 2 3 1 
Error in line 803:  C0 5 4 9 
Error in line 804:  T5 10 6 3 5 
Error in line 805:  D2 4 8 7 
Error in line 806:  D8 9 10 3 
Error in line 807:  R7 6 5 3 
Error in line 808:  R2 2 6 1 
Error in line 809:  D3 8 3 1 
Error in line 810:  R0 4 4 3 
Error in line 811:  C5 9 4 7 
Error in line 812:  C0 8 8 1 
Error in line 813:  T1 3 5 10 8 
Error in line 814:  R4 1 6 6 
Error in line 815:  D9 5 9 8 
Error in line 816:  D8 4 4 9 
Error in line 817:  T7 9 1 6 9 
Error in line 818:  C9 6 8 8 
Error in line 819:  R0 5 4 7 
Error in line 820:  D8 8 7 7 
Error in line 821:  R0 8 4 6 
Error in line 822:  C1 10 6 8 
Error in line 823:  C1 2 5 2 
Error in line 824:  D1 6 7 2 
Error in line 825:  C8 3 5 3 
Error in line 826:  T3 4 6 10 2 
Error in line 827:  C9 5 4 7 
Error in line 828:  C5 6 2 5 
Error in line 829:  C2 2 3 10 
Error in line 830:  D1 3 10 7 
Error in line 831:  C2 5 6 7 
Error in line 832:  C1 4 3 6 
Error in line 833:  R1 10 9 3 
Error in line 834:  R8 6 10 8 
Error in line 835:  R0 10 2 1 
Error in line 836:  R5 5 8 8 
Error in line 837:  T7 10 6 1 1 
Error in line 838:  R5 6 1 8 
Error in line 839:  R1 5 6 1 
Error in line 840:  R5 3 4 1 
Error in line 841:  C0 5 3 4 
Error in line 842:  D1 1 3 7 
Error in line 843:  T8 2 5 6 9 
Error in line 844:  D3 5 4 4 
Error in line 845:  R3 6 9 9 
Error in line 846:  D4 2 1 2 
Error in line 847:  T7 6 5 8 6 
Error in line 848:  D4 9 6 6 
Error in line 849:  T2 4 5 7 4 
Error in line 850:  T4 7 3 4 9 
Error in line 851:  R2 9 1 8 
Error in line 852:  R3 8 5 6 
Error in line 853:  D6 1 5 2 
Error in line 854:  R4 9 2 1 
Error in line 855:  D0 8 1 1 
Error in line 856:  R9 6 10 1 
Error in line 857:  D9 2 8 10 
Error in line 858:  T6 3 8 5 5 
Error in line 859:  C0 3 8 8 
Error in line 860:  R1 9 5 1 
Error in line 861:  D9 4 6 2 
Error in line 862:  T9 2 3 8 10 
Error in line 863:  D0 2 6 5 
Error in line 864:  R7 5 8 6 
Error in line 865:  C8 9 2 5 
Error in line 866:  D2 7 6 2 
Error in line 867:  C3 5 7 8 
Error in line 868:  D7 5 3 3 
Error in line 869:  D6 8 2 10 
Error in line 870:  C5 1 3 9 
Error in line 871:  R8 3 10 1 
Error in line 872:  T7 4 10 3 3 
Error in line 873:  D0 8 7 9 
Error in line 874:  D0 6 1 2 
Error in line 875:  D1 7 7 9 
Error in line 876:  C0 8 9 4 
Error in line 877:  R5 6 9 9 
Error in line 878:  C9 7 6 6 
Error in line 879:  T6 1 8 6 6 
Error in line 880:  R9 2 6 8 
Error in line 881:  T3 8 3 4 8 
Error in line 882:  C5 6 3 4 
Error in line 883:  R6 6 4 6 
Error in line 884:  T0 5 6 6 1 
Error in line 885:  R4 9 9 5 
Error in line 886:  R5 10 6 3 
Error in line 887:  R4 2 9 5 
Error in line 888:  R1 6 2 1 
Error in line 889:  C2 6 10 1 
Error in line 890:  T5 7 2 2 5 
Error in line 891:  C1 1 9 9 
Error in line 892:  R6 10 5 7 
Error in line 893:  D5 1 6 5 
Error in line 894:  D4 1 10 2 
Error in line 895:  R9 5 5 4 
Error in line 896:  D6 5 2 8 
Error in line 897:  T5 4 5 9 8 
Error in line 898:  C4 6 1 10 
Error in line 899:  T9 7 2 7 5 
Error in line 900:  D8 8 4 3 
Error in line 901:  T1 1 5 4 10 
Error in line 902:  T0 7 6 5 10 
Error in line 903:  T5 6 8 2 10 
Error in line 904:  R5 7 6 2 
Error in line 905:  C5 7 1 8 
Error in line 906:  R8 10 8 5 
Error in line 907:  D6 3 1 5 
Error in line 908:  T7 10 7 8 5 
Error in line 909:  C3 1 5 3 
Error in line 910:  D1 9 2 6 
Error in line 911:  C9 2 7 10 
Error in line 912:  R5 10 8 3 
Error in line 913:  C5 7 3 7 
Error in line 914:  D0 8 3 6 
Error in line 915:  D7 1 3 4 
Error in line 916:  D4 2 10 10 
Error in line 917:  D3 3 1 4 
Error in line 918:  D4 3 4 5 
Error in line 919:  C7 8 9 10 
Error in line 920:  T8 8 7 6 4 
Error in line 921:  D4 1 7 10 
Error in line 922:  R4 4 9 4 
Error in line 923:  D6 2 9 4 
Error in line 924:  C4 1 5 5 
Error in line 925:  D3 1 5 10 
Error in line 926:  C5 8 4 3 
Error in line 927:  R2 8 1 3 
Error in line 928:  T9 10 9 2 8 
Error in line 929:  R6 6 3 3 
Error in line 930:  R9 3 8 3 
Error in line 931:  D1 2 8 10 
Error in line 932:  D2 7 1 8 
Error in line 933:  C0 10 5 6 
Error in line 934:  D6 6 3 1 
Error in line 935:  D4 8 6 9 
Error in line 936:  T4 2 3 6 5 
Error in line 937:  R2 6 8 8 
Error in line 938:  D7 1 6 7 
Error in line 939:  T7 10 2 1 3 
Error in line 940:  D6 7 5 2 
Error in line 941:  R8 4 4 9 
Error in line 942:  C7 2 7 10 
Error in line 943:  R1 10 2 4 
Error in line 944:  C4 2 8 8 
Error in line 945:  T1 4 2 4 6 
Error in line 946:  D2 3 6 5 
Error in line 947:  C2 7 4 4 
Error in line 948:  T1 1 5 3 9 
Error in line 949:  D0 1 6 7 
Error in line 950:  C6 3 8 6 
Error in line 951:  R3 3 9 7 
Error in line 952:  D3 9 10 8 
Error in line 953:  R5 7 7 1 
Error in line 954:  T2 7 4 8 9 
Error in line 955:  R8 9 8 4 
Error in line 956:  D4 10 2 5 
Error in line 957:  T9 10 5 6 1 
Error in line 958:  R5 8 7 1 
Error in line 959:  D3 10 1 7 
Error in line 960:  C5 4 8 1 
Error in line 961:  R7 7 5 2 
Error in line 962:  C4 5 1 8 
Error in line 963:  R5 6 5 2 
Error in line 964:  R7 9 10 9 
Error in line 965:  C6 3 10 8 
Error in line 966:  C0 4 6 8 
Error in line 967:  D1 8 5 3 
Error in line 968:  D0 9 10 6 
Error in line 969:  D3 3 1 3 
Error in line 970:  R6 4 4 4 
Error in line 971:  T9 10 7 7 2 
Error in line 972:  R1 8 10 3 
Error in line 973:  T4 2 8 4 10 
Error in line 974:  D9 1 1 6 
Error in line 975:  R5 3 8 9 
Error in line 976:  D7 3 8 5 
Error in line 977:  T4 8 9 3 2 
Error in line 978:  T8 1 9 4 9 
Error in line 979:  C3 8 5 10 
Error in line 980:  C3 10 8 1 
Error in line 981:  C6 4 3 10 
Error in line 982:  T2 1 1 1 8 
Error in line 983:  R2 2 9 7 
Error in line 984:  R4 7 4 8 
Error in line 985:  D8 6 3 9 
Error in line 986:  D7 6 5 5 
Error in line 987:  R2 4 1 4 
Error in line 988:  R0 10 7 10 
Error in line 989:  C0 5 4 7 
Error in line 990:  D1 6 4 3 
Error in line 991:  R3 2 2 9 
Error in line 992:  D9 8 8 8 
Error in line 993:  D6 10 2 7 
Error in line 994:  T8 1 3 3 8 
Error in line 995:  C1 8 7 2 
Error in line 996:  C3 9 3 8 
Error in line 997:  R4 10 9 8 
Error in line 998:  C5 3 8 9 
Error in line 999:  C4 8 9 10 
Error in line 1000:  T1 3 10 10 3 
Warning, unconnected node(s): 0
