Error in line 7: 	 			 T4  	 			1	7	  7	 	3	
Error in line 9: 			 	 R6 5  	5		 3 			
Error in line 16: 	 		 T9 5	 	6			4	  	1 
Error in line 17:  	T5 	 7			 6 		4		  	4 
Error in line 18: 	 		 T5 	1 			  		 8	  2 1	
Error in line 19: 	C75 7	  7		   	 
Error in line 21:  		T5	2 	 	7	  	  	 3	 	 2		 			 
Error in line 22:  	  D0 			4 3	9 
Error in line 23:   	 	C0			6		2  				10		  	
Error in line 24: 	  	 T4	 			8   	9 9		  6			
Error in line 26: 			T9   	 2		5	  		2 1 	     	
Error in line 29:  			 	  		C28   10		2 			
Error in line 34: 			 R9		 	1   10   	2		
Error in line 38:    C6   5 	2	 3		  
Error in line 39:  	 C0 	 	 2		1  	 9	  
Error in line 41:  		 R9	  	3	 10				 9			
Error in line 42:    	  	T5  			10  		79	5 		 
Error in line 44:  T57	 		1  	  10		 10	   			
Error in line 45:   			T7 72		9	2
Error in line 46:   	R1 1		    72	
Error in line 47:  	  C4	 10		10	 	9  	
Error in line 48: 	    	C4	5 2      9			    
Error in line 51: 	 C6    9   		9		  2	
Error in line 52:  	D2	 		 	9 		 	 57 	 		
Error in line 53:  		C1	10 3	 9   		 
Error in line 55:  	 			D9	1 5	 	 	10 	  	
Error in line 56: 		T9 	2	6   		 4  2		  
Error in line 57:   	  	T8	   2			1	  2 			 	8		 		
Error in line 58: 	 C2  9  	6	   	2 	
Error in line 59:  		T5      9 		 			10	  9		6
Error in line 60:  	D7		 93	 		 6		 	  
Error in line 61:  	  		  C2	 	  2	10	7   			
Error in line 62:  			D7  	 4  	 44				 	
Error in line 63:  C1     	  2  		6	6	 			
Error in line 66: 						 C6  	 10 			9 1 			
Error in line 67: 	D7	  1		  	  5				6 
Error in line 68:   	 		D1 		 	6    	9	  9				
Error in line 70:    C3	    9	8 	 			 6  
Error in line 71: 		   R7	8	  	7		 	 5  
Error in line 72:   		  D7 			  7  				8	6			
Error in line 73: 	    D0   5  	7 	   		  6 	 	 
Error in line 74: 		 D8 		 	 3		7 	10		    	
Error in line 76:  	 T63  4	   2 7	  	 
Error in line 77:  	  	 C1	 	 	 5 	  	3		9  	 	
Error in line 78: 	  R8	   	2  6   	 2   	
Error in line 80:    	R9  		2		 4				10	    
Error in line 81: 	 C8		   2 		  	9    	 3  	 		
Error in line 82:  	 	T6		 		 7 8 3 9				
Error in line 83: 		 	 		D3  	 6	   10 4 		
Error in line 84: 	R89 	3 	5	  
Error in line 85:  T6 6 		 4		 8  9	 	   
Error in line 87: 		C8 10 		4	 	   	 2		 	
Error in line 88:  D0 	 			 9  5	 	  	6   	
Error in line 89:  	     R7			1   7  	 10 		 		 
Error in line 90:  C4 	 		 9 	  		7   	 8  
Error in line 91:  			 C0 9	 	 1	 		2  
Error in line 92:    	T8  	 		 9	  10 	3	 	2	
Error in line 94:  		D3  	1	6 			6			  
Error in line 97: 			 	 R1 				2			    2				3			
Error in line 98: 	D8    	 		4	 	  4 				10		  
Error in line 100: 					  T68  	 10	 	3			10
Error in line 101:  	C0		4 4		  	2 			
Error in line 102: 		 C6     		96		 6 	 	 	 	
Error in line 103:     R6		 	 6	  	 		19  
Error in line 104:  R4				7	 7		 6   		 
Error in line 105:  T2	   	4  9  	 7	 4 	 	 
Error in line 106: 		 		  T6 	4  	1		 		  2	    		9 	  
Error in line 107:     		C5			 	3 	 5    		4			 		
Error in line 108: 	 		 	  R7	6				10 		  	 7	 	
Error in line 109:  		   C1   	10 	3	 5			
Error in line 110:  			 R0		 		6	  	 7	  8	
Error in line 111:  	C5	6	  		 9 		  1  	  
Error in line 112:  	    R0	 3			4			4	
Error in line 113:    		 T9 		  	4 7 	 	 	5  6  	 	
Error in line 114: T5	  1 		6 			6		 	7    		 
Error in line 115:  		  C4 		 	4    7	   	2	 	 	
Error in line 116: 	 	R7 3 9	10		 		
Error in line 117: 	 R46			    	1  	   8	   
Error in line 118:   			R8   10	2				 	3	   
Error in line 119: 	 D5  	4  2   	7	
Error in line 120: 	 	T8	7  	3	 			9 4 				
Error in line 121: 	   C4 					2 	 4 	  5 			
Error in line 122:   D7 	10	 5			1				
Error in line 123:   T7   	8	 7				 7  		 8    
Error in line 124:  	R8 	7 4  	  5	
Error in line 125:   		 T4  			   9  4  	  	  5  2  
Error in line 126: 	D0		  	 3		  7 	  4				 	 
Error in line 127: 		  C1 			8	   	 	10	9 	
Error in line 128:  C0	 	 		 1 	5		  10	 		 	
Error in line 129: 	  	 T9	 4			3   9	     2		
Error in line 130:  					R2		  6	 					10		 3		 
Error in line 132:  	 	 T0 3 		 		 4   			3			2	 			 
Error in line 133:    		D6	 6 	  	  8			 				4	
Error in line 134: 		   	 	C2	 	 	9		 		8	1 		
Error in line 135: 	  		   R7 		3 4    	5  	
Error in line 136: 		 	 	D2		6 		  	 	 10	7		 
Error in line 137: 		     C9			   6 	 	 10	8      	 
Error in line 138: 		 	T4		  	2 	  	8 		 	99 		 
Error in line 139: 			 R7	109		 				  3  	    
Error in line 140:  	    R6			   1 				1	  	  1	  	
Error in line 141: 	 R2  9	   7	 			8	  		
Error in line 142:   C0				 	5 	 		 1		 		 		 7	
Error in line 143:     C4      8		 	6	5				
Error in line 144: 		 	R1	  	   5	9  		 4	 	 
Error in line 145: 	 				 D6 4 1					 	 6  
Error in line 146:  					R0	 		  9 	 		 	10		1	  	
Error in line 147: 		D9	  6 	4   7 
Error in line 148: 		 D6		 		 8	 	 	7  	  2
Error in line 149: 	  T6	 9 			 10	  	3	 		8	
Error in line 150: 	 R8 5	  		 8 		  7 		
Error in line 151:   	 T2					12  9		 7 	 	 	
Error in line 152:   R9 	 5 10 	6	  
Error in line 153: 	 	     D8    		2    	  	6	3	
Error in line 154:  		 			T8 	 	 	1	5	 	 	7		 	 		3 
Error in line 155: 	  C8 	  	 	 3	1  	2	 	   	
Error in line 156:  R5		2		 	9	  	   6	  
Error in line 157:  		 	 	D3	10					 6		9		
Error in line 158: 	T9 		 9 		 	 	1	 	 9	 	  	 	10 
Error in line 159:   R1	 	1			2 	 9    
Error in line 160:    	C3	 6	  	  1	 	9 		    
Error in line 161:     	R5  7		 3 4		 	
Error in line 162: 		   	  C1    	1 4		 2  		 
Error in line 163:  		 	 T9  	 6							8 	5 	 	 1	 
Error in line 164:  R2 	 	 1	   	 	10 	6	 	
Error in line 165: 	  		R1  	 	4	10			8	 	
Error in line 166:  T2	7 6   9 		 8 	 
Error in line 167: 				  	 	T7 	 			 5				10	  	2 						8		
Error in line 168: 	  	 R8  5 	   	 	5	  		 	10   
Error in line 169: 		  	 D0 	  2 	 5   9	
Error in line 170: 			 	 T9		 	5	  		 	 85	      3  		 
Error in line 171: 			    C7	  		2				7   5
Error in line 172: 	  			 C3 	 		8 	    	7 	6 		
Error in line 173:   C8		  	 8 	  			2   	3 	 			
Error in line 174:     C4			  		1	  	93		 		
Error in line 175: 		R4  	6 9 	   	7	
Error in line 176: 	   	    C1  	8     3 		 		 9
Error in line 177:    D4		 			5  5    7
Error in line 178:  	  R4 	  8	   	  10 	  2 
Error in line 179: 			D9  8	6	 10 	
Error in line 180: 		 T3	3 	9		  4 1  	  
Error in line 181: T7		2	 6		10		     1	   
Error in line 182: 	C6	 	1   	2				 2    	 
Error in line 183:  		 	R7				 	1	 		6 				1				 
Error in line 184: T6	 	 8 8			  35    	
Error in line 185: 	C7 	9 	   	 3    	  1    	
Error in line 186:  		 	C8    	6	 			 1 	3	
Error in line 187: 			C2 	 5      5  	6  	
Error in line 188: 		D7	 5   	  9	  				3	
Error in line 189: 	     		D910	 6	8	 		  	
Error in line 190: 		  	C4  	 	9			 6	7				
Error in line 191: 		 T5 1 					10				 6   	10	 	   	
Error in line 192:  D9			6  10  1	 	
Error in line 193:  			  R3 4		10	   7 	 	 	
Error in line 194: 	D2  1		 9								2	  
Error in line 195: 	T2	1   5				 	5	 3	   	 	
Error in line 196:  		T5 		  	5 	 		 	5	   		10 3	 				 	
Error in line 197:   	 		D4		 4	 	 9	 				 	5	
Error in line 198: 				D6 	8	 1	2	
Error in line 199:     C0		 	4 	  3		1	
Error in line 200: 					 D65	 2 5  	
Error in line 201:  	R83 8								10 	 					
Error in line 202:  	 	R7  	5	 	 	  8 	   	9  
Error in line 203:  			R9	8 6		 	 	  3	  
Error in line 204: 	R5	 	10	5 	 1 			   	 
Error in line 205:  D2 		 		2		   	3 	4 			 
Error in line 206: 	C8 9	  		 	9  	 5	
Error in line 207:   	  T3	 8		  				2				  2 	6 	 	  
Error in line 208:  		 C7		1	2 10
Error in line 209:   	 		 	C4 				 2 	 				95   
Error in line 210: C7	7	 			  6 8				
Error in line 211:     T9      7     3  		 1 10	 		   
Error in line 212:   	  C3  	5 	6 1 					
Error in line 213:  	  	T9  	 10  	  6	7   	3	 	
Error in line 214:   T0   3		5			6  		 	5	   	
Error in line 215:  	R1 		 	2 				5		 		 5
Error in line 216:  	 T7 		  	10	2	 	 4			10      
Error in line 217:   	 C3 	 6 	 			6		 	7   
Error in line 218:  C5 6 		  4		 	8  	 
Error in line 219:   		 C3	 	9     		3 1		  
Error in line 220: 		 	D4    	 10		8	10	 		
Error in line 221: 		 				D5 		1	    2  	9   				
Error in line 222:  		 		T7	 	 10	  			  7  8      5		 	 	 
Error in line 223:  		 	 	R0	  	7 		  	 10	  8  
Error in line 224:    D1 		   	9   		 	2 	 		 	5			 
Error in line 225:    C7	  6	 	10	6	
Error in line 226: 	    		T2	 				  5   	8 	 55 				
Error in line 227:  	C5	 	 	2   	  	  5  	8 	
Error in line 228:  T2    3  9 	7		  	8	 
Error in line 229:    	   	 	C2		8 				 	4	   	 8		 			
Error in line 230:  	T0 	5 				  6	1 	10 
Error in line 231:  	 	 D2		 		 10   5	   	  1 		  	
Error in line 232: 	 C8			8 	10		10	   			
Error in line 233:   D7	  		3 	2 			  7  		 	
Error in line 234: 	D3 		7 				  9  			 	8	  	 
Error in line 235: C0	2 	 		9	   	3 	 		
Error in line 236:  R78		 	 	2   	9  	
Error in line 237: T8	 	2 	 1				 	2 8	 	  	
Error in line 238:   	T0  3     8  	1 				7			 	 		
Error in line 239:   	    R0	 	1 3   		 9	  
Error in line 240: 	  C37  		  	3  9 		 
Error in line 241:  	R4	  4  8  	  	9	 		
Error in line 242:  	  R6	     	5 			    3	  	 	 8 			
Error in line 243:   D0 	9		 			5	 	 6	 
Error in line 244:  		  R7	    2 		 	4 	6 	 	 
Error in line 245:  R9	  		2	  64		
Error in line 246:   	T2	   10				 8   7   4 		
Error in line 247:  			 		D7	8		  5	  	 1   	 
Error in line 248: 				T5 		   7		 		8 			3	 7		 
Error in line 249:  	 		 C4	8 	 	7		 	 4 			
Error in line 250: 	R5				  5	6 	9		 		
Error in line 251:   		 C1 	 		10   2			 	5	 	 
Error in line 252:  D0  6 5		  			1
Error in line 253:  		R4	8 	  	7   		8 			 
Error in line 254:     			T9 10 			 2	 3   	 	4   	 		
Error in line 255:  D2		  	8 1	7  
Error in line 256: 		 T4 9  	3 		 		10  	 			1 	
Error in line 257:  	  T6			1	 	    6  	 	 3	 	 		2
Error in line 258: 	  	T3	    	 2	 	2 	  			510 
Error in line 259:  			   R8				8						6   		9  	
Error in line 260:  	D6	1 			2  		 2  				
Error in line 261: 		C4 	   	 5   		 8		  	2		
Error in line 262:    		C9		  10	  9	3	
Error in line 263: 	D4 10			 			10     	2  	  		
Error in line 264: 	T92		 4 2		2 		
Error in line 265:    	 T6	 				84			34	 	 	
Error in line 266: 		 	 	R7 	 				4	  	  2  			7 			
Error in line 267:  	  R6			3	1 10 	
Error in line 268:  R2  	 4  	 	9 				 2  			  
Error in line 269: 				D6	 	 	810 5 	    
Error in line 270: 		 R2	 	10	  	  6	 			8  		 	   
Error in line 271: D5		 		6    	10	2 	 	
Error in line 272:      		D7  	  	9		 7  6	   
Error in line 273: 	R8	4  		9   	1  
Error in line 274:   	 R77 				7  	 7		 
Error in line 275: 					T6			 	 	7 6  			108	
Error in line 276: 	T9	1 			   8	 		1  					9	 
Error in line 277:   T4   5 		   9	 6 10 	 
Error in line 278:  		 	C0 2 		 		 6	 		7	      
Error in line 279:  		 D6   8  	6 			9			
Error in line 280: 	 	   	 T6		  10		  	9   	 10		10	 
Error in line 281:  	 C7	  		 4			  9  	6 
Error in line 282: T2		 7		3     4	 		7 
Error in line 283: 	T4	 		4 	7  7  	5	 
Error in line 284: 			R2  	5		  8 	5		 
Error in line 285: 			C7 	 		3 		9 				7	 
Error in line 286:  R6  	 	 	4			   	 3	 		3
Error in line 287:   	C5 	 	 9		   	5  	1  
Error in line 288: 		  T8 	2    	 1  		 	82		  
Error in line 289: 	 T0 7    	 8    	  6 3	
Error in line 290: 		C9  	 5		10   9 			 
Error in line 291:  C5		9 			 	  8  			7   		   
Error in line 292: 	 		    C9	 3	  10	5	 
Error in line 293: 	C3 9	5	 	10		 	
Error in line 294: D5 			7		 3  		 3   		
Error in line 295:   	  	T8	 	6		6	 	3	   2	 	   
Error in line 296:  			 		D2		 4  	 	10						 	2	
Error in line 297:   		 R1	 4  2  	   	9 	 
Error in line 298: 	 	C7		 1 	 8       	2	
Error in line 299: 	  	T69 	  5		10 5	  	
Error in line 300: 		T5  		 3	 	10   	 	4  	5 	
Error in line 301: 	  T0	9  6	   10			 	 2	 	   
Error in line 302: 		 		 	 	 D7	10  	  4 	  	 	7	  	 
Error in line 303:     	 C9	 	7	8 6	 	
Error in line 304: 	 		R7	 	1		 8 	7
Error in line 305: 	 D2  	1 	 	3			 				 10			 		
Error in line 306: 		 	D0 	  	 2	6  	10	 
Error in line 307:  			 		C0   					6 	 5 4 
Error in line 308:  C5		8	 	    17		
Error in line 309: 	T1  	  	 4	   	7  6			  4			    	
Error in line 310:  	 R5	 		  			10 	  		39		 	  
Error in line 311:  	 T7	 		  7   	  5	  			9	 7 	
Error in line 312: 	  	 T2   		 1  	  	4		 10 				5  	 
Error in line 313:  R6	5 	  		2	7	 	 		
Error in line 314:   	 	D2	  			6 		8 9   	   
Error in line 315: 				T1 8 4 		 		3 	  	  3 
Error in line 316: 	 	 	C9		 	3			   	  2	   	 5 	
Error in line 317: 				R1		9   	 9			8 
Error in line 318: D9	8 	9 				9  	
Error in line 319: 	   		C9		  99 		10			  	  
Error in line 320: 	C0 	 				4 			  3 8  
Error in line 321: 		 		R5 	5	   3 	  	8	  	 	
Error in line 322:   			D7 2  3   	     5	 			 
Error in line 323:  	  	 T5		2		 5 							10 6	  
Error in line 324: 	 	D2 				841  		  
Error in line 325: 				  R3 	2  	5  5	 			
Error in line 326:   	C4	    		9     	7	9 	
Error in line 327:  	C78 	  4  4 	 
Error in line 328:  	 R1  6   8	 5      
Error in line 329: 	  T4		 4	 	 6	1	 2 	
Error in line 330:   R4			  55 3  	  
Error in line 331:      	 R3 			 	1010	 	4		  	
Error in line 332: 	    T4			6   9     	10	   2
Error in line 333:   	C4 	   	7 4  	2   	  
Error in line 334: 	  		T51  5	 	 1    	2 	
Error in line 335:      		D4	 	 3	  	  3		 5 	
Error in line 336: 	 		T3 		 7   	4	    9	 5		 	 
Error in line 337: 		 	 C5    		7  	  	10	 7  		  		
Error in line 338: 			C9	16		 6		
Error in line 339: 	   R9 		 4 			6 		 		6	
Error in line 340:  			  	D6 		 10	 3			5 	 	 	 	
Error in line 341:  	 		T8 			5			 		8	 	7  	  		7
Error in line 342: 		   	C9  	7  	  4		  	6  
Error in line 343: 		 		D2  4 	2 4 			
Error in line 344: 	 	  T2				 	1	 		2		  	 10  			 	9	 	
Error in line 345: D7	4	   1   	6   	 
Error in line 346: 		   R0 	 		4 	  	10			5 
Error in line 347: 		  	D5   510 			 	4	
Error in line 348:    R4 	  	8 	 	5 5 	
Error in line 349: 	  		D3	 3 		 	 	6  		 	 3   		
Error in line 350: 		  	 	T1 	 	3	  9   	5 8	 
Error in line 351:  D0	4	    	5  		3		 
Error in line 352: 	 C3    	  3						  7	  		 10   	 		
Error in line 353:   	R9	8	  	10 		2		
Error in line 354:   	 C4	 3	6  4	 
Error in line 355: 		C5			  	1   	5  		1		 
Error in line 356:   	  	C9   	10   		10 9	
Error in line 357: 	R1  	  9  	4   2  		
Error in line 358: 				  D0		10						 3 			 3	 
Error in line 359:  	 R9	  9  86			   
Error in line 360:   	C2			3 			 910  		 
Error in line 361: 	    	 D8	5  		5	7 
Error in line 362:  	D0	   	6	10			 3	   	
Error in line 363:    	  R4   	 	8	 6   	6			  	 	
Error in line 364: 	 R2 	   	7	2					2	
Error in line 365:   T2 7	    5	 9  		10		   			
Error in line 366: 	T8	1	   		1		  5		  	 	7
Error in line 367:  			R4		7 7 1 	 
Error in line 368:  R05	 		3	4	 		 	 
Error in line 369:  	 		 T1	 6 5   3	  7		  	 				
Error in line 370: 			  	   	T8 	 6 7	4  7		 
Error in line 371:  R1	1  	 	  10 	10 	
Error in line 372:  				T0  		185				 	6	 	 		
Error in line 373:  R85	   		10		   	7				 			
Error in line 374:     		C5		 9	   			 8		 	  		9 
Error in line 375: 	  R7			 6		 		 6  5 
Error in line 376: 	 D9 	  	 2	 	 1 		 		7  	 	
Error in line 377: 		  C2	 	3		 	  4  	 	4			
Error in line 378:  T1		 		 3	 	 3		 		 	 5 		 		 9  		 
Error in line 379: 		 	 	R2  1 	  	 2	8 	
Error in line 380: 		 	  C2	 	  3			 4	 			   10 		  	
Error in line 381: 			 C2 		 8	 	 		 2 	 7    	  
Error in line 382:   	R0  	 10   	4	 	  10 	
Error in line 383: 		R8   		910	5    	 
Error in line 384: 	T9			  10  			10 	 	1	  3	 			
Error in line 385: 	R9 	 5	 4	 			 8 			 
Error in line 386: 	  					 T2 	5  			8		   		1						5		 
Error in line 387:    		C2	 			 8					5	 	9	 	
Error in line 388:    R6	2	6  		  6	   
Error in line 389: 			 	T8  		1   8			  	9 	6		 	
Error in line 390: 	T1  	   	6  	  	  4  	 			6	7 			
Error in line 391: 	C4 6  		 2		6 
Error in line 392: R7 	5  	1   	10 	 
Error in line 393:   			 R5			 	 	3 				2			 6	
Error in line 394: 					D4	5		  5	 	1 	  	
Error in line 395: 	 C0 		2	 			7 	8		 
Error in line 396:  		   T5 	 2	 	3			 2 4  
Error in line 397: T9		  6  		9 5		 3  
Error in line 398:    D3   	 2	 10		 		7 				
Error in line 399:  	 	C5		5				  7 	3 		 	
Error in line 400: 	R1		   8	8	 9 			   
Error in line 401: 		D4	2	  			 57 			  
Error in line 402:  	T4	4 8 	 	  2	 	 6  
Error in line 403: 	T1 		 		 3  	1	 	2  10		
Error in line 404:   	 	 R3  	 10   3 	 	6	 	
Error in line 405: 	 	T97 5	2 1   	 	
Error in line 406: 	   R5   10		    8		  	8		 
Error in line 407:   	 D9			 	8 	6	  		7   
Error in line 408:   		 	D5	6 	   8		9	 		 		
Error in line 409:  	D19	 			6		 	4 	 	  
Error in line 410:  	  R8 	 	9	9	  6  	 	
Error in line 411:  	R8				2   2 2
Error in line 412:  	 T3	 	3	  				55		10 	
Error in line 413: 	  	 R9	6		 	1 	 2		  
Error in line 414: 	 	 C7	 	4 	   	1	 9 
Error in line 415: 	  				C7	   10		  		10		 	10  	 		 	
Error in line 416: 	  D8	  			5		  			2	 10		
Error in line 417: 			  T6	1 			 10  	 3 10   	 	
Error in line 418:   	  D0 5	8 	7 	 	 	 	 
Error in line 419:  	 R7 		3 				 	8		2	 	   
Error in line 420:   	T9  	  	 	4	6				  	 10	     4      
Error in line 421:  R1	     8 	6  	4  	 	 		
Error in line 422: 		  D8	 	1		 4 5   	   
Error in line 423: 			 C1	  	6	 	  7	 	  7	 	
Error in line 424: 	 	 T7 		  		8	   	5	 	  	 3 	 6 
Error in line 425:  	 	 		T7 		   4	  		1 		  5	  	2   	 
Error in line 426:    R3	  8  		8	   8 			
Error in line 427: 	C1	   5		 1 				7  	
Error in line 428: 	  R8			 	 	8   8	 	 		1 
Error in line 429: 	 		T6    10  	 2	 	  	10   	10     
Error in line 430: 	 	D0		 3		  			2  				4			 		
Error in line 431: 		R1 4 		 4	  5 	 	 
Error in line 432: 			T9				 			8 			4		  4		  		6	  
Error in line 433: 		 	R3 	  		7   6   	4  	 	
Error in line 434: 	R6	5 	 6	  5    
Error in line 435: 	  			D4			7	 		7 			  5		
Error in line 436: 			  R6				8		 1		  		 	4	    
Error in line 437: T5	 		 1	 3  		2		 	 1	   	
Error in line 438: 	 				C1	  	7 	  	 4		 	 1					
Error in line 439: T7 	3  	8	    10	 	 	5	 	 			  
Error in line 440: 			 		T1  	  3 	  	 3		   	5 1 	 
Error in line 441: 				D8 9	   	  	 6 	7	  
Error in line 442: 	 	R8	3	 10   2	 		 
Error in line 443: 			 C7  			 8 	  		1	4 	
Error in line 444: 	 	 T7	  	8   			8	3		6			 	 
Error in line 445:   	 R7 	  5	   	7 4   	 		
Error in line 446: 	 		 R4			 	  3	2					 7				
Error in line 447: 		 	D2	   	6 		 			2		 	  2		
Error in line 448: 	  	  	D6	 3   68			  
Error in line 449: 	 	D8				5	10			   1   		
Error in line 450:  	  	R6	 		 3	6	6				
Error in line 451:  		  R4	2 	8	1			
Error in line 452:  	    	T0 8 	  8	   5	 	  		1	
Error in line 453:  	  R0	 7		 		2 9 
Error in line 454:   C5	52		2 
Error in line 455: 	R8 	 	5	 	 			6  	 		 	6 
Error in line 456: 			  C1	 			6		   1  	 		2		 
Error in line 457: 	T2  	  9 	  6 		2 		9		  	
Error in line 458: D2 1 		83	 
Error in line 459: 	 R9	      10 9       9 	    	  
Error in line 460:   			 	D1  	  6 	 4			7	  
Error in line 461: 		  T3  	 	 8	   4				 	7	 		 9			 
Error in line 462:  	 	T4		   9 		  	9 3			  6    
Error in line 463:  D27		    5	2	
Error in line 464: 	  		T7 11   	 5	6	 		  
Error in line 465: 	 	T8 10 	5	8	  			3 			  		
Error in line 466: 		  	T42 		 9	   		 2 	9
Error in line 467: 	D0	 		 3 		   8	  	9 
Error in line 468: 	 	 	 C9  9	  		3		3	  		
Error in line 469:   D2 	10		 				9 	 		1				 
Error in line 470:   	   D7  	4		5 	 	 	 2     	 
Error in line 471:   	C3 3 	 6			6   		
Error in line 472: 	 	  C5   	 3 	  		7 				4  
Error in line 473: 			 T2	  		 2 		9	  	9 8		 
Error in line 474:   		D1 	 	 	  2	 10   	8	   				
Error in line 475: 	T6  4 	  		10	 	 	 4 	 	4   			
Error in line 476: 	R4	8 54	  	  
Error in line 477:  	D3	 	   9	 1  10				  
Error in line 478:    T5	  9				 1			10 	9		     
Error in line 479: 	R1 	2	 4	9 
Error in line 480: 		    C5				  6 	  3	   1		
Error in line 481: 						R4 10	107 	   	
Error in line 482: 	 T0	7 		 1    		4	 			1     
Error in line 483:   					 C2    3	 	 9  	3	
Error in line 484: 	 	R710		 	5 	  2  
Error in line 485: 		 C1 						 3		4 	  10
Error in line 486:  C8 	2			7  		  	 2 
Error in line 487:  D5	 	 	 1	 		7					6		
Error in line 488:  	 	D6			 		10  		  8	  1	
Error in line 489:  	 	R9	 	 1	1   		10		
Error in line 490:  C7	 			 2 		9  	2   	
Error in line 491: R6  	     	9	 5  	1 
Error in line 492: 	  T9 	 	7		22 5	       
Error in line 493:  C6	2 	 8 		   8			
Error in line 494: 	T7 	   2	   1   		  5 				3 			
Error in line 495:  	D4 	 8   	4 10 			
Error in line 496:  	 	  D9	7 	 9		 10		
Error in line 497: 	 	 C7			88	 	  1 	  			
Error in line 498:   R7 	  	 9 		 	9	 6		 
Error in line 499:  	T7			   2  				1	  		3	 2	
Error in line 500: 		R7		 7	4	     9  	 		
Error in line 501: 	 D8		6  		3	1  
Error in line 502:  D1		  	 	2 7	 	 	  	8 
Error in line 503:  C3 	 6 	 2 		 9		
Error in line 504:   	R2 	 5		 	10				 		 6		 
Error in line 505:  C9  		83 			3		
Error in line 506:  T7 9 		1   1		7  	 
Error in line 507: 	 	T4				 9		  9	 	1		 	5	 
Error in line 508:  	  R8  3 	 10	   5  		
Error in line 509: 	 D1 		 		9   		7  3			 
Error in line 510:     C6 4 	 3     5				   
Error in line 511:    	T8 96 	 	 10  		 8		 	 		
Error in line 512: 		 			D8 5	1	3	  		 
Error in line 513:    				 C89		4	    	 4 					
Error in line 514: 		C1		 	8			7	     	8	 	 		 
Error in line 515: 	  R6		 		5	  	4	2  		
Error in line 516:  T7 	 6		  	5	 		5	10 	 	 
Error in line 517:  	  		C4	   31 2			
Error in line 518:  		D5	3 					8	 		7 	 	 	 
Error in line 519: 	 	 R7		 			 1					4 			8	
Error in line 520:     	D1	 5	2 		  			1  
Error in line 521: 	  C7	  	1					5 					5 
Error in line 522:    T9		 4 				8 	 	3		1			 	
Error in line 523:  		 	T4  	 2 9	 	  10	 		 2		
Error in line 524:   R5	 8  4 	 2		 	   
Error in line 525:   		 C57 	6   3	
Error in line 526:    	  	R6   5 	 		  4  	  4	 		 	 
Error in line 527:   	 	T9		6  	2 	 5  				 7		
Error in line 528:  C9  	 				 5 		   	9			 8	  		 
Error in line 529: 	 		 		C5   	 10		 	3    		7
Error in line 530: 	C8 	4  	4 	 	 5	  		
Error in line 531: 		 		R1		4 	9 					 7	 		 
Error in line 532:  	D3	 	 	 105		 	3			 
Error in line 533:  	 		R5	7			7 		 				 1	   	 	 
Error in line 534:  D0	7  				9 	 9 	 		
Error in line 535:   				 	R5	4 5	 	 	4 	    
Error in line 536:     	D4	  5 	2	7		      
Error in line 537: 			 	R5 	  		9  	 		1  	 	 3  	
Error in line 538: D2 10	  5	 5 						
Error in line 539:    		R0 	2		    3	5   
Error in line 540: 			 	 	  	C1 9	 	4		  	7  	
Error in line 541: 	 T6	 	3  2	 	 2	    	4	    	 
Error in line 542:  C8		  10	 	4	   5     
Error in line 543:   T83  9		 	 8		 1 	
Error in line 544: 	  D2	 7 3	1		
Error in line 545:  	 D7	6	    8	 				 	9		 	  			
Error in line 546: D8			 	 6			9						 6   		
Error in line 547:  R1	   	 	 10	 4 				9	
Error in line 548:   	 			D7	7 3	 		 7	 	 		 	 
Error in line 549:  		R4  102		 6	 		
Error in line 550: 	 T4  	1	 5   8	 		5	  
Error in line 551: 		  	R0	  		 3	  2 	8	    
Error in line 552: 		  			R0	2 	 		9		  	4  	
Error in line 553:   T3	   7 		9 	2	2	 
Error in line 554: 				 	C5	 			3	  3				 	 	10				 
Error in line 555: 	 	T8	  7		 54		 3			
Error in line 556:     	  C9   		1   	 3	  	  7	 	
Error in line 557:  	C2 	2 		7	 	7 		  	  
Error in line 558:  R0	  	6  9 2  		  
Error in line 559: 				 	 T8 				 4		3 			5 7	
Error in line 560:  	D7  4 		  10   3  			
Error in line 561: 	 T2	   	1 	3		 	9 		  		6
Error in line 562: 		  	 	R9		 	 		6	10			  	 9   	
Error in line 563:   R8 4	7 		 	9 		  
Error in line 564:  	R7	6	8  	  6 			
Error in line 565: 		   T7 	2	 	6		  7	 4			  
Error in line 566:  		D8	 			8			    5  	  5  
Error in line 567: 			  C2   6 	 5		  		9	    	
Error in line 568:   	D7 	10   	110	 	   	
Error in line 569:  C0 3   6			  8	    	 
Error in line 570: 	D9 8 		 	1 	  			8	    
Error in line 571:   T5 3 	9 		8   	 5   		
Error in line 572:  	  D7  	6 4 	 	8    		 	 
Error in line 573: 					T8	 		   1			 	 2			  	9 	  			8  	 	
Error in line 574: R7  8 9 		  	4	 			
Error in line 575:    D3	 	9	 		 	  1  		 			 5		    	 
Error in line 576:   	  D7 6	   		 4   	6	
Error in line 577: 	 	 	C7	8	  	1   3	  	
Error in line 578: 			D0 	8 	  		 5				10  	 	 
Error in line 579: 		  	D4				3 2				6	 	  
Error in line 580:  				  C0	 3 	5		8 	
Error in line 581: 	 	 D0 2	 	9 	6 
Error in line 582: 	  		C7		 3 			5 			  	6 
Error in line 583: 	  	 	 	D9				 		6 	 8	   7 
Error in line 584: 		 	 	T1  9 6 	  3	   	7  		 		 	
Error in line 585: 	  D7  		 1	 	7 	5   	
Error in line 586:  	  		T6	    8		  6 		2	2  			
Error in line 587: 	D0	  5 			  8				   5  
Error in line 588:       T5	  5			4	8   	8	 		 		
Error in line 589: 	 	  C1  	1  5 	 	4 
Error in line 590:  R2 8 6   4 
Error in line 591:   			D3		 1 	   54
Error in line 592:     C5	  7	  		3			 		2 		 
Error in line 593: 	 T2		  3 	 	 4	 		8	  9						 	  
Error in line 594:  	C8	2 		  			8 	  	9  	 
Error in line 595:   		 	R4  	  	 310 6		 		 
Error in line 596:  		 	  C0	5	  9		3		 	
Error in line 597:  	  	T4		  2	3 		  4	 		 4	
Error in line 598: 			  D2   4 	3	 		6					
Error in line 599: D7 	  5	  	 	 		7 	  6	 	 	  	
Error in line 600:   	C7				4	 4 	  2   		  	
Error in line 601: 			 			T8 	 	 2		  	 4				 4			10 	
Error in line 602:  C9 	3 		 	1  	8    	 
Error in line 603: 	 			   T6	9			 	 6	 3 	 	 		10	 
Error in line 604: 	 T0		   	8		   6		  				6	    		 3 		 
Error in line 605: 		R6 2  			3			 3	  
Error in line 606:  		 C9   		5 			 	3 	 	10  	
Error in line 607:      R7	   		 4 9   4 
Error in line 608:  	 C1	  4     	1 				5 
Error in line 609:  	D1  		 5		 	 1	 		   7 	 	 		
Error in line 610: 			 C8  	9				 	 7 		  	10	  	
Error in line 611: 		 T9   41		 7	   	 	3 
Error in line 612:    	 	 C7  		9					5   	 1	 
Error in line 613: 		 		R1  	 9 	 	2		 9   
Error in line 614:   	  T7	 			3  		10		8		   2  	 		
Error in line 615: R0 	10		  		9 	 3 		 
Error in line 616:  	R9  		8 	4		   9 	
Error in line 617: 		T48		   		 4		  	3 9	 
Error in line 618:     		R1   	 5	 		10			 9	
Error in line 619: 	  	 		R9 	    5			 			9  			5
Error in line 620:  			C810 	 		 5	 	9    
Error in line 621:  	 C8 	 			2		    9 		 1  
Error in line 622: D6	2  	9		7 	
Error in line 623: 	 	 T2		 	 			10     8   	  8 7 		
Error in line 624: C4					3  	 		7	 	  9 
Error in line 625:  	 R9	6	 	 				8 		 	9	    
Error in line 626:    	D5  	  1 	 	3 	 	  8   
Error in line 627:  C7 		 	69		10		 
Error in line 628:  				R9	   6  	  	5	 4 
Error in line 629:   		D2 		  9	 	8	   	  7 
Error in line 630: 	 D0	 	  10  1	 	   	 	8	  		
Error in line 631:  		R5    	 8 		910 
Error in line 632:   			R5	 	    6 7   	1		   
Error in line 633: R9     4				8	9 		
Error in line 634: 	 	C8 4	 	 	3 	  	 1  	 	 
Error in line 635:   	R1			 6 		 6  5		 
Error in line 636:  		T2		1  10 2		   9	
Error in line 637:  		 		R6	  		7    5	6 
Error in line 638: 	 	R9 8 	   	 1					5 		 	
Error in line 639:  D9   	 8  	110  				 	
Error in line 640: C1	 		10	2	2 	
Error in line 641: 	  C6 2 2 10  
Error in line 642: 			 D9			 4 		 10 	     2	  	
Error in line 643:  			T2	3		 		 9 	 	6		  9			
Error in line 644:  	  			T2 	   3 	  			4	7		9 	
Error in line 645: 	D1		1		2	 	 	 4						 
Error in line 646: 		  	C7 	6	   9   		  6   	 
Error in line 647: D1  	1	 5  				7	
Error in line 648: 		T1			1						5			  	10 	    1	
Error in line 649: 			 	 R6 6   	 6 	8 			
Error in line 650: 			R010			 4			 	  	1  
Error in line 651:  		 	 D2 	 3	 	5	 5	  	 		
Error in line 652:   D3 	3 	 			 2 2	 		   
Error in line 653: 	  	R6	 	4			 	10			  8 	 	
Error in line 654:  		R8	   7 	 	 6 	 			 10	   	 
Error in line 655:  		 D9	 	 3  	 1	  6	 
Error in line 656: 	  R7  	    6  		 72 	
Error in line 657: 	 	   	 R7		  10  5   10  
Error in line 658: 	 	 	D6	 6 	 1     	  9		 
Error in line 659: 		  D9		  8  9   	  2	   
Error in line 660: 		T2  	 2 	 	  8 8	2	 
Error in line 661:  D8     	8 	  	1	 	  2  				
Error in line 662:  		 		D4		 10  5 				2 				
Error in line 663: 	C3	 		 6    3   2		
Error in line 664:  	D4			104	 6		  
Error in line 665:  	  			T1 8			   10 		 			55 	
Error in line 666: 	 	C9					 	7 9    2 	 		 	
Error in line 667: 			 C1 	 	 	6  		3	 1	  
Error in line 668:  R5    	6		 8			  4			 	
Error in line 669: 		T0  8  	3 1	 	6	 	 
Error in line 670: 		   		T3 		 8   		10		3	  2	
Error in line 671: 		R3 	 	 	  5	7		8	  
Error in line 672: 	 	 		 T2	7	 	 	 	7	95		  		 	
Error in line 673: 		 				T1		    		6	9		 10	  7	 
Error in line 674: 	   R4	10 	   5	 		4	
Error in line 675: 	C5	 	6	 	6	 	 5	 	
Error in line 676: 	D4		  	 4 8 5  			
Error in line 677: 			 	C6   4   	10 3	  		 	
Error in line 678: 		 		T5   	10 		  2	   			 6		3 
Error in line 679:  	C6		 		2 3	 	 8	 	
Error in line 680: 			  D2	 			2   	 	2 8
Error in line 681: 	 	 		T1		4 	  10 2    		8	  	 
Error in line 682: 		 T0 	 2 7   6	 	 		 7
Error in line 683: 		   T7 		5	   6	 			5	8		 		
Error in line 684:  C9  	6	 	  1		 	 		4		   	
Error in line 685:   	 T3		5		 		 	7	   62	 
Error in line 686: 		   	T4 7 		10	  	 		10      2 
Error in line 687:  	 C3 	 	3			 2	 	2 			
Error in line 688: 		   	R2  10			 5 5	 	
Error in line 689: 	 			C0	   	1	 		 	 4		6   	  	
Error in line 690: 		 R8	 			5 		5 	 	 1 	 	
Error in line 691: 	C1		6			    6	  3 
Error in line 692:  T2		  11  	99    
Error in line 693: 	 T36	8	   2 	3	 	  
Error in line 694: 	 	 	  C5		2				  9 	4  	
Error in line 695: 	   	R3	     3 	6  			  	 7
Error in line 696:  	 D1	 8  	 8 	5 
Error in line 697:  T6 		 	 	4	   1			5  	5	
Error in line 698: 		C0 8  10		 7 	
Error in line 699:   		 	 T25	     	2 4 	   	 1   	 
Error in line 700: C9   	4 			 	 8 		 5   	  	
Error in line 701:   	 		   T3  			 	4  10		10		 		1	  		 		
Error in line 702: R6	 6	  10	   	1					  
Error in line 703: 	 	 	R9 		 6  9 	  7		 
Error in line 704: 			 R1	 3		 	 	  9	 		1			  
Error in line 705: 	R4	  6	 	     10 	  			9  	 
Error in line 706: 		R8		5  			4 		2  				
Error in line 707:  	   T3 9 		 97 	 9		 
Error in line 708: 	   	  		T3   	 	 1	6 	  7		     	3		  
Error in line 709:     C4 1		 9 1	  
Error in line 710: 		 T2 		 7		 4	 	5	 1	  	
Error in line 711:  D7 	  1   	   8   	 8	     
Error in line 712:   		C6	10 	   	9	 		 	 9
Error in line 713: 	 	 	T9		1	 	  8   	  	5		 	5	  		 	
Error in line 714: 	C5 3  3 		9 
Error in line 715:   C9 	  9 			 	 7	 6   
Error in line 716:  	 C8  	 	1	 	  		8 	   	 9
Error in line 717:  T9 	5  	  5 		 	   10 			  3			
Error in line 718: 	 C1 8	4 			5		 
Error in line 719:    D4 	  9		1 	3 	
Error in line 720:   T3	8		 		  10	 	89					
Error in line 721:   	 	  R5    			 10	1		  		1	
Error in line 722: 	T4 					23 5		8 	 	
Error in line 723:  D5 	5	6	 	 		1			 		 
Error in line 724:  C4  					4	     		6		   	 2	   		
Error in line 725:  	  C8  	  3		9   1 		 
Error in line 726: 		R7 8	  	5 			     2	
Error in line 727:  		R7 		4 	  	10  5
Error in line 728:  		   	R6	 		9		   5  	9 	 			 	
Error in line 729: 		    D9 	5		 	 	10  			7  
Error in line 730:  		   C8	 	 		9  			6 		  		1	 		 
Error in line 731:   	 		D4	  		 	 8 	 29  
Error in line 732: 	D6	 	10   4					 	6	 	
Error in line 733:  	  	 D6 5   		3		5	   
Error in line 734:    	 T8	 3 	6	  2	 					4	 	
Error in line 735:  	  	 R6 	 				 4   		  9 			4	   
Error in line 736: 				   T8	94	   		 2   	6 	  
Error in line 737:  	 			R21 		 		26 
Error in line 738:   		D4  	 9	  			6 	 2	 
Error in line 739:    R2			 4 		1				 	3		 
Error in line 740: 				 D1 9  3	 	10
Error in line 741: D4	 	 6 	  9 1	   	  	 
Error in line 742:   T39	 	  		4	 			5    	4		  	
Error in line 743: 	 R5  	 3	9 3 			
Error in line 744: T2		10  	 	 9			4 	2 	 		 	
Error in line 745:  			R0	 		 5   	  	10	2	  		
Error in line 746: 	     R6  			7				  8		 		 4	 		  
Error in line 747:  	 		T1 10  	  	2 	1	4     	  
Error in line 748: 	 C7 	  6   6 3		 
Error in line 749:  	R9	5 	 10  				6 					
Error in line 750: 	 D8 2	 		 	  8		   8 
Error in line 751: 			     C1	84		  	 5	
Error in line 752: 	 	D3	 	6		 	9	      2 	 	
Error in line 753:  C5 					2 9   	   	3 	 
Error in line 754: 	T2 	     2			57	 		3 		 
Error in line 755:  C4  4	3     10	     	
Error in line 756: 				R0	  			2	 3	 3 		
Error in line 757: 		    	 D8  	 1	  	2 	 			  3  	   	 
Error in line 758:  	  	 	R9 	2	 	3		  		8						 	
Error in line 759: 	 T4			 	 10 	  9   		 2			 	7			  
Error in line 760:   	R9		9	  		  10	 				  7  
Error in line 761: 				 C2	  		 	 6   	  	   5	2    
Error in line 762:  			  C6  4 	  	1			  	7 		
Error in line 763: 		 D7     7  	9		 	  1		
Error in line 764: 			    C7  	    2  5	6 
Error in line 765:  	   T8		9	 8 				5   	5	 	 	  
Error in line 766:    		D7    	2	 		 	 9    	4 	 			 
Error in line 767: 	 		R1 	 4	 	 5 		 	6
Error in line 768: D6 		 		 3 						9 	 3		 		
Error in line 769: 	 D6 	 1   	 5 	   1  
Error in line 770:  R8	 3			8		 		 	8 					
Error in line 771: 	 		R2 			47  	 	 1 
Error in line 772:  C3 	 5 			 	1  8	
Error in line 773:    	T4	   6							 10  	    5 7  		 
Error in line 774: 				R3 	 	 	  4 7			1 
Error in line 775:   	    R7	1		  4	  5	
Error in line 776:  	R2 2    1  6 
Error in line 777: 	  C3   	 1 	   87 	 		
Error in line 778:    			R6		 	8 	 	10 		  	7	
Error in line 779:   			 C0 	   2			  7  					 	4
Error in line 780: 	 C6 	  	 3 4  		6  		
Error in line 781:     C5	 	 108  6	    
Error in line 782:  R9	  8	2	  		 		6  	 	
Error in line 783: 		 	R7		 		  8 	 	3	10  		
Error in line 784: 		T5									6			  		9	4	 1 	  			 	
Error in line 785:      C4		 4  	  	 	105		 		 		
Error in line 786: 	  		T3		  	2 9	  8		    5 	
Error in line 787: 	 				R38  		 		10		3 		 
Error in line 788: 		R4	 8	    	1 	    10 	 	
Error in line 789:  	  	D4	 		7 		   10 	10	
Error in line 790:   	 	D9	 		 3 7 6   	  
Error in line 791:  	R0  9 			108	 	
Error in line 792:   	C1	3		  		7	1	      
Error in line 793:    	  D3 4	4 	2 					 
Error in line 794: 	   C0		2	2 	  		10
Error in line 795:   			R0	 4 	 8	 	 	3 	
Error in line 796:  	     	 R9		 		6 2			 	5	 	 
Error in line 797: 	 	R4 	  		 	1   	2 	 	4	 			
Error in line 798: 	C7		 7  	 8   	2	
Error in line 799:  				 	D5  		 8	 				5	  	1 	 		   
Error in line 800: 		 D4			10	 	7   	10		 
Error in line 801: 		 T7		   1 	 2 	 10   	 	 7	 	 		
Error in line 802: 			T5			5 5  10		 	  4 
Error in line 803: 	  	 	  	T9		 3   5     		3  	 9	
Error in line 804: 	  D5				 3    9  			 5
Error in line 805: 	 	   	R7 	8		   		 1 1			 
Error in line 806: 	     C8		1  	9 	  	 1   	
Error in line 807: R4 				 	 10 8  4	 			
Error in line 808: 	  	  T8 	   	9	6  	 10 	 	 1	 	
Error in line 809: 	   	 T4				 8	 	 7 4		 10 	 
Error in line 810:  			T8 							9			 	 		8	 	 	9	 	 			4  		  
Error in line 811: 	   T7 			  7 7				  	2 9		 		 	 
Error in line 812: 		  	R7	 410  		 7   		
Error in line 813: C6			 	3 	 	4   	10		 	
Error in line 814:    D9	2 	6	 		5 	
Error in line 815: 				R2 	   8  9 7  
Error in line 816:  	R2		 3	   		 1		7 			
Error in line 817: 	  T7	   		 8	  		5		9    	 	1	  
Error in line 818:   	C5	6	 2		3 
Error in line 819:  D0     6		 		9	  	  4 		
Error in line 820:    C0  6 	 10	  		7 	 	
Error in line 821: 	R7	 	  	3   		2  8	 
Error in line 822:   	T3	    1 		81			6			
Error in line 823:  	 	 C2				 3	  	2  9 	 
Error in line 824: 		  		 C9 7	 	 4	 	5 				
Error in line 825: 	 C8 5		5	   	4 	 	 
Error in line 826:  		 	R082	5	 	
Error in line 827:  			  D4   	 	7	3			 	 4  	 	
Error in line 828:  	 C8		  	7		39 		 	
Error in line 829: 		R7	   5	2	 	9 
Error in line 830:  	R2   	 10			 	1	10		 
Error in line 831: 		 R6	 7		 	 	9   9	  	
Error in line 832: 	  C2		  28  	  	 	8   			 
Error in line 833:  	C9			10			9 2	 
Error in line 834: R8  5		   3 				 	4   	  	
Error in line 835:  	 	T9		 	 33   	5 			 	 4   
Error in line 836: 		 D7		 4	  9		9 
Error in line 837: 	 	 		C4	6			 	1	4		  		
Error in line 838:  	 D4 	9	 			 10	  10	
Error in line 839: 	 T5  	8	 	 		 6  	6	6
Error in line 840: 	 D5 	1 6 		4		   	
Error in line 841:  R1 		 2	 5	1   
Error in line 842: 	 D0 				   7 		8		 	 	3 
Error in line 843:   	D2  				4	     8 	5 
Error in line 844:   	  D3			2  		 3 		1	 
Error in line 845:     D56 9 		8	 	 		
Error in line 846:  		  D3	3  	6 	 	 	  2 	 
Error in line 847: 		    T1	 	 2	  		 5 32	 	
Error in line 848: 	 	  	C4 	 		8	2 					  5   	 	
Error in line 849:    T910	 	 4 			 9	 9    	  
Error in line 850:  	R8 	1		10					 	1 	
Error in line 851: 	R2				10		  7	 		  10  
Error in line 852: 		    		D2 		 5		6 	  	6	    
Error in line 853: 	 	 R4		  	 2	7 	 		2 	 
Error in line 854:  		R3 	 	7		1 		2 		
Error in line 855: T6   4 3 	 		 9		 	 	3 	
Error in line 856: 	      R7 	   	  5	  	  6 		1	 		
Error in line 857: 		C9  51		 1 		
Error in line 858:    R0    5	  				810
Error in line 859: 	 D7			7 4	1 
Error in line 860: 	 R1 	 		1  	  7	  			 2							
Error in line 861:  		 			T6	9 3 	7  					2 	 	  
Error in line 862: 					 	C8		3	 9		   4 	   	
Error in line 863: 			R5 10	1		7	  
Error in line 864: 	 			  T3		 			 3		 8		1 	 2 
Error in line 865:  		D4		 3	9		8     
Error in line 866: 	D8		 8		 2 			7	 
Error in line 867: 	     T8	  	9  5	   4 	3	  
Error in line 868: 	 	  	  	C3	3 7		 2 	
Error in line 869: 		  C8				 8	 	 8	  3				
Error in line 870:  		R8		  			3	 	 2  	 	 2				 
Error in line 871: 			T67 				9 7  	4	
Error in line 872: 			 C3 	6     	8	  9 			
Error in line 873:  		 	  	 T7 			 3			4		 4 	 10    
Error in line 874: 		 	R8	   	6	   	 2	 	  7	
Error in line 875:   			 D4		 	 	 2	  	  10  				3		
Error in line 876: 	  	R5			 7 	6			   3	 		 
Error in line 877: 	 T1  		 	 	7 				4 4  	4  			 
Error in line 878: 		  R0		 1	5 	8  
Error in line 879: 	 	   	C5  2	  	 7	  	 	3 	 
Error in line 880: 		T2			 	2 	  		8 	8 7			
Error in line 881:   	  	R5  		4	  			5 	   3 	
Error in line 882:   	 T9		 		5	 1  	  	 7		 	  7	   		
Error in line 883:   		D5  		8	  	 	2 	   		 9 	  	
Error in line 884:   	 	T5	  7  3   4 	 8	
Error in line 885:   C3	 1 		  9  		4	 		 
Error in line 886: 	 		  		 C8   6 		5	   	6	 	   
Error in line 887:  	T9	2   		 4    1  	  		9 		
Error in line 888:  	  R8				1	  	7 						1
Error in line 889:  	C9   		 5 	 	7			 	 		7		 				
Error in line 890: 				T7 	 		3 	 4	 10	9 	      
Error in line 891: 	 R8 8 		2  9		 	    
Error in line 892:  		 	R6 	 2 	   	6 	 1
Error in line 893: 			 C8	75  	 4 	 
Error in line 894: 	R2		 3 3		 	 7	  		 
Error in line 895:  T4  6	 	1	 3 		8  		  
Error in line 896: 	  D3 		 	1		7   4 			
Error in line 897: 		 T6   5	   10	 4			 2 		  
Error in line 898:     	R0    			7	 1	3  
Error in line 899: 				 D7 8	55 
Error in line 900: 	   	 	T2	   7     	5 			 73
Error in line 901:  	   	D1  	6   3		  5 	
Error in line 902: R1	  	 		5			 1  	 			4 
Error in line 903: 	  		D4	 210	   5 	
Error in line 904: 		 T0		 	10 9	37					 	 
Error in line 905: 		 	C1 	2		 	 2 			 		8  	 	 
Error in line 906: 		 D9			87			 9	 		  
Error in line 907: 		  R03 		  		 7   		   5  	
Error in line 908:  R7  	 9			 8  5  		
Error in line 909:  		 	 D43 		1 4 	
Error in line 910: 		C2  3 10    	8 
Error in line 911: 		D8    		 2	5 4	 	 
Error in line 912: 	  D3	10		9	 3	   	
Error in line 913: 	R7	 	 101   				2
Error in line 914:     		T3		 	7			 1	   9 		 	3	
Error in line 915: 	T1			 	74	 3   		  	7 	   	
Error in line 916: 	T7  6 	 	  74    5		 	
Error in line 917: 		  		D7				2		10		  	 	9	 		 	
Error in line 918: 		 	 C5	 		  3	1	3     
Error in line 919: 	  C4   			2				  	9  7 		
Error in line 920: 	C3 			    9	  			  10	 	6	 
Error in line 921:    	   D4 		 4	 		5	  7		 	
Error in line 922: 		 	 C8 		 5	3 	  	1	
Error in line 923:  			 R3 				10		 8 		10    
Error in line 924: 			 D8 	 		810				 	 2 	 
Error in line 925:  		     R1	4 			2      	2  
Error in line 926:   D5	 9	 		  9		 2		
Error in line 927:   	 D38		 	  	6	   5    	  
Error in line 928: 		 		 	T0	 3 6 			8	 	 	 8	  	
Error in line 929: 	   	 D7	8			5 	 5 						
Error in line 930:  			C5		  1	   		5			  9	 	
Error in line 931: 	  	 		R9   		2   		7   	 3 		
Error in line 932:    	   	C93 	 7   2 
Error in line 933: 		 C0  	 9	 	 		 7 	 7     
Error in line 934:     		 C8   4	 8  10	
Error in line 935:  	   C49 	3	 		3 	  		
Error in line 936:  	D4  	 10		7	10  	 
Error in line 937: 				T7    	3	 	  	 	 3	   	6	9   
Error in line 938: 		 C7	  2  82	  	 	
Error in line 939:      D4    1 			9 		5 
Error in line 940: 		 	D6 				   	4 	   10      		9   		  
Error in line 941: 	  C4		9  		2 	7    	
Error in line 942: 	 	     C2 1   7		8 	
Error in line 943:  	R3	  	7	   		 4		4	    
Error in line 944:   		R2 	7	9 3	 	
Error in line 945: 	 					 	R0	 		  		3	 1  	  	10	
Error in line 946:  		 R5		 	    1 6	   	10	
Error in line 947:  C55  6		 	 10  
Error in line 948:  	  	R0		21		  	 1		    	  
Error in line 949: R3		 		1  8  	 	2	 	
Error in line 950:  D5	   9 			 4	   8				
Error in line 951: 			D4  7  1  	  7			 
Error in line 952:  R3			 	 10	8	 		  10	 	
Error in line 953:   		D5	  			7			 2		4 
Error in line 954:    		  C2   	8  		 8 7	  	 	
Error in line 955:  	C7 				7	 	5	 6		 	 	  
Error in line 956: 	C0 	8	 	  	6	  	9	    
Error in line 957: 	 	 R3	 	7 		9	2 			 
Error in line 958:  	 	  	R6  4   	4	 		  6		   	
Error in line 959: 					D6 		 9 	41 
Error in line 960: 			 R4					 	5		9			7    
Error in line 961: 		 T8	3    5	83 	
Error in line 962: 	T0	 			  9				8		 	9 		7     	
Error in line 963: 		  	  T6 	 6	 3  		10	 		 10			  	 	
Error in line 964: 	 	D0     9 		 2  	 	3 	
Error in line 965:     	 T2	 10  	  7 10    5	  		 
Error in line 966:  	  C5 	  		 7 2 	 10    
Error in line 967: 			  C3  				 8			 9	10	 	
Error in line 968:   D5 		10	     2 	 8   	 
Error in line 969:  				R4 	  	7	 	8				 	 10 	
Error in line 970:  	 R3 	 	  	  1		5				 	2	
Error in line 971:  			  	T2 		 4	3		 		3 		  3
Error in line 972: 	 	 T2			 2	 	6 9  10	  
Error in line 973:  R2   	7	 	 6  8 	 	
Error in line 974: 	  	 	 T2 		 4     3 2	  		3    
Error in line 975:  	 	 	T3 			 43  		4	  8 
Error in line 976:  C2 	5  	  	7  	7	
Error in line 977:   T6	 	16	    2 		  5 				
Error in line 978: 		R9		1  	10 	5 	 	 
Error in line 979: 	  		R2		  	  5 1	 	5  	  		
Error in line 980: 				D2	3  3		 7 			 
Error in line 981: 	 	 	 D9 	  	 3 	3				 7 	
Error in line 982:  D2	5   		10	 1		 	  
Error in line 983: 	T6 	 6    4	2  	 5 	 	 
Error in line 984: 	 	   	R6		9   		7 9 	  
Error in line 985:  		D4				2  	  7	   10				 	  
Error in line 986: 			C8			  	10				6		 10
Error in line 987: 	  	C5		 7 	 		3	4   		 		 
Error in line 988: 				 	R1   1		7     7 	
Error in line 989:   	  	T3		8	 	 	3  4		  	 10	 	 
Error in line 990:        D0	  7   1    3 				
Error in line 991: 	R7   	6 	9	 			  10		 	  			
Error in line 992: 	 C6 	 8	 			5 			 6 	   	
Error in line 993: D9	 	  		6 10			2		
Error in line 994: 	 	 		D9			3  	6 				  9	
Error in line 995: 	  	     T6	 	  	101	 		 	2   	8  		 
Error in line 996: 	 	 	 C49	  		1 	     9			 		 
Error in line 997: 		  C1		5	8 	  	 		3	 	 
Error in line 998: 	 		T1 1	 9	  	 7 8 			 	
Error in line 999:   	C1	 	6	  			6			 		 8 	 
Error in line 1000: 		 	D5 		  		5  			3  9		 
Warning, unconnected node(s): 0
