Error in line 4:  T4 6 10 7 10 
Error in line 11:  D0 3 1 5 
Error in line 13:  T4 7 4 8 8 
Error in line 15:  D8 10 2 9 
Error in line 18:  R4 6 6 5 
Error in line 20:  R4 3 7 1 
Error in line 26:  D9 6 9 9 
Error in line 28:  R2 1 7 5 
Error in line 29:  D4 7 3 7 
Error in line 30:  D2 4 7 10 
Error in line 33:  C8 6 3 3 
Error in line 37:  D3 10 3 3 
Error in line 39:  C6 5 8 7 
Error in line 40:  D2 5 7 2 
Error in line 42:  T1 2 5 10 3 
Error in line 43:  R5 6 8 7 
Error in line 44:  T2 7 6 9 10 
Error in line 45:  D5 6 7 1 
Error in line 46:  T7 7 10 7 1 
Error in line 48:  D4 2 6 10 
Error in line 49:  R3 8 3 5 
Error in line 51:  C6 6 4 4 
Error in line 52:  D0 1 1 10 
Error in line 53:  C6 2 6 1 
Error in line 54:  R4 5 5 5 
Error in line 55:  R2 4 2 8 
Error in line 56:  D6 9 10 1 
Error in line 58:  R6 7 2 2 
Error in line 59:  T3 1 10 3 6 
Error in line 60:  C9 2 5 5 
Error in line 61:  T3 1 5 7 8 
Error in line 62:  T1 3 1 3 8 
Error in line 63:  T4 4 9 3 10 
Error in line 64:  T8 8 2 10 5 
Error in line 66:  D1 9 5 8 
Error in line 68:  C5 5 1 4 
Error in line 69:  R1 1 1 4 
Error in line 70:  R7 6 9 9 
Error in line 72:  R4 7 6 9 
Error in line 74:  R7 10 4 5 
Error in line 75:  C6 4 8 9 
Error in line 76:  C8 5 10 3 
Error in line 77:  D0 1 5 7 
Error in line 78:  C3 10 2 6 
Error in line 79:  T2 1 1 6 2 
Error in line 80:  T9 3 1 1 5 
Error in line 81:  R1 3 10 3 
Error in line 82:  D0 1 6 5 
Error in line 84:  C6 1 4 6 
Error in line 85:  T4 10 5 9 3 
Error in line 86:  C2 8 2 3 
Error in line 87:  T1 7 9 6 4 
Error in line 88:  R8 1 3 3 
Error in line 89:  C0 9 4 2 
Error in line 90:  R1 8 7 2 
Error in line 91:  T6 4 6 4 1 
Error in line 92:  D9 5 4 5 
Error in line 93:  R5 8 10 1 
Error in line 94:  T0 7 10 2 3 
Error in line 95:  T4 2 8 4 6 
Error in line 96:  T8 1 9 9 8 
Error in line 97:  D1 1 2 2 
Error in line 98:  R5 8 10 8 
Error in line 99:  T5 9 6 1 9 
Error in line 100:  D4 8 1 4 
Error in line 101:  T4 8 9 3 2 
Error in line 102:  R5 8 9 4 
Error in line 103:  R7 5 2 3 
Error in line 105:  R4 10 8 7 
Error in line 106:  D0 9 10 2 
Error in line 107:  R1 6 7 10 
Error in line 108:  R9 3 1 1 
Error in line 109:  T6 6 6 4 10 
Error in line 110:  R9 2 9 5 
Error in line 111:  T6 1 2 3 3 
Error in line 112:  T8 3 8 4 9 
Error in line 113:  D0 4 7 1 
Error in line 115:  T8 10 9 3 5 
Error in line 116:  R7 4 9 1 
Error in line 117:  D0 6 10 2 
Error in line 118:  D2 5 9 5 
Error in line 120:  T4 3 5 5 3 
Error in line 121:  T5 8 1 10 9 
Error in line 122:  R2 1 3 5 
Error in line 123:  D6 7 2 7 
Error in line 124:  D8 8 9 7 
Error in line 125:  C6 6 1 4 
Error in line 126:  D3 6 7 7 
Error in line 127:  R3 7 2 8 
Error in line 128:  D7 6 7 6 
Error in line 129:  T0 8 2 8 2 
Error in line 130:  C5 2 9 9 
Error in line 131:  T3 9 3 6 5 
Error in line 133:  T1 10 2 7 8 
Error in line 134:  T1 1 4 9 7 
Error in line 135:  R1 1 4 9 
Error in line 136:  T4 7 2 7 8 
Error in line 137:  R1 4 10 10 
Error in line 138:  C6 6 3 3 
Error in line 139:  T3 8 10 10 7 
Error in line 140:  R5 10 7 4 
Error in line 141:  T7 9 8 2 7 
Error in line 142:  R1 2 8 3 
Error in line 143:  T4 7 4 5 4 
Error in line 144:  C8 1 8 1 
Error in line 145:  R3 4 6 4 
Error in line 146:  R3 2 4 5 
Error in line 147:  R3 2 4 3 
Error in line 148:  D8 1 5 1 
Error in line 149:  T5 1 1 6 8 
Error in line 150:  R2 10 2 6 
Error in line 151:  C3 5 1 7 
Error in line 152:  D0 6 5 10 
Error in line 153:  D5 4 10 4 
Error in line 154:  T8 3 3 1 1 
Error in line 156:  D2 5 1 10 
Error in line 157:  R8 10 8 2 
Error in line 158:  D1 7 8 5 
Error in line 159:  T8 2 3 1 1 
Error in line 160:  R8 3 1 2 
Error in line 161:  R1 6 4 2 
Error in line 162:  T5 7 6 3 3 
Error in line 163:  C2 10 5 4 
Error in line 164:  C1 3 4 2 
Error in line 165:  R9 9 8 1 
Error in line 166:  C7 5 5 8 
Error in line 167:  D5 7 6 4 
Error in line 168:  C1 4 7 1 
Error in line 169:  D0 3 8 8 
Error in line 170:  T1 1 1 7 1 
Error in line 171:  R4 5 5 4 
Error in line 172:  R0 2 4 4 
Error in line 173:  T8 10 6 4 2 
Error in line 174:  R6 4 9 6 
Error in line 175:  T0 3 5 5 2 
Error in line 176:  D6 4 8 3 
Error in line 177:  C8 9 3 2 
Error in line 178:  R6 1 2 10 
Error in line 179:  R9 7 10 10 
Error in line 180:  D9 3 1 9 
Error in line 181:  D8 4 8 4 
Error in line 182:  R7 4 6 9 
Error in line 183:  R2 2 3 2 
Error in line 184:  D2 7 2 4 
Error in line 185:  C6 9 6 8 
Error in line 186:  D1 10 4 2 
Error in line 187:  T6 9 2 9 9 
Error in line 188:  C3 10 6 2 
Error in line 189:  T2 4 10 3 4 
Error in line 190:  D2 9 1 6 
Error in line 191:  C0 9 8 1 
Error in line 192:  R5 3 9 8 
Error in line 193:  C6 8 9 10 
Error in line 194:  R5 8 3 6 
Error in line 195:  D0 3 10 6 
Error in line 196:  D1 6 6 9 
Error in line 197:  T2 1 3 10 4 
Error in line 198:  R4 9 5 2 
Error in line 199:  C5 3 3 10 
Error in line 200:  T1 10 5 4 6 
Error in line 201:  D7 8 5 4 
Error in line 202:  D4 9 8 9 
Error in line 203:  C8 3 6 7 
Error in line 204:  C8 7 1 6 
Error in line 205:  T7 7 4 2 9 
Error in line 206:  C9 1 1 6 
Error in line 207:  T4 8 3 1 5 
Error in line 208:  T0 1 8 7 2 
Error in line 209:  T2 4 6 10 4 
Error in line 210:  T8 2 9 4 5 
Error in line 211:  C6 5 6 3 
Error in line 212:  D1 7 10 6 
Error in line 213:  D2 9 8 1 
Error in line 214:  C8 9 1 9 
Error in line 215:  R4 10 7 5 
Error in line 216:  C1 2 5 6 
Error in line 217:  D1 7 5 9 
Error in line 218:  R3 7 5 4 
Error in line 219:  T4 10 10 2 10 
Error in line 220:  R2 6 6 4 
Error in line 221:  D8 10 9 1 
Error in line 222:  C1 6 10 1 
Error in line 223:  C7 3 9 3 
Error in line 224:  R8 9 8 1 
Error in line 225:  T9 8 2 10 5 
Error in line 226:  D0 1 9 2 
Error in line 227:  D7 9 1 2 
Error in line 228:  R2 9 6 10 
Error in line 229:  D5 10 2 3 
Error in line 230:  R7 4 2 4 
Error in line 231:  C7 6 5 1 
Error in line 232:  D7 3 7 1 
Error in line 233:  R7 8 9 7 
Error in line 234:  C6 1 4 1 
Error in line 235:  R8 8 3 7 
Error in line 236:  R7 4 4 9 
Error in line 237:  R3 1 7 1 
Error in line 238:  R0 6 2 6 
Error in line 239:  T6 1 9 8 8 
Error in line 240:  R8 5 2 2 
Error in line 241:  T8 3 2 7 6 
Error in line 242:  C7 10 8 7 
Error in line 243:  D9 2 10 5 
Error in line 244:  T9 6 4 6 6 
Error in line 245:  D0 10 6 6 
Error in line 246:  D2 10 8 10 
Error in line 247:  T0 9 10 3 2 
Error in line 248:  D8 8 6 5 
Error in line 249:  D8 5 3 8 
Error in line 250:  T1 10 4 10 7 
Error in line 251:  D3 8 3 5 
Error in line 252:  T1 7 1 9 10 
Error in line 253:  D6 1 6 3 
Error in line 254:  R1 5 8 6 
Error in line 255:  R7 10 1 3 
Error in line 256:  T1 2 2 3 6 
Error in line 257:  D8 10 9 7 
Error in line 258:  C5 7 3 7 
Error in line 259:  C8 7 5 5 
Error in line 260:  T5 6 5 4 1 
Error in line 261:  T6 1 5 3 3 
Error in line 262:  R5 7 2 2 
Error in line 263:  D2 1 10 3 
Error in line 264:  C1 4 4 6 
Error in line 265:  C4 6 3 10 
Error in line 266:  D1 8 9 6 
Error in line 267:  C4 9 3 2 
Error in line 268:  C3 3 6 2 
Error in line 269:  R7 9 1 10 
Error in line 270:  C5 4 7 2 
Error in line 271:  R0 7 8 5 
Error in line 272:  D5 6 7 10 
Error in line 273:  D5 5 2 1 
Error in line 274:  T9 5 5 1 4 
Error in line 275:  R0 4 4 5 
Error in line 276:  T4 6 6 8 7 
Error in line 277:  C6 6 3 8 
Error in line 278:  C5 2 7 1 
Error in line 279:  T1 1 1 5 2 
Error in line 280:  T9 8 3 2 3 
Error in line 281:  R1 8 9 7 
Error in line 282:  T1 7 8 2 8 
Error in line 283:  C1 9 6 8 
Error in line 284:  R2 2 2 8 
Error in line 285:  C3 10 10 3 
Error in line 286:  C3 4 1 3 
Error in line 287:  C2 4 9 6 
Error in line 288:  C4 5 5 5 
Error in line 289:  C6 3 10 5 
Error in line 290:  R8 6 4 4 
Error in line 291:  T0 8 9 8 3 
Error in line 292:  C8 7 4 4 
Error in line 293:  D1 8 9 4 
Error in line 294:  D6 7 5 1 
Error in line 295:  R8 2 6 5 
Error in line 296:  T5 3 1 5 5 
Error in line 297:  C8 4 9 5 
Error in line 298:  R4 3 5 4 
Error in line 299:  C6 10 6 8 
Error in line 300:  D3 4 5 9 
Error in line 301:  D3 6 7 1 
Error in line 302:  D9 5 8 2 
Error in line 303:  T9 7 10 7 5 
Error in line 304:  C8 2 2 5 
Error in line 305:  C8 1 7 8 
Error in line 306:  R7 3 6 3 
Error in line 307:  R4 2 3 10 
Error in line 308:  C4 1 5 6 
Error in line 309:  D9 1 9 10 
Error in line 310:  D5 8 6 5 
Error in line 311:  T2 9 9 10 10 
Error in line 312:  T1 6 7 1 4 
Error in line 313:  D3 4 7 6 
Error in line 314:  D3 9 2 10 
Error in line 315:  R0 5 4 2 
Error in line 316:  D2 10 8 2 
Error in line 317:  T4 2 9 5 2 
Error in line 318:  R6 6 6 1 
Error in line 319:  T9 5 6 9 1 
Error in line 320:  C9 7 7 2 
Error in line 321:  T5 7 3 3 6 
Error in line 322:  C5 3 5 9 
Error in line 323:  C5 6 8 6 
Error in line 324:  C9 10 8 4 
Error in line 325:  R4 6 8 6 
Error in line 326:  R5 2 7 6 
Error in line 327:  D5 10 3 10 
Error in line 328:  C1 8 8 6 
Error in line 329:  D7 6 1 1 
Error in line 330:  T1 3 5 3 6 
Error in line 331:  D7 10 7 3 
Error in line 332:  R5 9 10 9 
Error in line 333:  T7 7 8 2 2 
Error in line 334:  T9 5 2 4 10 
Error in line 335:  D0 9 2 2 
Error in line 336:  D9 10 2 2 
Error in line 337:  R1 10 3 6 
Error in line 338:  C7 7 10 10 
Error in line 339:  R8 1 9 4 
Error in line 340:  R5 5 10 7 
Error in line 341:  T6 9 7 7 8 
Error in line 342:  C2 6 4 6 
Error in line 343:  C0 8 1 5 
Error in line 344:  C5 9 9 9 
Error in line 345:  C5 7 4 3 
Error in line 346:  C7 6 7 8 
Error in line 347:  T0 2 7 10 6 
Error in line 348:  T8 8 5 6 10 
Error in line 349:  R7 5 10 9 
Error in line 350:  T3 1 4 1 9 
Error in line 351:  C4 8 2 7 
Error in line 352:  T7 9 6 9 1 
Error in line 353:  T0 4 2 3 6 
Error in line 354:  T0 10 7 4 5 
Error in line 355:  C8 1 5 9 
Error in line 356:  C7 8 8 8 
Error in line 357:  T2 7 2 5 6 
Error in line 358:  D7 9 3 4 
Error in line 359:  D7 5 3 4 
Error in line 360:  C7 2 9 8 
Error in line 361:  T5 6 3 5 10 
Error in line 362:  D9 3 10 10 
Error in line 363:  T7 8 2 2 9 
Error in line 364:  D2 2 2 2 
Error in line 365:  D5 8 10 6 
Error in line 366:  T7 6 8 2 5 
Error in line 367:  C5 1 1 9 
Error in line 368:  R9 7 5 8 
Error in line 369:  R4 9 8 2 
Error in line 370:  D1 1 8 4 
Error in line 371:  R8 1 6 7 
Error in line 372:  C0 9 10 5 
Error in line 373:  R8 5 1 10 
Error in line 374:  T5 9 2 10 5 
Error in line 375:  R3 3 7 9 
Error in line 376:  T8 8 5 4 3 
Error in line 377:  R1 2 5 3 
Error in line 378:  C1 1 3 6 
Error in line 379:  C0 8 5 8 
Error in line 380:  C9 9 3 4 
Error in line 381:  T9 9 6 8 9 
Error in line 382:  D7 10 9 7 
Error in line 383:  T0 2 5 6 5 
Error in line 384:  D3 7 2 4 
Error in line 385:  D0 10 10 6 
Error in line 386:  T5 10 8 2 3 
Error in line 387:  C3 5 7 8 
Error in line 388:  C6 5 3 3 
Error in line 389:  C3 5 2 9 
Error in line 390:  R8 5 7 10 
Error in line 391:  C8 5 10 9 
Error in line 392:  C9 9 3 6 
Error in line 393:  D1 9 1 5 
Error in line 394:  C7 7 2 9 
Error in line 395:  D0 3 10 9 
Error in line 396:  C0 3 6 2 
Error in line 397:  C4 2 8 5 
Error in line 398:  T6 1 3 8 9 
Error in line 399:  D3 3 1 8 
Error in line 400:  D8 9 1 7 
Error in line 401:  D5 4 9 9 
Error in line 402:  D3 5 10 6 
Error in line 403:  D6 9 5 2 
Error in line 404:  D2 7 5 5 
Error in line 405:  T1 9 2 10 4 
Error in line 406:  R6 4 8 5 
Error in line 407:  R8 6 4 9 
Error in line 408:  R3 4 8 3 
Error in line 409:  R5 9 4 7 
Error in line 410:  C4 4 3 7 
Error in line 411:  T4 1 3 2 9 
Error in line 412:  T0 5 2 7 8 
Error in line 413:  T3 7 10 9 1 
Error in line 414:  T3 8 8 4 10 
Error in line 415:  T6 7 9 9 8 
Error in line 416:  C0 5 9 6 
Error in line 417:  T5 9 8 5 5 
Error in line 418:  D7 2 3 8 
Error in line 419:  D4 9 10 1 
Error in line 420:  R4 10 6 8 
Error in line 421:  T0 4 6 8 9 
Error in line 422:  C2 10 8 4 
Error in line 423:  T6 9 7 3 3 
Error in line 424:  T4 3 4 5 1 
Error in line 425:  D7 8 6 6 
Error in line 426:  D7 5 8 7 
Error in line 427:  R3 8 7 9 
Error in line 428:  C0 9 9 4 
Error in line 429:  C6 2 8 1 
Error in line 430:  T3 2 8 8 4 
Error in line 431:  D8 6 3 8 
Error in line 432:  D7 4 7 2 
Error in line 433:  C7 1 6 1 
Error in line 434:  C6 9 10 6 
Error in line 435:  D3 7 8 7 
Error in line 436:  D1 4 7 1 
Error in line 437:  C0 4 6 1 
Error in line 438:  C3 6 5 7 
Error in line 439:  C6 6 7 4 
Error in line 440:  C2 5 2 9 
Error in line 441:  R1 6 5 2 
Error in line 442:  D2 2 10 10 
Error in line 443:  C5 2 1 7 
Error in line 444:  R8 4 1 6 
Error in line 445:  T4 3 3 7 7 
Error in line 446:  C4 10 9 4 
Error in line 447:  R4 7 10 10 
Error in line 448:  D4 6 10 4 
Error in line 449:  D9 1 7 8 
Error in line 450:  D4 6 6 3 
Error in line 451:  C6 10 5 10 
Error in line 452:  T8 4 2 2 3 
Error in line 453:  R0 2 7 9 
Error in line 454:  T2 9 9 8 10 
Error in line 455:  C2 10 2 10 
Error in line 456:  R2 9 5 4 
Error in line 457:  D5 4 7 5 
Error in line 458:  T9 1 7 9 1 
Error in line 459:  C4 5 8 2 
Error in line 460:  T6 6 5 7 2 
Error in line 461:  T9 10 8 6 6 
Error in line 462:  C2 8 3 7 
Error in line 463:  T7 6 9 2 9 
Error in line 464:  C9 2 9 10 
Error in line 465:  R9 2 10 6 
Error in line 466:  T5 2 8 2 3 
Error in line 467:  D6 7 4 4 
Error in line 468:  D4 9 4 5 
Error in line 469:  T5 4 1 8 2 
Error in line 470:  C2 1 1 7 
Error in line 471:  D4 8 9 6 
Error in line 472:  C9 7 10 1 
Error in line 473:  T9 5 9 8 3 
Error in line 474:  R1 9 5 10 
Error in line 475:  R8 10 7 7 
Error in line 476:  R2 6 4 7 
Error in line 477:  T7 8 9 5 5 
Error in line 478:  T0 5 1 1 10 
Error in line 479:  C1 8 2 6 
Error in line 480:  R7 9 10 7 
Error in line 481:  T0 7 3 5 1 
Error in line 482:  R4 9 1 2 
Error in line 483:  T3 3 3 3 7 
Error in line 484:  T6 6 5 5 3 
Error in line 485:  C6 1 1 7 
Error in line 486:  R4 3 6 2 
Error in line 487:  T7 6 3 5 6 
Error in line 488:  D0 7 4 3 
Error in line 489:  D6 8 7 10 
Error in line 490:  R4 9 10 2 
Error in line 491:  D2 8 7 5 
Error in line 492:  D0 2 7 8 
Error in line 493:  T8 2 6 2 5 
Error in line 494:  D0 8 1 6 
Error in line 495:  C0 4 1 2 
Error in line 496:  T9 9 10 3 9 
Error in line 497:  C3 9 9 5 
Error in line 498:  T6 10 8 9 4 
Error in line 499:  D5 7 8 7 
Error in line 500:  R2 1 6 2 
Error in line 501:  R8 5 5 9 
Error in line 502:  D0 7 4 9 
Error in line 503:  T2 5 1 9 6 
Error in line 504:  T0 8 8 3 1 
Error in line 505:  R8 4 2 7 
Error in line 506:  T1 2 3 3 10 
Error in line 507:  R1 1 9 2 
Error in line 508:  R2 5 7 9 
Error in line 509:  C8 8 10 6 
Error in line 510:  R1 2 3 1 
Error in line 511:  D4 2 2 9 
Error in line 512:  D0 9 9 8 
Error in line 513:  R3 10 10 4 
Error in line 514:  T4 3 2 10 5 
Error in line 515:  C1 1 6 4 
Error in line 516:  T6 5 3 4 4 
Error in line 517:  R3 10 4 3 
Error in line 518:  T1 8 8 4 7 
Error in line 519:  C7 9 8 3 
Error in line 520:  C8 5 8 10 
Error in line 521:  T3 4 6 1 7 
Error in line 522:  T8 2 3 4 4 
Error in line 523:  D3 1 9 1 
Error in line 524:  R9 7 7 10 
Error in line 525:  R3 5 2 2 
Error in line 526:  D9 3 6 9 
Error in line 527:  T0 1 8 8 10 
Error in line 528:  D8 9 1 8 
Error in line 529:  R6 4 8 4 
Error in line 530:  T7 7 6 5 9 
Error in line 531:  R9 8 4 3 
Error in line 532:  D1 1 3 2 
Error in line 533:  R1 2 8 9 
Error in line 534:  R3 10 6 10 
Error in line 535:  D5 10 8 7 
Error in line 536:  R0 4 4 9 
Error in line 537:  R6 4 2 8 
Error in line 538:  C0 6 5 6 
Error in line 539:  D5 4 7 4 
Error in line 540:  C8 9 1 2 
Error in line 541:  R7 4 5 2 
Error in line 542:  D5 4 5 4 
Error in line 543:  R7 7 7 3 
Error in line 544:  R9 6 6 6 
Error in line 545:  R9 10 10 4 
Error in line 546:  C9 6 9 5 
Error in line 547:  R8 6 8 4 
Error in line 548:  R3 6 2 8 
Error in line 549:  R8 1 2 8 
Error in line 550:  T6 4 8 7 2 
Error in line 551:  T3 9 7 5 8 
Error in line 552:  T2 9 6 6 9 
Error in line 553:  T8 9 9 5 2 
Error in line 554:  C3 1 7 7 
Error in line 555:  D0 7 3 8 
Error in line 556:  T9 7 10 5 2 
Error in line 557:  D6 9 7 9 
Error in line 558:  T1 5 10 3 8 
Error in line 559:  R8 9 10 1 
Error in line 560:  T7 8 3 10 10 
Error in line 561:  D2 8 5 4 
Error in line 562:  R5 9 9 2 
Error in line 563:  C8 1 6 10 
Error in line 564:  D9 10 10 1 
Error in line 565:  R1 10 6 6 
Error in line 566:  C6 3 6 5 
Error in line 567:  T4 5 10 7 6 
Error in line 568:  T7 8 7 10 3 
Error in line 569:  C6 6 1 8 
Error in line 570:  D7 3 4 7 
Error in line 571:  T5 8 7 6 4 
Error in line 572:  T6 1 5 3 8 
Error in line 573:  C0 9 2 2 
Error in line 574:  C4 3 10 3 
Error in line 575:  R8 10 9 10 
Error in line 576:  D0 1 5 3 
Error in line 577:  T9 3 4 8 3 
Error in line 578:  R1 8 10 8 
Error in line 579:  D5 4 3 4 
Error in line 580:  D0 7 5 1 
Error in line 581:  D4 7 3 2 
Error in line 582:  C0 5 2 9 
Error in line 583:  R0 3 10 1 
Error in line 584:  R1 8 7 10 
Error in line 585:  D1 9 2 10 
Error in line 586:  C8 9 6 6 
Error in line 587:  R1 9 1 9 
Error in line 588:  C9 3 9 7 
Error in line 589:  T2 1 7 2 3 
Error in line 590:  T6 9 1 10 10 
Error in line 591:  T9 10 4 3 6 
Error in line 592:  T3 9 6 8 4 
Error in line 593:  R3 10 2 4 
Error in line 594:  T4 8 9 7 3 
Error in line 595:  D3 7 9 6 
Error in line 596:  R7 2 3 10 
Error in line 597:  C7 6 7 8 
Error in line 598:  D4 7 6 7 
Error in line 599:  C7 2 1 2 
Error in line 600:  R4 8 2 1 
Error in line 601:  T6 6 2 7 5 
Error in line 602:  D3 2 7 4 
Error in line 603:  R8 9 7 10 
Error in line 604:  C4 8 2 10 
Error in line 605:  T4 5 10 10 3 
Error in line 606:  T4 4 6 1 7 
Error in line 607:  T9 8 7 2 10 
Error in line 608:  R5 4 5 1 
Error in line 609:  T6 4 5 5 4 
Error in line 610:  R0 6 4 7 
Error in line 611:  C3 9 7 6 
Error in line 612:  T8 2 2 9 4 
Error in line 613:  R2 8 9 10 
Error in line 614:  C5 2 10 6 
Error in line 615:  T2 6 7 7 2 
Error in line 616:  T1 6 9 3 4 
Error in line 617:  D2 7 7 5 
Error in line 618:  D5 2 3 5 
Error in line 619:  R7 7 3 10 
Error in line 620:  R5 6 2 4 
Error in line 621:  D9 9 7 7 
Error in line 622:  T6 3 7 1 7 
Error in line 623:  C5 9 8 6 
Error in line 624:  C2 7 10 8 
Error in line 625:  D3 10 7 6 
Error in line 626:  D1 5 9 10 
Error in line 627:  T2 3 3 5 10 
Error in line 628:  R6 2 9 2 
Error in line 629:  R5 1 1 10 
Error in line 630:  T1 4 10 5 7 
Error in line 631:  R1 5 1 1 
Error in line 632:  T3 4 4 8 4 
Error in line 633:  D7 3 7 10 
Error in line 634:  R4 7 1 7 
Error in line 635:  T3 10 8 8 5 
Error in line 636:  D3 1 5 3 
Error in line 637:  R0 5 3 7 
Error in line 638:  D0 6 10 8 
Error in line 639:  C7 2 8 7 
Error in line 640:  T6 7 5 1 7 
Error in line 641:  C2 2 2 3 
Error in line 642:  T7 10 3 3 4 
Error in line 643:  R9 3 4 2 
Error in line 644:  T6 2 5 1 7 
Error in line 645:  C6 6 8 9 
Error in line 646:  D0 7 2 1 
Error in line 647:  C7 9 3 3 
Error in line 648:  C7 7 6 6 
Error in line 649:  D2 1 10 8 
Error in line 650:  T8 9 7 7 9 
Error in line 651:  C3 8 5 1 
Error in line 652:  C0 8 2 9 
Error in line 653:  C7 6 3 5 
Error in line 654:  D2 4 6 7 
Error in line 655:  T1 6 10 8 7 
Error in line 656:  D0 4 10 3 
Error in line 657:  C6 10 9 6 
Error in line 658:  D0 9 8 9 
Error in line 659:  R5 1 9 7 
Error in line 660:  D1 7 1 2 
Error in line 661:  C7 4 10 5 
Error in line 662:  R4 1 8 1 
Error in line 663:  T5 8 6 10 6 
Error in line 664:  C9 1 4 8 
Error in line 665:  C8 4 3 1 
Error in line 666:  C2 6 1 1 
Error in line 667:  T4 10 6 5 6 
Error in line 668:  R8 8 6 9 
Error in line 669:  C7 10 8 3 
Error in line 670:  T5 6 7 6 1 
Error in line 671:  R2 10 8 1 
Error in line 672:  R9 8 6 9 
Error in line 673:  R1 1 7 1 
Error in line 674:  R3 9 8 1 
Error in line 675:  D1 6 6 6 
Error in line 676:  T9 1 8 6 6 
Error in line 677:  C9 6 5 6 
Error in line 678:  R1 7 5 5 
Error in line 679:  R2 4 3 4 
Error in line 680:  D1 9 4 5 
Error in line 681:  D4 3 3 4 
Error in line 682:  C1 2 3 6 
Error in line 683:  D6 1 7 7 
Error in line 684:  T5 1 8 5 6 
Error in line 685:  C0 1 10 8 
Error in line 686:  D0 6 6 7 
Error in line 687:  R7 7 10 5 
Error in line 688:  T3 4 5 10 5 
Error in line 689:  D9 7 1 10 
Error in line 690:  R9 10 8 6 
Error in line 691:  R2 5 6 9 
Error in line 692:  D6 3 10 6 
Error in line 693:  C4 4 1 9 
Error in line 694:  C8 5 6 8 
Error in line 695:  T6 7 7 8 10 
Error in line 696:  R7 3 6 2 
Error in line 697:  R0 8 2 1 
Error in line 698:  T3 8 4 8 6 
Error in line 699:  D8 8 3 2 
Error in line 700:  T2 8 5 1 6 
Error in line 701:  T4 5 7 2 9 
Error in line 702:  T4 1 7 10 1 
Error in line 703:  C8 9 10 9 
Error in line 704:  R4 3 3 9 
Error in line 705:  C5 10 8 8 
Error in line 706:  R9 8 6 8 
Error in line 707:  T8 2 7 5 7 
Error in line 708:  T8 6 1 3 9 
Error in line 709:  T4 9 2 10 9 
Error in line 710:  R8 6 10 10 
Error in line 711:  R2 4 10 1 
Error in line 712:  D2 6 4 7 
Error in line 713:  C9 5 8 5 
Error in line 714:  C6 6 5 9 
Error in line 715:  R2 8 5 10 
Error in line 716:  D8 3 2 5 
Error in line 717:  R9 2 8 3 
Error in line 718:  T1 5 3 2 8 
Error in line 719:  R1 5 4 6 
Error in line 720:  D3 5 6 7 
Error in line 721:  T0 6 4 8 1 
Error in line 722:  R1 7 7 7 
Error in line 723:  R9 5 4 10 
Error in line 724:  C2 9 4 10 
Error in line 725:  C6 4 4 3 
Error in line 726:  C0 10 5 3 
Error in line 727:  C6 9 9 5 
Error in line 728:  D3 2 9 10 
Error in line 729:  T6 1 2 5 7 
Error in line 730:  R8 4 8 10 
Error in line 731:  D3 8 8 6 
Error in line 732:  T7 5 10 3 3 
Error in line 733:  C0 9 4 3 
Error in line 734:  R7 4 9 7 
Error in line 735:  R5 10 1 5 
Error in line 736:  C6 1 8 9 
Error in line 737:  C0 7 9 6 
Error in line 738:  D6 3 10 2 
Error in line 739:  D0 5 4 5 
Error in line 740:  C8 8 9 2 
Error in line 741:  T7 6 10 4 9 
Error in line 742:  D1 3 3 1 
Error in line 743:  D8 4 1 8 
Error in line 744:  D5 10 2 4 
Error in line 745:  C5 2 4 4 
Error in line 746:  D2 4 8 4 
Error in line 747:  C5 4 4 1 
Error in line 748:  T2 2 5 10 7 
Error in line 749:  T5 4 5 1 9 
Error in line 750:  T6 10 9 1 3 
Error in line 751:  C2 8 7 10 
Error in line 752:  D8 9 1 5 
Error in line 753:  C5 7 10 7 
Error in line 754:  T7 4 10 5 8 
Error in line 755:  D0 1 7 7 
Error in line 756:  R7 6 9 8 
Error in line 757:  D8 2 3 10 
Error in line 758:  T9 2 7 10 1 
Error in line 759:  T5 8 2 8 5 
Error in line 760:  C5 5 6 4 
Error in line 761:  R2 7 10 2 
Error in line 762:  C4 3 3 10 
Error in line 763:  T5 3 1 1 3 
Error in line 764:  C3 2 4 3 
Error in line 765:  D0 1 2 2 
Error in line 766:  R1 7 1 3 
Error in line 767:  R2 1 6 3 
Error in line 768:  D5 8 8 7 
Error in line 769:  T6 9 9 9 3 
Error in line 770:  R2 3 6 4 
Error in line 771:  C1 4 7 2 
Error in line 772:  C4 9 4 2 
Error in line 773:  D6 1 1 10 
Error in line 774:  R5 8 1 1 
Error in line 775:  T9 4 1 4 2 
Error in line 776:  R8 6 9 3 
Error in line 777:  R4 10 1 8 
Error in line 778:  D7 8 8 3 
Error in line 779:  C4 1 4 4 
Error in line 780:  T6 2 7 2 9 
Error in line 781:  T4 10 9 2 9 
Error in line 782:  T0 8 6 3 2 
Error in line 783:  R1 2 4 7 
Error in line 784:  C5 3 3 8 
Error in line 785:  D7 3 4 6 
Error in line 786:  C8 10 4 9 
Error in line 787:  T3 6 7 3 7 
Error in line 788:  D8 5 6 7 
Error in line 789:  D7 4 3 1 
Error in line 790:  C6 8 4 8 
Error in line 791:  D3 10 10 1 
Error in line 792:  T3 7 6 6 7 
Error in line 793:  C7 3 10 9 
Error in line 794:  D0 2 3 5 
Error in line 795:  C8 1 10 10 
Error in line 796:  C9 5 9 4 
Error in line 797:  R3 2 3 10 
Error in line 798:  C7 1 10 5 
Error in line 799:  C0 1 10 9 
Error in line 800:  T9 4 8 8 10 
Error in line 801:  T0 1 5 5 4 
Error in line 802:  T6 2 10 9 9 
Error in line 803:  D1 8 9 9 
Error in line 804:  T7 4 4 2 1 
Error in line 805:  T5 1 1 10 8 
Error in line 806:  D4 8 4 3 
Error in line 807:  R1 2 5 2 
Error in line 808:  C0 2 7 2 
Error in line 809:  C1 4 6 2 
Error in line 810:  R5 10 2 9 
Error in line 811:  T2 8 5 5 7 
Error in line 812:  D8 3 1 1 
Error in line 813:  T7 4 8 9 4 
Error in line 814:  T4 2 10 3 4 
Error in line 815:  D8 2 9 10 
Error in line 816:  R8 8 2 3 
Error in line 817:  T1 1 4 4 7 
Error in line 818:  D3 6 2 6 
Error in line 819:  R2 1 2 8 
Error in line 820:  T5 10 7 6 5 
Error in line 821:  R2 3 6 8 
Error in line 822:  T2 1 1 8 8 
Error in line 823:  R3 9 3 1 
Error in line 824:  D8 7 9 3 
Error in line 825:  T8 6 10 5 4 
Error in line 826:  C8 2 6 1 
Error in line 827:  T7 1 5 4 5 
Error in line 828:  T5 5 1 9 6 
Error in line 829:  R9 10 8 9 
Error in line 830:  R9 5 7 7 
Error in line 831:  C6 2 9 3 
Error in line 832:  T4 10 2 5 8 
Error in line 833:  R0 8 2 10 
Error in line 834:  R0 8 4 9 
Error in line 835:  C1 8 1 7 
Error in line 836:  R2 9 7 9 
Error in line 837:  D3 6 8 3 
Error in line 838:  T0 6 5 5 6 
Error in line 839:  D4 3 9 8 
Error in line 840:  C2 7 9 1 
Error in line 841:  C8 3 5 1 
Error in line 842:  C3 10 2 3 
Error in line 843:  D4 6 6 7 
Error in line 844:  T7 4 2 10 1 
Error in line 845:  D4 8 9 6 
Error in line 846:  C0 10 5 5 
Error in line 847:  R8 3 5 2 
Error in line 848:  C5 5 4 7 
Error in line 849:  T5 3 3 2 10 
Error in line 850:  C9 5 5 10 
Error in line 851:  T4 10 8 1 3 
Error in line 852:  D6 5 10 5 
Error in line 853:  D7 5 1 1 
Error in line 854:  T6 4 6 3 10 
Error in line 855:  D0 1 8 1 
Error in line 856:  T7 6 7 10 7 
Error in line 857:  T7 2 10 7 9 
Error in line 858:  T1 2 4 7 8 
Error in line 859:  D8 5 4 8 
Error in line 860:  D2 5 2 4 
Error in line 861:  R1 5 6 4 
Error in line 862:  T2 2 6 3 7 
Error in line 863:  T6 9 7 3 9 
Error in line 864:  T8 7 4 1 8 
Error in line 865:  R6 5 5 9 
Error in line 866:  C6 4 1 8 
Error in line 867:  T3 3 2 2 4 
Error in line 868:  C1 8 6 2 
Error in line 869:  T9 1 4 10 9 
Error in line 870:  C5 10 7 6 
Error in line 871:  T1 7 1 10 4 
Error in line 872:  C1 9 1 3 
Error in line 873:  T0 1 2 2 2 
Error in line 874:  T4 8 6 10 4 
Error in line 875:  T1 6 1 2 6 
Error in line 876:  T9 2 3 9 1 
Error in line 877:  D4 4 9 6 
Error in line 878:  R0 1 9 10 
Error in line 879:  R1 10 9 5 
Error in line 880:  T7 2 1 2 8 
Error in line 881:  C3 7 8 1 
Error in line 882:  D3 6 7 9 
Error in line 883:  T1 3 2 9 3 
Error in line 884:  D7 10 1 2 
Error in line 885:  C9 7 6 1 
Error in line 886:  T4 5 4 5 9 
Error in line 887:  T0 2 9 10 10 
Error in line 888:  D9 1 9 4 
Error in line 889:  C3 8 8 9 
Error in line 890:  R3 2 1 1 
Error in line 891:  R3 9 1 3 
Error in line 892:  R4 1 8 4 
Error in line 893:  T7 7 2 1 5 
Error in line 894:  T5 6 6 8 5 
Error in line 895:  D2 8 9 5 
Error in line 896:  T9 10 3 8 1 
Error in line 897:  C4 3 6 10 
Error in line 898:  R2 4 6 4 
Error in line 899:  R7 7 8 1 
Error in line 900:  D5 8 9 4 
Error in line 901:  C1 7 4 9 
Error in line 902:  D0 8 5 1 
Error in line 903:  T3 8 6 9 4 
Error in line 904:  C1 2 7 9 
Error in line 905:  D0 3 8 6 
Error in line 906:  R3 8 9 4 
Error in line 907:  T5 1 1 4 10 
Error in line 908:  T5 10 3 9 8 
Error in line 909:  T8 5 7 2 5 
Error in line 910:  R5 4 9 6 
Error in line 911:  T8 10 8 9 8 
Error in line 912:  C7 1 4 4 
Error in line 913:  D4 6 9 10 
Error in line 914:  D3 2 5 3 
Error in line 915:  D4 10 1 4 
Error in line 916:  C6 6 1 9 
Error in line 917:  D3 10 3 5 
Error in line 918:  T4 7 1 1 10 
Error in line 919:  C2 7 8 8 
Error in line 920:  R8 7 1 3 
Error in line 921:  C7 7 6 8 
Error in line 922:  D7 7 7 8 
Error in line 923:  R8 6 8 10 
Error in line 924:  R8 9 5 6 
Error in line 925:  D5 2 3 5 
Error in line 926:  R6 3 5 1 
Error in line 927:  C4 7 8 3 
Error in line 928:  T6 6 2 1 2 
Error in line 929:  R4 6 7 1 
Error in line 930:  R3 4 7 8 
Error in line 931:  C4 8 6 5 
Error in line 932:  D4 7 2 9 
Error in line 933:  T3 3 2 7 4 
Error in line 934:  C8 6 3 10 
Error in line 935:  D6 3 7 7 
Error in line 936:  T1 1 3 3 4 
Error in line 937:  D0 1 4 1 
Error in line 938:  C2 9 9 2 
Error in line 939:  T3 5 8 6 10 
Error in line 940:  T0 6 7 4 7 
Error in line 941:  C8 4 9 1 
Error in line 942:  C5 6 10 1 
Error in line 943:  T2 2 3 6 1 
Error in line 944:  D2 1 10 1 
Error in line 945:  T5 5 7 2 3 
Error in line 946:  C8 6 5 1 
Error in line 947:  C6 2 6 10 
Error in line 948:  R7 1 9 10 
Error in line 949:  R6 9 10 9 
Error in line 950:  R4 8 5 2 
Error in line 951:  R8 10 9 6 
Error in line 952:  R7 5 10 1 
Error in line 953:  D6 9 1 9 
Error in line 954:  T6 4 6 5 10 
Error in line 955:  D7 6 2 2 
Error in line 956:  D5 3 4 3 
Error in line 957:  R3 1 10 10 
Error in line 958:  T0 3 8 6 1 
Error in line 959:  R7 2 9 5 
Error in line 960:  D0 8 9 1 
Error in line 961:  C0 7 2 6 
Error in line 962:  C8 4 10 10 
Error in line 963:  D1 10 4 6 
Error in line 964:  D9 6 9 7 
Error in line 965:  C0 3 8 6 
Error in line 966:  R2 2 9 1 
Error in line 967:  C5 7 9 3 
Error in line 968:  C5 4 5 10 
Error in line 969:  T8 7 8 1 1 
Error in line 970:  R5 7 1 3 
Error in line 971:  D5 4 1 3 
Error in line 972:  D5 2 4 1 
Error in line 973:  R8 5 10 5 
Error in line 974:  T1 5 7 1 1 
Error in line 975:  T6 5 1 2 6 
Error in line 976:  C5 4 10 7 
Error in line 977:  T9 10 9 1 9 
Error in line 978:  R4 3 8 4 
Error in line 979:  T7 1 3 8 8 
Error in line 980:  C1 10 5 9 
Error in line 981:  D5 2 10 7 
Error in line 982:  D7 6 10 3 
Error in line 983:  C0 6 10 2 
Error in line 984:  C3 6 1 5 
Error in line 985:  R3 8 3 7 
Error in line 986:  C6 9 1 1 
Error in line 987:  D8 1 1 8 
Error in line 988:  R6 9 5 6 
Error in line 989:  R0 9 5 2 
Error in line 990:  C9 1 7 9 
Error in line 991:  T2 8 4 2 10 
Error in line 992:  T6 1 9 3 8 
Error in line 993:  R4 9 6 8 
Error in line 994:  T7 1 8 1 2 
Error in line 995:  R2 10 1 9 
Error in line 996:  C3 9 9 3 
Error in line 997:  D9 8 6 10 
Error in line 998:  C0 8 1 9 
Error in line 999:  C9 3 8 8 
Error in line 1000:  R5 3 8 8 
Warning, unconnected node(s): 0
