Error in line 5:  C3 8 6 6 
Error in line 8:  C0 8 6 7 
Error in line 11:  R3 5 8 10 
Error in line 13:  R8 1 6 4 
Error in line 16:  C7 4 4 6 
Error in line 19:  C4 3 4 10 
Error in line 21:  D9 7 4 1 
Error in line 24:  R3 3 10 8 
Error in line 27:  C3 4 4 4 
Error in line 30:  D2 8 9 6 
Error in line 32:  D4 6 6 8 
Error in line 33:  D1 1 9 6 
Error in line 35:  C4 3 2 1 
Error in line 37:  C0 3 10 6 
Error in line 38:  D1 4 7 3 
Error in line 39:  D0 9 9 1 
Error in line 40:  T1 4 9 1 5 
Error in line 41:  T9 6 9 5 10 
Error in line 43:  C5 3 3 7 
Error in line 44:  T2 9 3 2 4 
Error in line 46:  D7 2 4 6 
Error in line 47:  R9 4 1 7 
Error in line 51:  D1 8 9 2 
Error in line 54:  C8 3 5 8 
Error in line 55:  D1 10 10 4 
Error in line 56:  T1 1 10 5 3 
Error in line 57:  D2 5 6 4 
Error in line 59:  C0 9 7 7 
Error in line 60:  T3 4 10 1 5 
Error in line 62:  T9 9 5 5 4 
Error in line 63:  C8 5 1 8 
Error in line 64:  C4 2 9 1 
Error in line 65:  T1 8 9 5 5 
Error in line 66:  R0 7 7 8 
Error in line 67:  D6 2 7 7 
Error in line 68:  D7 3 1 1 
Error in line 69:  C5 7 10 4 
Error in line 70:  R8 9 4 9 
Error in line 71:  D6 1 10 1 
Error in line 73:  T3 8 9 4 8 
Error in line 74:  T0 3 7 9 6 
Error in line 76:  D8 6 7 1 
Error in line 77:  C0 4 7 6 
Error in line 79:  T9 3 5 6 5 
Error in line 81:  R6 10 4 6 
Error in line 82:  C5 7 9 5 
Error in line 83:  T6 8 7 10 9 
Error in line 84:  T2 2 5 4 5 
Error in line 85:  D6 1 10 5 
Error in line 86:  D6 7 7 2 
Error in line 87:  C4 5 9 3 
Error in line 89:  T7 5 9 8 1 
Error in line 90:  R4 6 3 8 
Error in line 91:  T1 1 5 1 5 
Error in line 92:  D6 3 1 9 
Error in line 93:  T6 8 6 7 7 
Error in line 95:  T8 9 6 10 8 
Error in line 96:  C1 10 5 4 
Error in line 97:  C6 2 10 8 
Error in line 98:  T0 8 7 9 4 
Error in line 99:  T8 4 1 1 9 
Error in line 100:  D7 3 10 7 
Error in line 101:  C2 6 6 8 
Error in line 102:  D8 10 7 9 
Error in line 103:  D8 9 2 1 
Error in line 104:  D5 5 9 9 
Error in line 105:  C9 4 9 7 
Error in line 106:  C5 1 1 1 
Error in line 107:  R3 9 1 10 
Error in line 108:  R7 4 4 1 
Error in line 109:  R0 6 7 5 
Error in line 112:  T8 5 7 5 9 
Error in line 113:  T3 6 6 8 8 
Error in line 114:  T0 4 10 5 2 
Error in line 115:  C1 6 5 1 
Error in line 116:  D9 2 10 10 
Error in line 117:  D2 6 1 3 
Error in line 118:  T4 7 5 4 6 
Error in line 119:  C9 5 7 1 
Error in line 120:  T2 6 6 6 2 
Error in line 121:  C2 3 3 4 
Error in line 122:  R3 8 5 10 
Error in line 123:  R9 9 3 6 
Error in line 124:  R4 4 5 3 
Error in line 125:  R1 7 10 4 
Error in line 126:  T9 1 3 9 2 
Error in line 127:  D9 2 7 9 
Error in line 128:  D2 10 9 8 
Error in line 129:  R6 8 4 4 
Error in line 130:  D7 1 5 2 
Error in line 131:  T7 3 3 6 5 
Error in line 132:  T7 8 8 10 5 
Error in line 133:  C8 6 6 10 
Error in line 134:  D7 10 1 1 
Error in line 135:  D0 4 7 3 
Error in line 136:  R1 9 5 4 
Error in line 137:  D3 2 1 9 
Error in line 138:  D4 10 8 7 
Error in line 139:  T8 2 5 4 6 
Error in line 140:  C2 7 9 10 
Error in line 141:  R3 4 7 9 
Error in line 142:  R2 6 4 3 
Error in line 143:  D4 3 3 3 
Error in line 144:  T3 3 2 7 7 
Error in line 145:  C8 10 6 7 
Error in line 146:  T5 8 10 1 7 
Error in line 147:  R5 2 4 9 
Error in line 148:  R3 1 9 4 
Error in line 149:  D0 10 9 9 
Error in line 150:  R7 1 4 10 
Error in line 151:  D6 9 7 8 
Error in line 152:  C6 7 1 5 
Error in line 153:  R8 4 8 3 
Error in line 154:  R5 2 2 4 
Error in line 155:  R5 2 4 5 
Error in line 156:  R7 4 7 8 
Error in line 157:  R8 10 2 8 
Error in line 158:  C4 6 7 1 
Error in line 159:  C8 3 7 9 
Error in line 160:  R5 9 3 9 
Error in line 161:  D1 7 7 9 
Error in line 162:  T8 10 5 4 10 
Error in line 163:  D4 3 9 6 
Error in line 164:  R9 2 9 3 
Error in line 165:  T1 6 1 4 5 
Error in line 166:  R9 4 7 9 
Error in line 167:  R6 7 1 9 
Error in line 168:  R8 7 2 2 
Error in line 169:  T6 1 3 7 1 
Error in line 170:  C0 10 3 10 
Error in line 171:  C6 4 4 9 
Error in line 172:  T8 2 4 8 5 
Error in line 173:  C4 2 9 8 
Error in line 174:  T1 1 10 7 8 
Error in line 175:  D2 6 9 7 
Error in line 176:  T8 7 6 6 6 
Error in line 177:  T7 7 2 3 4 
Error in line 178:  R0 10 3 2 
Error in line 179:  C0 7 6 9 
Error in line 180:  D5 6 10 1 
Error in line 181:  T3 3 8 6 1 
Error in line 182:  C2 5 5 5 
Error in line 183:  C2 9 6 9 
Error in line 184:  T0 1 7 4 5 
Error in line 185:  D4 9 9 5 
Error in line 186:  D8 2 8 7 
Error in line 187:  D2 9 5 10 
Error in line 188:  R1 9 10 7 
Error in line 189:  T2 4 5 6 9 
Error in line 190:  C2 2 9 9 
Error in line 191:  D9 5 9 8 
Error in line 192:  T3 4 8 4 9 
Error in line 193:  T6 4 7 10 2 
Error in line 194:  R5 8 6 2 
Error in line 195:  D8 4 9 2 
Error in line 196:  D1 1 5 8 
Error in line 197:  D4 5 9 4 
Error in line 198:  C5 5 1 1 
Error in line 199:  T9 9 7 5 1 
Error in line 200:  C4 6 4 10 
Error in line 201:  T2 2 3 7 4 
Error in line 202:  R2 9 4 10 
Error in line 203:  R3 5 1 1 
Error in line 204:  R0 10 8 2 
Error in line 205:  R0 1 9 1 
Error in line 206:  C4 10 4 8 
Error in line 207:  R9 4 3 3 
Error in line 208:  T1 2 8 3 1 
Error in line 209:  R8 7 9 6 
Error in line 210:  C7 7 8 5 
Error in line 211:  C4 9 2 9 
Error in line 212:  R2 6 2 8 
Error in line 213:  D8 6 3 1 
Error in line 214:  C1 10 4 3 
Error in line 215:  R1 2 9 5 
Error in line 216:  R7 10 10 7 
Error in line 217:  C2 6 7 6 
Error in line 218:  T8 4 3 6 2 
Error in line 219:  T4 7 7 5 1 
Error in line 220:  T9 6 3 9 10 
Error in line 221:  D9 4 8 8 
Error in line 222:  R1 3 1 10 
Error in line 223:  T8 10 2 5 6 
Error in line 224:  T0 3 10 5 8 
Error in line 225:  R2 6 7 6 
Error in line 226:  D8 2 4 5 
Error in line 227:  D6 3 5 1 
Error in line 228:  C2 2 3 8 
Error in line 229:  C9 6 7 8 
Error in line 230:  R1 7 1 8 
Error in line 231:  R0 3 6 2 
Error in line 232:  D8 2 8 7 
Error in line 233:  T0 2 4 4 3 
Error in line 234:  D8 4 9 2 
Error in line 235:  C9 10 6 8 
Error in line 236:  C2 4 6 1 
Error in line 237:  R3 6 8 3 
Error in line 238:  D8 3 5 3 
Error in line 239:  T8 3 1 8 7 
Error in line 240:  T0 8 2 1 2 
Error in line 241:  C2 1 9 6 
Error in line 242:  T6 4 2 8 5 
Error in line 243:  R6 2 1 2 
Error in line 244:  R7 9 1 5 
Error in line 245:  T2 8 6 7 8 
Error in line 246:  T2 3 5 6 2 
Error in line 247:  R0 8 8 2 
Error in line 248:  T9 3 3 4 9 
Error in line 249:  T6 4 1 10 7 
Error in line 250:  T9 2 8 2 5 
Error in line 251:  T2 8 1 2 10 
Error in line 252:  C1 4 6 6 
Error in line 253:  R9 6 8 3 
Error in line 254:  T9 6 5 4 10 
Error in line 255:  T9 2 6 1 10 
Error in line 256:  C9 10 5 10 
Error in line 257:  C0 2 4 6 
Error in line 258:  T2 6 7 8 8 
Error in line 259:  D9 5 1 3 
Error in line 260:  D1 8 1 2 
Error in line 261:  C9 9 4 6 
Error in line 262:  C5 10 2 7 
Error in line 263:  R1 4 7 2 
Error in line 264:  T1 8 8 2 6 
Error in line 265:  R7 3 8 9 
Error in line 266:  D7 7 10 7 
Error in line 267:  R6 10 3 10 
Error in line 268:  C1 5 10 1 
Error in line 269:  D4 4 2 8 
Error in line 270:  C9 4 5 6 
Error in line 271:  C2 2 5 1 
Error in line 272:  D6 2 1 6 
Error in line 273:  R4 5 4 9 
Error in line 274:  T8 5 6 8 9 
Error in line 275:  C4 7 3 6 
Error in line 276:  R3 6 8 5 
Error in line 277:  R1 8 3 2 
Error in line 278:  T9 8 5 10 5 
Error in line 279:  C4 9 8 1 
Error in line 280:  T5 9 3 1 8 
Error in line 281:  C8 3 1 7 
Error in line 282:  C9 1 7 10 
Error in line 283:  T2 4 9 8 4 
Error in line 284:  D8 7 7 10 
Error in line 285:  C8 5 4 10 
Error in line 286:  D1 2 7 7 
Error in line 287:  T2 7 10 3 7 
Error in line 288:  D9 7 1 1 
Error in line 289:  T3 9 6 2 8 
Error in line 290:  D1 6 9 3 
Error in line 291:  T4 4 1 3 1 
Error in line 292:  D1 1 7 5 
Error in line 293:  C2 7 10 8 
Error in line 294:  R6 8 5 10 
Error in line 295:  D8 7 10 5 
Error in line 296:  R5 8 7 9 
Error in line 297:  T7 5 6 7 9 
Error in line 298:  C2 2 4 5 
Error in line 299:  T1 1 10 10 10 
Error in line 300:  R9 9 5 8 
Error in line 301:  R9 4 9 2 
Error in line 302:  C3 9 3 3 
Error in line 303:  C4 8 1 4 
Error in line 304:  C0 9 9 6 
Error in line 305:  C3 6 2 6 
Error in line 306:  T7 8 4 10 5 
Error in line 307:  R0 6 8 1 
Error in line 308:  T4 7 5 5 10 
Error in line 309:  D1 8 7 10 
Error in line 310:  D9 4 9 10 
Error in line 311:  T7 4 4 2 7 
Error in line 312:  D7 8 3 9 
Error in line 313:  T6 4 10 3 5 
Error in line 314:  D7 10 3 4 
Error in line 315:  R9 8 6 9 
Error in line 316:  C1 5 9 4 
Error in line 317:  C9 10 5 5 
Error in line 318:  D7 6 5 1 
Error in line 319:  R2 7 10 3 
Error in line 320:  C8 10 10 7 
Error in line 321:  T9 6 8 2 4 
Error in line 322:  D0 10 5 9 
Error in line 323:  D3 6 10 1 
Error in line 324:  C5 6 10 1 
Error in line 325:  D2 10 8 3 
Error in line 326:  C0 1 3 1 
Error in line 327:  D3 6 2 3 
Error in line 328:  R2 1 3 9 
Error in line 329:  R8 8 7 5 
Error in line 330:  C9 10 7 4 
Error in line 331:  T6 10 9 7 4 
Error in line 332:  D8 10 2 5 
Error in line 333:  C7 6 5 7 
Error in line 334:  D1 9 8 6 
Error in line 335:  R6 3 1 10 
Error in line 336:  R8 7 5 3 
Error in line 337:  R3 3 6 6 
Error in line 338:  C2 5 3 2 
Error in line 339:  C9 5 9 2 
Error in line 340:  C8 7 2 10 
Error in line 341:  D3 7 2 3 
Error in line 342:  D2 4 6 3 
Error in line 343:  T5 5 1 9 7 
Error in line 344:  D3 2 3 1 
Error in line 345:  R3 5 2 5 
Error in line 346:  R7 6 5 3 
Error in line 347:  R1 2 8 2 
Error in line 348:  D4 4 4 5 
Error in line 349:  C9 3 1 7 
Error in line 350:  D8 9 3 3 
Error in line 351:  R2 3 8 9 
Error in line 352:  R7 7 1 10 
Error in line 353:  C8 8 5 9 
Error in line 354:  R0 3 3 6 
Error in line 355:  T8 1 6 7 10 
Error in line 356:  R2 2 8 6 
Error in line 357:  T2 1 6 10 3 
Error in line 358:  T2 10 1 5 8 
Error in line 359:  T1 9 10 3 5 
Error in line 360:  T1 3 5 2 10 
Error in line 361:  T5 3 8 3 6 
Error in line 362:  D7 6 7 9 
Error in line 363:  R6 9 9 8 
Error in line 364:  C5 10 3 10 
Error in line 365:  T7 2 9 5 4 
Error in line 366:  C5 8 5 9 
Error in line 367:  C8 7 1 10 
Error in line 368:  D3 1 1 1 
Error in line 369:  C9 9 8 1 
Error in line 370:  R6 1 5 2 
Error in line 371:  D3 1 3 5 
Error in line 372:  R7 7 9 10 
Error in line 373:  R8 1 4 6 
Error in line 374:  T7 9 7 2 8 
Error in line 375:  R1 1 7 5 
Error in line 376:  D5 5 9 3 
Error in line 377:  T1 1 4 6 7 
Error in line 378:  T9 7 7 1 4 
Error in line 379:  D4 2 6 3 
Error in line 380:  R4 9 8 2 
Error in line 381:  C6 4 5 3 
Error in line 382:  C3 10 9 10 
Error in line 383:  C4 6 4 9 
Error in line 384:  T3 9 2 8 8 
Error in line 385:  C3 7 2 2 
Error in line 386:  D3 1 10 1 
Error in line 387:  T5 7 8 5 1 
Error in line 388:  D7 5 7 1 
Error in line 389:  D1 10 6 9 
Error in line 390:  D1 7 10 5 
Error in line 391:  T9 1 1 1 3 
Error in line 392:  T2 1 9 1 7 
Error in line 393:  C7 5 1 3 
Error in line 394:  C6 9 4 1 
Error in line 395:  T6 4 2 2 7 
Error in line 396:  R0 9 6 2 
Error in line 397:  D1 7 9 5 
Error in line 398:  C3 5 8 7 
Error in line 399:  D5 8 6 1 
Error in line 400:  C5 1 1 4 
Error in line 401:  R1 5 9 6 
Error in line 402:  C6 10 4 10 
Error in line 403:  T7 4 9 5 2 
Error in line 404:  T0 2 10 4 9 
Error in line 405:  T4 10 6 7 3 
Error in line 406:  D7 10 4 1 
Error in line 407:  D9 6 5 5 
Error in line 408:  R9 1 10 8 
Error in line 409:  T6 4 7 10 3 
Error in line 410:  R0 2 9 5 
Error in line 411:  C0 8 4 2 
Error in line 412:  T7 6 9 4 4 
Error in line 413:  C6 2 1 4 
Error in line 414:  R6 10 5 8 
Error in line 415:  R3 9 4 10 
Error in line 416:  T4 8 7 5 9 
Error in line 417:  R1 3 5 4 
Error in line 418:  C1 5 2 5 
Error in line 419:  T5 4 6 5 10 
Error in line 420:  T1 3 2 1 10 
Error in line 421:  D7 6 5 7 
Error in line 422:  C9 10 3 3 
Error in line 423:  T1 10 8 7 7 
Error in line 424:  R3 10 3 2 
Error in line 425:  R0 4 10 5 
Error in line 426:  R7 10 4 1 
Error in line 427:  R8 3 3 4 
Error in line 428:  T6 8 8 2 4 
Error in line 429:  C5 5 9 6 
Error in line 430:  T3 1 4 5 4 
Error in line 431:  D9 3 7 8 
Error in line 432:  D0 9 2 2 
Error in line 433:  T4 4 3 4 3 
Error in line 434:  T1 8 6 1 5 
Error in line 435:  D9 9 6 8 
Error in line 436:  D6 4 1 6 
Error in line 437:  C0 1 2 9 
Error in line 438:  R5 6 4 2 
Error in line 439:  D6 7 2 7 
Error in line 440:  D5 5 4 1 
Error in line 441:  R6 4 8 6 
Error in line 442:  D3 8 3 10 
Error in line 443:  C0 1 2 5 
Error in line 444:  R0 10 9 9 
Error in line 445:  R6 3 9 8 
Error in line 446:  R3 2 8 6 
Error in line 447:  C1 8 2 8 
Error in line 448:  R2 9 3 10 
Error in line 449:  R8 3 4 9 
Error in line 450:  C6 2 6 8 
Error in line 451:  C1 7 9 6 
Error in line 452:  D9 2 5 8 
Error in line 453:  C1 5 9 7 
Error in line 454:  T7 10 7 9 7 
Error in line 455:  D9 10 7 2 
Error in line 456:  C1 6 1 10 
Error in line 457:  C9 2 4 2 
Error in line 458:  D4 3 4 2 
Error in line 459:  D3 6 7 6 
Error in line 460:  T9 2 3 6 4 
Error in line 461:  D2 7 10 1 
Error in line 462:  T4 6 10 1 4 
Error in line 463:  C6 7 9 4 
Error in line 464:  C8 2 6 3 
Error in line 465:  T2 8 3 7 5 
Error in line 466:  C2 4 10 2 
Error in line 467:  C9 6 6 6 
Error in line 468:  C2 8 4 5 
Error in line 469:  C6 2 1 3 
Error in line 470:  T7 5 3 2 6 
Error in line 471:  C9 10 5 10 
Error in line 472:  C1 9 7 5 
Error in line 473:  R1 8 10 3 
Error in line 474:  T4 4 5 6 6 
Error in line 475:  R3 3 4 9 
Error in line 476:  T2 8 3 1 3 
Error in line 477:  T0 5 5 8 4 
Error in line 478:  D8 1 2 5 
Error in line 479:  R1 7 2 3 
Error in line 480:  D2 5 6 9 
Error in line 481:  D6 7 2 1 
Error in line 482:  D1 6 7 9 
Error in line 483:  R6 6 4 10 
Error in line 484:  T1 1 8 10 2 
Error in line 485:  R7 4 6 9 
Error in line 486:  C6 1 6 10 
Error in line 487:  T4 9 8 2 6 
Error in line 488:  T4 8 6 8 10 
Error in line 489:  R2 10 8 6 
Error in line 490:  T6 7 3 5 9 
Error in line 491:  D8 9 1 5 
Error in line 492:  R1 4 8 4 
Error in line 493:  R5 6 1 7 
Error in line 494:  R5 3 9 10 
Error in line 495:  R9 7 1 1 
Error in line 496:  T2 10 9 8 2 
Error in line 497:  R4 10 6 4 
Error in line 498:  T9 5 9 7 3 
Error in line 499:  T8 3 1 6 6 
Error in line 500:  T8 9 3 7 2 
Error in line 501:  C0 2 2 2 
Error in line 502:  C1 1 2 7 
Error in line 503:  T8 10 10 4 8 
Error in line 504:  T9 1 2 8 8 
Error in line 505:  C0 8 3 7 
Error in line 506:  D5 7 10 9 
Error in line 507:  T4 7 2 10 10 
Error in line 508:  D1 1 1 2 
Error in line 509:  C5 4 8 8 
Error in line 510:  C2 2 10 4 
Error in line 511:  R2 5 3 9 
Error in line 512:  T4 1 8 6 5 
Error in line 513:  D3 2 7 2 
Error in line 514:  C5 6 10 6 
Error in line 515:  D0 3 7 6 
Error in line 516:  T9 2 8 3 1 
Error in line 517:  C7 8 3 1 
Error in line 518:  T8 8 4 10 9 
Error in line 519:  R8 8 1 6 
Error in line 520:  C1 7 2 6 
Error in line 521:  R2 9 9 7 
Error in line 522:  D1 1 5 4 
Error in line 523:  C6 10 9 8 
Error in line 524:  T2 6 1 7 6 
Error in line 525:  D4 5 9 10 
Error in line 526:  T2 10 9 4 5 
Error in line 527:  C2 7 5 4 
Error in line 528:  T4 6 1 9 1 
Error in line 529:  R3 5 4 9 
Error in line 530:  T3 1 7 1 10 
Error in line 531:  R1 6 9 3 
Error in line 532:  R2 3 6 7 
Error in line 533:  C8 3 4 6 
Error in line 534:  D1 4 10 6 
Error in line 535:  D2 3 5 4 
Error in line 536:  C9 9 9 10 
Error in line 537:  T1 1 4 2 9 
Error in line 538:  R2 7 6 5 
Error in line 539:  C8 3 7 2 
Error in line 540:  R2 4 8 5 
Error in line 541:  C4 8 5 1 
Error in line 542:  R3 3 3 5 
Error in line 543:  R4 6 9 6 
Error in line 544:  T9 7 9 6 8 
Error in line 545:  T2 1 8 1 6 
Error in line 546:  D4 10 8 10 
Error in line 547:  T7 6 10 6 1 
Error in line 548:  T7 8 10 9 4 
Error in line 549:  R7 2 10 4 
Error in line 550:  D4 9 9 3 
Error in line 551:  C2 9 6 7 
Error in line 552:  C3 6 7 4 
Error in line 553:  T4 10 9 6 10 
Error in line 554:  R5 10 6 8 
Error in line 555:  C6 4 6 3 
Error in line 556:  D8 2 9 5 
Error in line 557:  C3 9 9 10 
Error in line 558:  C8 8 5 3 
Error in line 559:  C4 4 1 5 
Error in line 560:  R4 6 1 1 
Error in line 561:  R3 6 10 4 
Error in line 562:  T5 7 8 8 1 
Error in line 563:  T9 8 9 3 1 
Error in line 564:  C1 9 5 8 
Error in line 565:  D4 4 9 4 
Error in line 566:  R5 2 3 1 
Error in line 567:  D1 2 4 6 
Error in line 568:  C6 2 9 2 
Error in line 569:  C3 4 9 5 
Error in line 570:  R9 4 9 5 
Error in line 571:  C4 3 7 10 
Error in line 572:  C8 4 10 9 
Error in line 573:  C1 7 1 5 
Error in line 574:  D2 10 4 2 
Error in line 575:  D0 9 5 8 
Error in line 576:  R3 1 7 1 
Error in line 577:  R5 4 7 5 
Error in line 578:  R7 10 6 7 
Error in line 579:  C4 3 6 2 
Error in line 580:  C8 7 4 3 
Error in line 581:  D3 10 10 8 
Error in line 582:  C5 7 4 5 
Error in line 583:  D4 1 3 6 
Error in line 584:  T3 6 9 7 8 
Error in line 585:  R6 4 10 10 
Error in line 586:  C1 8 9 10 
Error in line 587:  T2 2 2 4 9 
Error in line 588:  D3 6 1 10 
Error in line 589:  D3 6 8 10 
Error in line 590:  D3 4 9 3 
Error in line 591:  D1 1 8 3 
Error in line 592:  R8 1 8 3 
Error in line 593:  T7 4 10 10 6 
Error in line 594:  R2 3 9 4 
Error in line 595:  R8 9 8 8 
Error in line 596:  R6 5 1 5 
Error in line 597:  C8 4 10 1 
Error in line 598:  T8 6 2 1 7 
Error in line 599:  T9 7 7 10 8 
Error in line 600:  D7 2 2 9 
Error in line 601:  C8 9 1 1 
Error in line 602:  T8 3 3 8 10 
Error in line 603:  C5 4 6 10 
Error in line 604:  T5 7 8 8 3 
Error in line 605:  C8 5 1 4 
Error in line 606:  C0 8 5 5 
Error in line 607:  C8 6 7 7 
Error in line 608:  R7 4 6 3 
Error in line 609:  D9 4 10 8 
Error in line 610:  C8 4 1 7 
Error in line 611:  C8 8 3 5 
Error in line 612:  T2 7 3 5 10 
Error in line 613:  R6 10 6 1 
Error in line 614:  C9 7 6 9 
Error in line 615:  D4 5 9 7 
Error in line 616:  C7 6 3 8 
Error in line 617:  T1 10 2 6 3 
Error in line 618:  T5 1 1 5 1 
Error in line 619:  T3 1 4 6 7 
Error in line 620:  D7 3 2 10 
Error in line 621:  C7 3 9 3 
Error in line 622:  D5 6 6 5 
Error in line 623:  T1 9 2 5 5 
Error in line 624:  D7 7 5 3 
Error in line 625:  D9 7 3 8 
Error in line 626:  D0 1 9 6 
Error in line 627:  R4 7 7 9 
Error in line 628:  D2 7 2 4 
Error in line 629:  R9 3 5 6 
Error in line 630:  T2 6 5 2 3 
Error in line 631:  T9 10 5 6 8 
Error in line 632:  T2 10 10 9 1 
Error in line 633:  T9 6 2 10 8 
Error in line 634:  T1 6 6 5 10 
Error in line 635:  D4 4 10 4 
Error in line 636:  R8 8 9 10 
Error in line 637:  R0 7 7 5 
Error in line 638:  C7 4 8 2 
Error in line 639:  R1 8 6 4 
Error in line 640:  D8 3 5 7 
Error in line 641:  D4 8 8 6 
Error in line 642:  R9 6 1 3 
Error in line 643:  T2 8 10 8 9 
Error in line 644:  D3 9 2 1 
Error in line 645:  D9 1 8 4 
Error in line 646:  R2 8 2 3 
Error in line 647:  D5 2 3 5 
Error in line 648:  R5 9 6 1 
Error in line 649:  C3 3 4 5 
Error in line 650:  C8 2 10 10 
Error in line 651:  C0 9 2 8 
Error in line 652:  D3 8 3 9 
Error in line 653:  D6 10 4 9 
Error in line 654:  T4 5 8 1 8 
Error in line 655:  T8 9 7 5 4 
Error in line 656:  C1 5 8 10 
Error in line 657:  R8 1 1 3 
Error in line 658:  T5 3 6 9 9 
Error in line 659:  D4 8 4 7 
Error in line 660:  D7 10 4 2 
Error in line 661:  T6 9 4 7 7 
Error in line 662:  C3 8 4 3 
Error in line 663:  T1 2 3 9 8 
Error in line 664:  T0 10 7 9 4 
Error in line 665:  T4 1 7 8 7 
Error in line 666:  T4 1 9 9 2 
Error in line 667:  C3 4 1 6 
Error in line 668:  D4 9 6 8 
Error in line 669:  R0 7 4 9 
Error in line 670:  T5 4 2 7 7 
Error in line 671:  D3 6 4 10 
Error in line 672:  C5 3 7 10 
Error in line 673:  R9 4 4 5 
Error in line 674:  R4 9 9 2 
Error in line 675:  R8 4 7 5 
Error in line 676:  C7 3 10 7 
Error in line 677:  R4 8 10 9 
Error in line 678:  R6 5 7 1 
Error in line 679:  D6 6 2 9 
Error in line 680:  R2 9 6 4 
Error in line 681:  D3 3 7 6 
Error in line 682:  R2 4 8 3 
Error in line 683:  D6 8 5 9 
Error in line 684:  T4 4 6 7 10 
Error in line 685:  T9 9 3 1 3 
Error in line 686:  D8 10 8 4 
Error in line 687:  C9 10 1 3 
Error in line 688:  R0 2 2 2 
Error in line 689:  C3 2 9 7 
Error in line 690:  C1 10 6 9 
Error in line 691:  D6 10 9 3 
Error in line 692:  T5 2 4 3 1 
Error in line 693:  R8 8 3 4 
Error in line 694:  C4 7 9 5 
Error in line 695:  D7 1 10 9 
Error in line 696:  C5 7 5 10 
Error in line 697:  T2 8 2 9 1 
Error in line 698:  R3 1 10 3 
Error in line 699:  D0 5 7 3 
Error in line 700:  D4 2 4 9 
Error in line 701:  C9 3 6 8 
Error in line 702:  R7 1 7 9 
Error in line 703:  R9 7 6 1 
Error in line 704:  T3 2 3 5 2 
Error in line 705:  D1 10 2 10 
Error in line 706:  T0 1 4 10 1 
Error in line 707:  T9 7 7 9 7 
Error in line 708:  T7 5 4 2 7 
Error in line 709:  C8 2 9 2 
Error in line 710:  R1 5 3 6 
Error in line 711:  T3 4 6 2 3 
Error in line 712:  R8 4 10 9 
Error in line 713:  C4 2 10 7 
Error in line 714:  C8 3 7 4 
Error in line 715:  T9 6 5 4 9 
Error in line 716:  C5 9 6 9 
Error in line 717:  R0 10 3 1 
Error in line 718:  D3 3 9 10 
Error in line 719:  R9 6 2 4 
Error in line 720:  C3 5 7 4 
Error in line 721:  C7 2 3 7 
Error in line 722:  C0 7 2 3 
Error in line 723:  D7 9 1 3 
Error in line 724:  R3 7 8 3 
Error in line 725:  R8 10 9 8 
Error in line 726:  D1 7 9 5 
Error in line 727:  R1 3 1 10 
Error in line 728:  D5 8 2 9 
Error in line 729:  R3 10 5 4 
Error in line 730:  R4 9 10 1 
Error in line 731:  D8 2 7 4 
Error in line 732:  R4 7 6 3 
Error in line 733:  D3 10 4 9 
Error in line 734:  R7 7 7 10 
Error in line 735:  C6 6 2 2 
Error in line 736:  C3 1 3 4 
Error in line 737:  C3 1 1 10 
Error in line 738:  R4 7 7 3 
Error in line 739:  R6 2 5 10 
Error in line 740:  D4 3 8 3 
Error in line 741:  T0 8 10 10 9 
Error in line 742:  T6 9 5 10 10 
Error in line 743:  R0 8 5 10 
Error in line 744:  D0 3 5 9 
Error in line 745:  T2 2 5 1 4 
Error in line 746:  D1 8 8 5 
Error in line 747:  T9 1 7 10 10 
Error in line 748:  C6 2 6 8 
Error in line 749:  C7 7 10 10 
Error in line 750:  T9 9 5 8 10 
Error in line 751:  D7 2 8 9 
Error in line 752:  C4 6 5 10 
Error in line 753:  D4 1 10 2 
Error in line 754:  D5 7 10 8 
Error in line 755:  C1 6 8 7 
Error in line 756:  C7 3 10 10 
Error in line 757:  R9 6 10 1 
Error in line 758:  D5 2 7 4 
Error in line 759:  D6 7 8 9 
Error in line 760:  R6 3 6 8 
Error in line 761:  C9 7 3 3 
Error in line 762:  T4 4 6 3 6 
Error in line 763:  T0 7 5 5 8 
Error in line 764:  R6 2 9 6 
Error in line 765:  D4 8 10 2 
Error in line 766:  C5 6 9 6 
Error in line 767:  T9 7 9 8 8 
Error in line 768:  R5 7 7 6 
Error in line 769:  D0 8 4 7 
Error in line 770:  R9 4 8 3 
Error in line 771:  D4 4 4 8 
Error in line 772:  C0 3 6 5 
Error in line 773:  C8 9 10 3 
Error in line 774:  T5 8 1 5 4 
Error in line 775:  D8 5 5 8 
Error in line 776:  T4 3 8 2 2 
Error in line 777:  T5 5 3 1 9 
Error in line 778:  R0 4 3 6 
Error in line 779:  D6 7 4 6 
Error in line 780:  D0 9 1 2 
Error in line 781:  T6 10 9 10 7 
Error in line 782:  C5 6 9 3 
Error in line 783:  R4 5 8 10 
Error in line 784:  R2 2 9 3 
Error in line 785:  T2 5 6 3 7 
Error in line 786:  R7 5 3 6 
Error in line 787:  C3 10 3 3 
Error in line 788:  R9 7 8 8 
Error in line 789:  R1 4 7 2 
Error in line 790:  R4 9 1 5 
Error in line 791:  R0 8 1 2 
Error in line 792:  D9 5 4 3 
Error in line 793:  D9 3 6 2 
Error in line 794:  R1 6 6 4 
Error in line 795:  T6 5 4 2 2 
Error in line 796:  D2 6 7 10 
Error in line 797:  T5 10 5 3 10 
Error in line 798:  T3 3 2 9 3 
Error in line 799:  R0 2 4 7 
Error in line 800:  C4 1 1 3 
Error in line 801:  D2 7 6 3 
Error in line 802:  R8 10 6 1 
Error in line 803:  D9 8 10 10 
Error in line 804:  C4 1 8 7 
Error in line 805:  C2 9 6 7 
Error in line 806:  D7 5 7 4 
Error in line 807:  C8 2 7 1 
Error in line 808:  C1 1 4 8 
Error in line 809:  T4 9 3 2 2 
Error in line 810:  T6 8 9 5 6 
Error in line 811:  D6 2 7 3 
Error in line 812:  D9 5 1 3 
Error in line 813:  D8 3 8 5 
Error in line 814:  T3 7 4 3 4 
Error in line 815:  R3 7 2 4 
Error in line 816:  T7 8 3 4 2 
Error in line 817:  R7 4 1 8 
Error in line 818:  D6 4 4 4 
Error in line 819:  T6 10 8 8 10 
Error in line 820:  C2 6 6 6 
Error in line 821:  C7 1 4 2 
Error in line 822:  C7 8 7 9 
Error in line 823:  R1 8 5 2 
Error in line 824:  T9 3 1 10 4 
Error in line 825:  R4 9 2 5 
Error in line 826:  T9 5 2 7 8 
Error in line 827:  D4 5 5 5 
Error in line 828:  C8 7 1 8 
Error in line 829:  T4 8 2 9 1 
Error in line 830:  D7 9 8 5 
Error in line 831:  T5 6 9 3 4 
Error in line 832:  T4 8 1 9 2 
Error in line 833:  D6 1 3 8 
Error in line 834:  R7 9 2 8 
Error in line 835:  T7 6 1 9 8 
Error in line 836:  T2 5 9 2 9 
Error in line 837:  R0 2 7 2 
Error in line 838:  T7 8 10 5 2 
Error in line 839:  D4 2 10 1 
Error in line 840:  T3 9 9 4 3 
Error in line 841:  D6 9 6 2 
Error in line 842:  T1 9 10 9 7 
Error in line 843:  D3 3 3 6 
Error in line 844:  T0 5 1 5 3 
Error in line 845:  R7 5 1 7 
Error in line 846:  C7 3 8 8 
Error in line 847:  R3 8 3 8 
Error in line 848:  D3 2 4 6 
Error in line 849:  T7 5 10 10 3 
Error in line 850:  D9 7 6 1 
Error in line 851:  T1 2 6 6 6 
Error in line 852:  D5 8 1 10 
Error in line 853:  C7 8 2 8 
Error in line 854:  T6 7 5 7 4 
Error in line 855:  D9 3 8 3 
Error in line 856:  R3 4 4 6 
Error in line 857:  T9 2 1 8 7 
Error in line 858:  R9 3 2 2 
Error in line 859:  D9 7 1 2 
Error in line 860:  T2 6 4 10 3 
Error in line 861:  C9 3 5 10 
Error in line 862:  T4 5 4 6 10 
Error in line 863:  R9 3 8 5 
Error in line 864:  T5 5 1 5 7 
Error in line 865:  D5 8 8 2 
Error in line 866:  C8 8 10 7 
Error in line 867:  D4 6 7 4 
Error in line 868:  R4 6 4 2 
Error in line 869:  R1 4 9 7 
Error in line 870:  C7 9 8 8 
Error in line 871:  T2 1 6 2 5 
Error in line 872:  C6 3 1 9 
Error in line 873:  C5 8 10 10 
Error in line 874:  T4 3 8 10 4 
Error in line 875:  T5 7 10 8 10 
Error in line 876:  R3 3 2 2 
Error in line 877:  D2 6 4 5 
Error in line 878:  R9 1 4 8 
Error in line 879:  R0 1 8 3 
Error in line 880:  D1 6 4 7 
Error in line 881:  C7 10 1 1 
Error in line 882:  T8 8 2 5 7 
Error in line 883:  C1 7 8 10 
Error in line 884:  R9 8 9 8 
Error in line 885:  C2 2 3 7 
Error in line 886:  T9 5 1 2 1 
Error in line 887:  D0 2 1 5 
Error in line 888:  D3 1 7 8 
Error in line 889:  R3 10 10 7 
Error in line 890:  R5 9 1 10 
Error in line 891:  R5 8 7 9 
Error in line 892:  D4 4 1 8 
Error in line 893:  R6 6 5 8 
Error in line 894:  R9 1 9 8 
Error in line 895:  T2 1 9 4 7 
Error in line 896:  C4 5 4 10 
Error in line 897:  T1 9 3 9 8 
Error in line 898:  C7 6 7 9 
Error in line 899:  R1 5 6 5 
Error in line 900:  D2 9 1 7 
Error in line 901:  C3 4 9 2 
Error in line 902:  T5 7 3 5 8 
Error in line 903:  D2 7 6 5 
Error in line 904:  T4 1 5 5 10 
Error in line 905:  R1 8 6 8 
Error in line 906:  C3 8 7 2 
Error in line 907:  T2 4 1 9 6 
Error in line 908:  T3 7 1 9 1 
Error in line 909:  C2 5 3 3 
Error in line 910:  T4 5 6 10 9 
Error in line 911:  C1 8 9 10 
Error in line 912:  R6 5 5 3 
Error in line 913:  R1 2 2 10 
Error in line 914:  T7 9 1 5 9 
Error in line 915:  T8 3 3 3 6 
Error in line 916:  D0 9 1 4 
Error in line 917:  T5 5 3 10 6 
Error in line 918:  T5 10 9 5 3 
Error in line 919:  R3 8 5 4 
Error in line 920:  R9 5 2 3 
Error in line 921:  C0 6 10 5 
Error in line 922:  R4 3 3 4 
Error in line 923:  R1 6 7 8 
Error in line 924:  R8 7 2 3 
Error in line 925:  D2 7 4 8 
Error in line 926:  T6 6 6 1 3 
Error in line 927:  D7 7 8 5 
Error in line 928:  D6 10 1 7 
Error in line 929:  T6 2 7 3 10 
Error in line 930:  R0 3 2 1 
Error in line 931:  R6 4 4 3 
Error in line 932:  D9 10 1 6 
Error in line 933:  C4 7 1 8 
Error in line 934:  C0 6 2 4 
Error in line 935:  C3 1 3 3 
Error in line 936:  R6 3 7 8 
Error in line 937:  D8 7 8 8 
Error in line 938:  R4 2 1 2 
Error in line 939:  D9 6 3 6 
Error in line 940:  C1 2 8 1 
Error in line 941:  C9 4 2 7 
Error in line 942:  C3 1 9 8 
Error in line 943:  C0 7 10 7 
Error in line 944:  R5 3 1 5 
Error in line 945:  C5 7 10 7 
Error in line 946:  R6 10 10 4 
Error in line 947:  R1 5 2 8 
Error in line 948:  D6 1 8 10 
Error in line 949:  D6 9 6 5 
Error in line 950:  R1 7 9 1 
Error in line 951:  R4 6 1 7 
Error in line 952:  R2 6 2 10 
Error in line 953:  D7 1 9 7 
Error in line 954:  R4 3 9 6 
Error in line 955:  T5 7 7 8 8 
Error in line 956:  R3 9 2 5 
Error in line 957:  C4 1 10 7 
Error in line 958:  T5 7 3 10 8 
Error in line 959:  C7 1 8 9 
Error in line 960:  D5 3 9 5 
Error in line 961:  T8 7 8 7 4 
Error in line 962:  T5 10 6 6 8 
Error in line 963:  C7 9 6 4 
Error in line 964:  T3 10 5 3 3 
Error in line 965:  R7 8 10 1 
Error in line 966:  D8 3 2 5 
Error in line 967:  C4 8 9 4 
Error in line 968:  D0 1 2 3 
Error in line 969:  R0 5 10 9 
Error in line 970:  R3 3 10 5 
Error in line 971:  C6 9 7 8 
Error in line 972:  T4 9 5 6 3 
Error in line 973:  D4 10 1 4 
Error in line 974:  T3 5 9 9 3 
Error in line 975:  R0 10 10 4 
Error in line 976:  T3 6 2 3 8 
Error in line 977:  R4 10 4 10 
Error in line 978:  C0 5 6 2 
Error in line 979:  R0 5 4 1 
Error in line 980:  R1 8 3 6 
Error in line 981:  R7 5 9 8 
Error in line 982:  D2 3 3 3 
Error in line 983:  R8 4 3 2 
Error in line 984:  C5 4 8 6 
Error in line 985:  D3 4 3 4 
Error in line 986:  T3 6 7 9 5 
Error in line 987:  R7 5 9 5 
Error in line 988:  C1 1 6 7 
Error in line 989:  T1 2 2 4 1 
Error in line 990:  C2 10 8 4 
Error in line 991:  T3 7 5 5 4 
Error in line 992:  R4 2 5 9 
Error in line 993:  R0 3 1 5 
Error in line 994:  C7 6 5 4 
Error in line 995:  C7 10 7 9 
Error in line 996:  R8 6 1 2 
Error in line 997:  T4 1 1 3 9 
Error in line 998:  R4 2 6 7 
Error in line 999:  T7 10 4 9 6 
Error in line 1000:  C8 7 3 1 
Warning, unconnected node(s): 0
