Error in line 6: 	     		D4 2  3				 1 	
Error in line 8:  	 R9 6	 	 	 	 5	  		5  	 
Error in line 11:  		 R6	7	 7 		 5  			
Error in line 17: 	D9	7 5 		 	10 		 		 
Error in line 21: 					D8 1 	 			4		4  
Error in line 24:  			R1 	48   				  6			
Error in line 26:     	 T14 	   			7 3  	9 	 		 	
Error in line 27:   D9  		  9		 7  4  
Error in line 28:  	  D0	 8	  9 	 6  		
Error in line 30:     R71  		 7 9   	
Error in line 32: 		 	D6 82		  8  			
Error in line 35:   	 		 R7 			 9 			4 	  3	 	 
Error in line 36: C6 				10  				 4	     	4 	  	 
Error in line 37:    D0 		 			63  5  			 	 
Error in line 38: 			C5 			2	  5 10	
Error in line 40:  			 		C5   9	   1 6 					 	 
Error in line 45: 	  D0	   	 6  	 5   	2 	 	
Error in line 46: 	T1   	    8 	3   	 4   1    	 
Error in line 48: 		  		 T2 		7 	2	 3 8		 
Error in line 49: 	  D1  		8			 		 9	    	4		   		
Error in line 50: 		 D1 8  			 6	 3 
Error in line 52:    D2	 		 6	   	1 	   6		
Error in line 54:   		T11	     	3	   2 1	 	  
Error in line 56:   C1		 		7 	9 		 			1
Error in line 57: 			D3 	 	  6  6 		1	 	
Error in line 60: 		  	 R2 5	   		8		  3   	  
Error in line 61: 		 	C3  7  10 		5	   	 
Error in line 63:   	  	R2   9	 		9	 6 
Error in line 64: 		 		  D5 8	 4  9
Error in line 65:   C1		 	 	4	  	 10  	  	 3   
Error in line 66:  	 		C5 	 	 5	 2	2			  
Error in line 67:   R6	   	  		2 5	  3  		 	
Error in line 68: 		R4   			4     	  	7 			8  		
Error in line 69:  		 D4 	 	10	 	8   7	   			
Error in line 70:  T4 			6  	39 2 			 
Error in line 72: 	 				D5	   1	    	6				 8	  	 	
Error in line 73: 	 R6	 		 	 3				3	    	1  
Error in line 74: 	      D4	  	6   	7			  5		 	 		  
Error in line 75:    	R5 	9	   	8	  		7		  
Error in line 76: 			T3	 	  8				 	10 	  	18  	 		 
Error in line 77: 	C4 	 	73 			 3		  
Error in line 78:   	 	R9 		 	4	   		5 	 		 1
Error in line 79: 	   D45	   	 	  2	    	 2 		
Error in line 80: 				 C3	 	66		1 	
Error in line 81: 				D3 	1   7   10	 
Error in line 83: 	 	  	R8  1 	1			9	 	 	 
Error in line 84: 		 T8 	5	3	  	   10   	7	     	
Error in line 85: 		  	D2		 	6 6  	9					  
Error in line 86:  				D4 	 	5			  83   	
Error in line 88: 				D5   2	 	 2		 5	 
Error in line 89: T3		 	 	3  	 		 	10  	 		  2  					4		  	
Error in line 90: 	T12  	 	 	3		 1			   4 
Error in line 91: 	 R6  	5	   	3  	1			
Error in line 92:  				R3		   	 4	     4	   7	 		
Error in line 93:  	D4	7 		 	10 	5		 
Error in line 94: 		D4					  	2   4	 		9 		
Error in line 95:    	C8   4   	1  			 2	
Error in line 96:    	  	T2 	 	 	  1	9		  	6   10
Error in line 97: 	D7				 	8 	 7	7	
Error in line 99: 	 	 R2		1	 	8		 	 4 	 
Error in line 100: 		 D0	7	 	8 	6 	   	 
Error in line 101: 	 	C0 			8			  6	 	3		 	
Error in line 102: 	  T4		  48		 9	8		 
Error in line 103:  	    	 D6			 	  2 	  	3 		9 
Error in line 104:     D1				 2 7  3	
Error in line 105: 	T1	 	6	 	 3 	  		 	1			 	 		6		  
Error in line 106:  		C7			6  		8   8					  
Error in line 107: 	 	 D6 	4   7			 	 7 	
Error in line 108: 	 	 T1	  	6 10	   		7 2   	
Error in line 109:   		D49				  8				6      	
Error in line 110:   		C3  	1	  	5    8     
Error in line 111:   	D5				6	   3	 	   		3   
Error in line 112:   D9 	   		 28	 		9	
Error in line 113: 	    	 R3	 3		2   5    
Error in line 114:  					 D1 	 		7	  			4	 	 		 3  
Error in line 115:  	  	D3	   10	    	4			 	8	 
Error in line 116:       T1 		  2		 4	  	  6				 	5
Error in line 117: 	T9	 		 2  	 	5			 	7	 3
Error in line 118:  	 		D0   1     	 3 	8 
Error in line 119: 		T1 5	 	 	3	 	9	 	 	6  	
Error in line 120: 			 R8     	2 4	  	1     	
Error in line 121:   			D2	 1		1	  5
Error in line 122:    T1	7	 	 	8		9		 		1			
Error in line 123: 				 	 	R8	  	 8 4  		 2	  		
Error in line 124: 	  				 T5  		 1 4   	   22	  		  
Error in line 125: 	 		 	C5   6		 10  	6	
Error in line 126: 	   C8	1		 		 2  	  		10 	
Error in line 127: 	  	T5		  			9	7  	 		2       3 
Error in line 128:    T0 		 	5	 	 		8			 		 24		 
Error in line 129:  	D9	 		8 4			 6    
Error in line 130:    		  D3	 6 	  4	9		 	 
Error in line 131: D6  			 8	 	10		  3	
Error in line 132:   		 T2	 		7  	  2 2	 2				 	
Error in line 133:  			C3     	 1		9 6 				 	
Error in line 134:   C9	6	  	 3		  5			
Error in line 135:  		 		  	C6		4  		 7		6		   
Error in line 136: 	  			R4			 8  	 	10  7
Error in line 137: 		R0 				  7 	 		4					9	 	 
Error in line 138:  D8	10 	1    3  
Error in line 139:  	 		C1 	7		  			 2 			  	2			
Error in line 140:  D3			 	6 	3  	3      
Error in line 141: 		T8		   	 10  4	  		10		1 		
Error in line 142:    D8		   		6  8  7  			 
Error in line 143: 	R3	8   				 1		    5	
Error in line 145: 	 	  D1	9	 2	 9
Error in line 146: 		  R4 		  	 8  		 9	 		5 		  
Error in line 147:     T6   	  10			  	10			4			 6 				
Error in line 148: C1		  		7  	  5			   6 
Error in line 149: 	C0  	 	10		 		9			 	6  
Error in line 150: 		  	R4	 		 5		 	9		  	 	2	 
Error in line 151:  	C4	4 	    2			8	 
Error in line 152: 		T7  6	6			   57  
Error in line 153: 		 	C8		 	5 		  	 	1	 		8  		  
Error in line 154:  R5 	   	5  9			5
Error in line 155: D3 		 4	8	7		 		   
Error in line 156:  	R7	     5	 		  	 	2	 	1			
Error in line 157: 				R5			8	  7 		 	 	9 	  			
Error in line 158:   		 R8		 		4    	2 	 	 		8 					  
Error in line 159: 			R5			 		3	 10  7 
Error in line 160: 	  	D6		  10 7  	    			5  		
Error in line 161: D4	  			91 6     
Error in line 162: 		 	T36   4    	2		 		  		1  
Error in line 163:  T3	10 3  			8 	2							
Error in line 164: 	T2  		9    		5   	 	9	 			2		  			
Error in line 165:   		D0			 8	7		 		8 	  
Error in line 166:    			 D4 	 1  10	1	
Error in line 167: 			 D3 	 10 	  	  45		
Error in line 168:   		 D8		 9   		6 		6 			 
Error in line 169: 	D9  		 2     10		 	 	 4 
Error in line 170:  	C2 	 	1	   1  	 	  3 	  
Error in line 171: 	 		T4		 9 9		 	 9	 9 	
Error in line 172:   T2					7		 6  		8 6	 
Error in line 173:  R0			 				9	 		 3		    6		 	
Error in line 174: 			D8	 9		  6 	 10	 
Error in line 175: 	 	 	 	R6	 		2				5	 3 		   			
Error in line 176:   	 	 			R510	 	6 9       	
Error in line 177: 			    	R1		 		9	 6  	  	5		
Error in line 178:  C1  	10 		 	3 		  5 
Error in line 179:  	 	 			D6		10	 	6	  7 	
Error in line 180:  C4	 			1 1 	 	 	5  		
Error in line 181:     R1 	 		 5 			4 3    	 		
Error in line 182:   	 	R0 	7   	8 	 	6	  
Error in line 183: T7	8		    	 8						4					 	8 
Error in line 184: 		R8 	 		 3  			6  			10		
Error in line 185:    T4 	 8	   7					 	 6  9	 	 	
Error in line 186: 		C8 		 				9	 				4	  	2 		 	 	  
Error in line 187: 	 C8	  	  9	4  	8 
Error in line 188:  	    D6 	 	3		4 9	 
Error in line 189:   		 C3   	 3	 	  	4   	 5	   		
Error in line 190: 	 	 		R7		 	 	8 5				9 	
Error in line 191:  		C0	   		 3	   10						6 				 	
Error in line 192: 	   D6  				 79	   		10		 
Error in line 193:   D7   3   		 5		4	
Error in line 194:  R0		   4		 5	  	8	
Error in line 195:  	      R15  9				8 	 
Error in line 196: 		D8 	 	1			  8		8
Error in line 197: 	 D1	  7		2		4  		 	
Error in line 198:       T4		 6      6		 	 5  					 	1 
Error in line 199: 	  		D3		 		 8			2  	  2		 			  
Error in line 200:     R8 7	9 8		  	
Error in line 201:    	 	  C9	    9 	  	 6  	 	2				 
Error in line 202:   T0	 2   5  			3	5	  	 
Error in line 203: 	  			 R7  10 		9    	3 	 
Error in line 204: 	   D1   4	   	 4  	  			10	  	
Error in line 205: 			 C2		 5 	 2  			5		  
Error in line 206:  R2	  2  	  4			2	
Error in line 207:  C7			   10 	  	6 				10 	  
Error in line 208: 	 	 D7 	  4    	10   			5	 	  
Error in line 209:  	 D4		 4 5 		 3	 			
Error in line 210:    	   C5 			101 	  	5 	 	
Error in line 211: 		 	 T2	 8	  3 5				10  		 	
Error in line 212: 	 D0 4	  		6			 		3 
Error in line 213: 	R7 	 6 4 5		
Error in line 214: 			  	T3 		1 6		 	 		4 	 		2		  	  	 
Error in line 215: 		 T3					9  	4 	 	5	 4		  	 		
Error in line 216: 	 T6 	  5 			 	 5	 	    9 		 	 	9		 
Error in line 217:  	 T9		 		   1  		 			8	 	4	 		1  			
Error in line 218: D6  		 	 3 		5	7 	
Error in line 219: 	 R0  7	 		8	 	 		7 	  	
Error in line 220: 		 R1 			9 	10	  	 4     			
Error in line 221: 	C0 19   9 
Error in line 222: 	C8		9  	 	7  	 		4 	 
Error in line 223: T9			 	  		3 2    		1 	  	 4    		   
Error in line 224: 	 			R8		76  1 
Error in line 225: 				R5  	 	   6	1		 	1		 	
Error in line 226:  	 		R6		1	 	1  9   
Error in line 227:      T8  	 		4 5			5  	 	  	3 	
Error in line 228: 	 	C9 		   14 6   	
Error in line 229: 	R7					79		2  		 			
Error in line 230: R7		   	 		5 	 	2	10	
Error in line 231: 			  		  D4	4 8 6	  	  
Error in line 232:  T9		5   5	10    	  9 	 		
Error in line 233: 			R3	6     17	
Error in line 234: 	 	 T72 			9 		2  		 3 
Error in line 235:  	 	 	C6	   5	 10	4
Error in line 236:  C1   2	3  	 	 	  10	
Error in line 237:  				T65  					33	9 	
Error in line 238: 		 C7	 			 8 	  2	8			
Error in line 239: C6	 	 	6 				3 		  	1	   
Error in line 240:  C4				 			3 	 	 		9	 	 6   
Error in line 241: 			C8	  10		 3  7   
Error in line 242:  	T7 9	  	5	  			5  	 		6  
Error in line 243:  	 	 	C7		 		 9 		  3      	8		
Error in line 244:  		 		T6 				 	 	99				6 8  
Error in line 245:  		  	 C5 9 	10				2
Error in line 246: 	R6		6							 9		 4		    
Error in line 247: 	 		  	D6	   	10 7				3	 	  	
Error in line 248: 	   	D75  	 5  		  	2	
Error in line 249: 		  	 	D5	  7  	 	5		2 	
Error in line 250: 	  	R6	 			9   	 		7	 	 8 
Error in line 251: 						 R0 	  	 6	  7		7  		
Error in line 252:   	   	D2	 	9 	  1	 	7  	  
Error in line 253:  	 	R9 				 10		 		7	 				  	1		  	 
Error in line 254:  			 		T1		   1 	2 	7   5 		 
Error in line 255:  T0  					 2 	   6		    	7		 		 2		 		
Error in line 256:    		D9			2 6 	7   	
Error in line 257: 		 	 R1  	 	6	 4 			 	4	
Error in line 258:     T2			10	  9 		  8	10	 	
Error in line 259: 	R1   2	1 	1  	 	
Error in line 260:   	  	C7				 		1				  	 6		6	 		 	 
Error in line 261:  	D5 			6  1		 7 	
Error in line 262: 	 	  T2   		 	 	5 	 		9 	 	 4  		8   
Error in line 263:     		D6		8  				4  6	  	 	
Error in line 264:  	 		R8 8			  	7  3	 	 	
Error in line 265:     	 T8 2 		 1   		6 	 	  4   	  	
Error in line 266: 	 	 	R6	 	    		6			2		    	  4	 	
Error in line 267:  	D7 	   10 1   		 	1  	
Error in line 268: 		C4  	1		  	9 	5	 		    
Error in line 269:  		 	 C7     5 10	  	 2  
Error in line 270: 		 R0  321 	 
Error in line 271:  	 	  R9		5 	5		7	  	
Error in line 272: 		 R8							 2  		6	 			 	4
Error in line 273: 	    R9			 			17	 	 	  2 	 
Error in line 274:  C9	2 23 
Error in line 275: 						 D8	 	4 		2	2 
Error in line 276: 		    		R9	   	9 		    3  		   4
Error in line 277:   	 	 T8 6	 10	76
Error in line 278: 						R2  			 2 	6  		  2
Error in line 279: 	 	D6			 	3		 	4			5	 	 		
Error in line 280:   T2				5		 	 1	 7	 		 	 10	  		
Error in line 281: 			T8    1	6	 	3 2 
Error in line 282:     T9 		  9 			 2   3			3	 			
Error in line 283: 						T4 9 		  	1		 			9 6			  
Error in line 284:  	    D5 		8		 	4  	2	 	 	 	
Error in line 285: C2 	3	   	3 4	    
Error in line 286:  			T1	  	 5	 	 9						  	2	 8	  
Error in line 287:   		D7	  	5	 			4	  	  3	
Error in line 288: 		 	D8			5   	6 		 	 3
Error in line 289:  	T9	  	3		3	 	  5		 		6	 
Error in line 290: 	 			T84 			5	  6 5 
Error in line 291: 			 		T2		   10 10	 	 	7   8 
Error in line 292: 			C8		9	  4		   	9	
Error in line 293: 			  C58	     	7 6		 	
Error in line 294:    		T6 	  	5	1  	  7  	 	 10			  	
Error in line 295: 	  C8	  	 	2	  	  		1 	 		1		     
Error in line 296:   	  	D0	  92	 		 8 
Error in line 297:  	 		D7		8	 		  4  		 	1		
Error in line 298:        	R1 2 	5	 	 	8  		
Error in line 299: 	  C2   	 4  	5	 	 	 1    
Error in line 300:  	 	 T9  2 	 	 10 	   10	  	5	
Error in line 301: 	  	R7			 	 	6	8  		 3				 	   
Error in line 302:   T3	 	5 2 10			 5  	 		 	
Error in line 303:  	R6		 2		7	1
Error in line 304:  C8	101	 8	
Error in line 305:   			D2  			  10 4			10 
Error in line 306:  			 T3    10	 			 	86	 	6		 				  
Error in line 307: 	D9	2		   6	 		 4				
Error in line 308:  	  C3  			 	8 	 4  	 7 	 
Error in line 309: 		C3  	 110 	 	4  	 
Error in line 310: 	 T4				3 4  			 2 	 	 		1 	 				
Error in line 311:  	 	C1	 	4	2 	 	5	 		
Error in line 312:  				D1 	7	   6		4
Error in line 313:  			R4 	 	10  9  2	 	
Error in line 314: 	 	T1		10 5		 	  8 		9	 		
Error in line 315:   		  D5 	67  	 		3    
Error in line 316:    	 T3			  6	7		 	3	  	   7	 
Error in line 317: 		 	 	 	C7				   5 				8  		  4 	  		 
Error in line 318:   T2	  	81	 	2 	 1	 
Error in line 319: 	 C9	 	5	6	 2 	 	  	
Error in line 320:  D9 	  	 2 	 2    3			
Error in line 321:   		T8	 	3 10   	 7	5 				 
Error in line 322: 	C4						3 		 3 	9 			 	
Error in line 323:  D2 	 	 	6   1		  	  8 	
Error in line 324: 				C4 3		 1 1		 	 
Error in line 325: 			  R7 5	    5 	   5 
Error in line 326: 	 	 D5  6 9		  	 9	  		
Error in line 327: D0		10 		 	10   1	   
Error in line 328: 				D3	   			10   5  5	 	  
Error in line 329:  		 C0  4	7			8 	
Error in line 330: 	R4		 9		 	8    		5			     	
Error in line 331: 			 	   T9  			5   			5		 1 		 6 	 
Error in line 332:  	   	R610 				8    8 	
Error in line 333: 	  	 	 C5	  	 		1 	  4 	 	 8  
Error in line 334:  	D6	 			 1	  9 			 	9 		  	 
Error in line 335: 	T1   		6	    1	   10	 	8  	   
Error in line 336: 	  	 C7 				 1    	 1  		  5	 	
Error in line 337: 	 	  D9			6  	 		1 	 8
Error in line 338: 			 			C6	   	  	2 		 	 9  			 5  			 
Error in line 339: 				R3 	2	8 		9 		
Error in line 340:  	 	  D5 	    		9	  	 	2			 4  
Error in line 341:  					 R9 7   		 8  	6	
Error in line 342:  			D1    	3		 5   	 	  4		 
Error in line 343: 			D5		 	 	 	5	10      1			 
Error in line 344:  	T8			10  	  			3 6 	5	   	
Error in line 345: 		  C9 	 3	 			 7	 	7  	 		
Error in line 346:  D4	 4	 		 6	   	8   
Error in line 347:   	D4	 10							64  	 		
Error in line 348: 	 	T3		   7    4	2 	 	2 	
Error in line 349:    	T6	1		2 	  	101 
Error in line 350:  			 R92  	5 	  	8 	
Error in line 351: 	  	 	 D7 3	  			  5 5
Error in line 352:  	 	C0	4  	10		 2 	 
Error in line 353: 	  	C7			10 		1   		6				   	
Error in line 354: 		T7	 9			3		 	 	8  8 	  
Error in line 355:  		  R7			  2 	  	 1		  9		 	
Error in line 356: 	 		D1 			 3   		9 	10 	
Error in line 357: 			 T8 1   	 4			 	 4  3				
Error in line 358:  			D7	   	  5 	66 	 	
Error in line 359: 	 	 D9	7  2		2
Error in line 360: R4 		 2   		 1		 		9	
Error in line 361: 	R5	   	9	   6	4	  		
Error in line 362:   	C0 6	      	10 						 3   	 
Error in line 363:  R8  	 	 2 	 	  	7 		  	 1	 
Error in line 364: 	 C06  4		  	 3
Error in line 365:    	T9  6     7 	5  		 10	
Error in line 366: 	 	 D1  	 				7 	    	 6	 	  	3	 
Error in line 367: 	 	T19	  9 10  			8	 		 			
Error in line 368: 					D8					5   3	9  	  	
Error in line 369: 		T5 10		9   6	 				9  	 
Error in line 370: 	C3	   3	  6		  10		 				
Error in line 371: 	C6  7 		 	 			2	7  
Error in line 372:   			D0  			8	    1		 		  1	 
Error in line 373: 		     T5		  		  1 			  5	5			7	
Error in line 374:   	C1 	 			 8	  	   8 						 9   			 
Error in line 375: 	   			R3		10	  5 6  		 
Error in line 376:   T8 7 6 		1	 		7  	 
Error in line 377:  T7 9		  3  	  4		  			4    	 	
Error in line 378: 		D4 	 	10 10 	  7	
Error in line 379: 	 D9			 	  8 10  2		
Error in line 380:   		T6 	  6 		 3		10 		 7   	 	
Error in line 381: 	 R8 5   4	    1  		  
Error in line 382:   T4 	1 	  2  1 	 		10	  	
Error in line 383: 			 		R1 		  5		9	 			7 	
Error in line 384:  D7 		8 	6	5	  			
Error in line 385: 			  C3 	7			 8 		5     
Error in line 386: 	  C9	 	  		5	8 		 		10			 	   
Error in line 387: 	  D2	 					 10		5	 		 	5		 
Error in line 388:  	    D2 	 		5 	     3					3			
Error in line 389:    C6	  	 4 		 	7 1 	 
Error in line 390: 	 	 	 	T8  10	  	 	8	  		6 	 3 			
Error in line 391: 		  R3 4 		5 	 	7			
Error in line 392: 	   	C5 6	  8 	 	 		 3		  
Error in line 393: 	C1		  8		8 1		 	
Error in line 394:    T8 			 102			3  		7 			 	
Error in line 395: 	 C7	 	   6  	8 				2		
Error in line 396: 		 	     R6   	 	  7	  1 		 5			 	
Error in line 397:   			 				T3	    	5  	 		6		 	 10	 6	
Error in line 398: 	  D7    		8	  	 1					 	 9	 
Error in line 399:  		   	D5  8		   3	10	 	 	
Error in line 400: 		 R3	9		 6 		 	 	 5 
Error in line 401: 				   D1		   		8			  	10	  			2	
Error in line 402: 			D5	 8   		6  	7 		
Error in line 403: 		 	C0 	 	10	   	 	 9	 	9  
Error in line 404:  		   	D3 6		   5	9	 	  		
Error in line 405: 	   R3		8  	8   	   6				
Error in line 406:    	 	 R0 			  	9  	8	  			 7  	 
Error in line 407:     	D3	 	 		  6  8  9  		 
Error in line 408:  	D9  	  		2		 		8	 	 	6   		
Error in line 409:    C5   	5	2		7				  	
Error in line 410:  		 		 C7	 			10	 5  	 10		
Error in line 411:   		R0  		   7	 	9		4				
Error in line 412: 	C610	 7  				 	10	 
Error in line 413: 	   			T4	  	 6  	 	 10 	 			 1					4					 
Error in line 414:  		R1	9   		  2		10	 	
Error in line 415:   	C8 	 	8  		   3    2 	
Error in line 416:   		   R9 	 	9 1	 9 
Error in line 417:    	C3	1	 	 7 		9						 
Error in line 418: 	 T1 10	 10 		5		  	3 
Error in line 419: 		R6	4	  	5  	2	 	 
Error in line 420: 			 		R4	9	 	   2   1
Error in line 421: 		    C4   	  	71 	  			3				 
Error in line 422: 	  R7 			63		 		  10 	
Error in line 423:     	 	 C3	 	 2  6		8	 
Error in line 424: T4	 4			  		 7 	3 	    8	  	 	 	
Error in line 425:   				R2	  	5			 			5    10   
Error in line 426:  			  T2	  	 	 10	 3 	 			8 	   8		
Error in line 427: 		 	 T8		  10				10  	 		9		9 	     	 	
Error in line 428:  		C7	 	 			1	 4		  4			  	 
Error in line 429:   	  T3 2  	  			10	      10  	  	2 
Error in line 430:   	T5 	  8 5   	 5			5
Error in line 431: 	 			D3  	9	 	4			7		   
Error in line 432: 	 	  D2		 	10 		4    2		 
Error in line 433: 	  D0						1  	 		5 			 	6	
Error in line 434:   	 D9 	 6 	  	6		    6     
Error in line 435: 	 	R5 9 5  			5	
Error in line 436:   	R9 	    7	   		9 	  9			  
Error in line 437:  	R8 		1 	7 3  			
Error in line 438:  			  R1  		 7		   	1		      5      
Error in line 439:     		 C5	10	 	 5   		3 	
Error in line 440: 	    D9		 	 10   4  	2 	  
Error in line 441: 	 	R2			 	10	 2 	  		  8				
Error in line 442: 			 C8		  	  	10	 		7	  	5   
Error in line 443:     C9  4 	82 	
Error in line 444: 		 	 			C3 3	 		 	1	2 
Error in line 445: 		    R0		 			9 9	 		5 
Error in line 446:   D9 10	10	10	 
Error in line 447: 	C2	   5 	   7			   2		  
Error in line 448: 	C74  		8 	 		 4 
Error in line 449:  	T5 			 5 9	6 9 
Error in line 450: 		   C4			4	 	 	5 	  	10		 	 
Error in line 451:   	 D48  	 		1		  5  	 
Error in line 452:  T0 9	  	  	 4	 9	 	8 	 		
Error in line 453:     C3 6					 	 6   	 7    
Error in line 454:   T1  			3  3 7	  			 7		
Error in line 455: 			C4 	7	   	8  2			 
Error in line 456: 	D7 	2  4	 		7 			
Error in line 457:   T8			  	 	3		  		10 		  9 	 	7 	 		  
Error in line 458:  	C5 	  	1 	 	  5 	 		 	3		 		
Error in line 459:  		 		C7	  9	 				2     		1		  
Error in line 460:   		 T1 		  4				 7			 	10	 	  2		 
Error in line 461:   		 	  T91	 	 	  	7	    7 	 2 	 
Error in line 462: 	 	C9  		 10  	 37 	  	
Error in line 463: R5	   2	  2		 		 4		 		
Error in line 464:   		C0 9	 		 8  2    	 
Error in line 465:  R7	 	  9  		 8 	7 			
Error in line 466: T1		  	8 	8   	 			 8		 	8 			
Error in line 467:  	 	 	 D6 2 	 	7 	 8  		 		
Error in line 468: 		D0  				7	4 	  	9  	 	 	
Error in line 469:  			 	 	D3	   		1		5 		  		9	
Error in line 470:  	  	C3 5 		 9 	  	5	 	
Error in line 471:  	 	 C510  		6   10 
Error in line 472: 	   D8  		   8	 				 	1	  4			
Error in line 473:   C1			 		3 8 	 	6	  		
Error in line 474: 	R0	  		6  		5		  					7
Error in line 475:  	  	  C4	 	 		 	 3		 16 
Error in line 476:  	   D9		6 	   	 4   2 
Error in line 477: 			 C1 	4		 		4 	 	 	 3			 
Error in line 478: 	 	 	D8 5 		3 3	 
Error in line 479: 	 R1 		 	1	  6	 			 4	 	
Error in line 480:  	C3  	   5		5 	 	 	3		 		 
Error in line 481:  T4 9 				1			  3			  6			  	 
Error in line 482: 	 C2 	  5			9  	9  	 		
Error in line 483: 	 			 T32 		4		   8			8 			 	
Error in line 484:  	D2  	 		  87 	3   
Error in line 485:  		T2	2	 9						8	2 	   	
Error in line 486:   	 		D4 	 2		  10   			  6  	
Error in line 487: 	 	T1	 	  	8  			8 	1				 4
Error in line 488: 	 D0	1	2 	  	 	 10 	  
Error in line 489:   T2   1					 	 3  	 1	 				9		  	
Error in line 490: 	 T7  10			   	 3  	 7		 	9	   	
Error in line 491: 	 D43  4					 9 	
Error in line 492: 	  D3				7 	   	8			7	
Error in line 493: 	C2		8				7	8     
Error in line 494: 	 	 	  C48 		  	8  7  		
Error in line 495:    T9	5				  5	8 	 8 		
Error in line 496:  		 	R4 						7	 	 	 4	 2	 			   
Error in line 497: 	 D5	 	 	1 		4  3  		
Error in line 498:   	D4	8 		 			 7 	7  
Error in line 499: 		 	R4	1  		6		 	 	1	   	
Error in line 500:  		 	  T6 	4   		 10 	    3	  	 9  	
Error in line 501:     C0 	2	9 			 	3 	 	
Error in line 502:  	 	R1		  	10 	 	10		  2 	   	
Error in line 503: 		  D7	   10   	 1	 	 		1		 	 	
Error in line 504:     C2 71	6  
Error in line 505: 	    D0	1						 8	2 					 
Error in line 506:   				C3	8		5		2 	 
Error in line 507: 			C2  	 5		7	   5
Error in line 508: R3	    	  59		  2	    	 
Error in line 509: 		T9	 		9 					6	 1		 2	 
Error in line 510:      T7  	 	  5 			8  	1	6 	
Error in line 511: 	 	   D3		9		 		 7		 		7	 
Error in line 512:   	D1   		61 	   		5  
Error in line 513: T1  				 7  			1		2		  2  	 
Error in line 514:     	 		T1    	4 6   4 5	 		 
Error in line 515:  	 	  	T4	 	8	 7  	    10  7	 
Error in line 516:    	T2  			8	   7	 8 	  	 8	 	
Error in line 517: 	D8	 		 2 5  		 7		  		  
Error in line 518:  	R2 8 	109
Error in line 519:    T5	 3 	3		7	 9			
Error in line 520:     	C6 		2  			  8	  	 			9	  	
Error in line 521:  		D2	 5			 	 1      	3 
Error in line 522:   R6	2   		 		7	 		 2		  
Error in line 523: 	  	R7  			2	 	2	9	 	   
Error in line 524:  		 		 D3 	 10	  	 2	 	   6		 					  
Error in line 525:  T4 	 	2 	1 				4	 			2		   	 	
Error in line 526: T3		6 		85  	   7		 	
Error in line 527:  R4	 	 6        10	 				5  		 		
Error in line 528:     T8	 		 2	 3 	  3  	 	7		 	
Error in line 529: 	 C4	 	  7	 			9	 	3   
Error in line 530:  	T0			7 	  8  	4			  10	
Error in line 531:   	C3		 		4 2 		   10		
Error in line 532: 		 	 	 R1		 	1   7  		9		 
Error in line 533:  T5		 1      	8			7		 	 	1	 	  	
Error in line 534: 	C2 	 1	 8	6    	
Error in line 535: 	 	D2 		 1  	 		5  		5		  		 
Error in line 536: 		  D1 8     	7	 7	
Error in line 537: 				 C3			  	 6 	 		2		  	10			 
Error in line 538: 				 	  C9  		3	 	 		8 	 2					 
Error in line 539:  C7  	2 9	  6	    		 	
Error in line 540:      R03		   		9		 		 	8  
Error in line 541: 	 	  T9	    4 1	  		8 		 		 4   		
Error in line 542:  	 T21	2 	  2	 5  	 
Error in line 543: 		 D0	7 10		4	
Error in line 544:    C5		 4		 1   	 	3 
Error in line 545:  C3	7 	8  			1		
Error in line 546:    	   C9    2 9 	9   	
Error in line 547: 		C2 		 			9 		 3	 		 4 	  
Error in line 548:  		D5 4	 			7			 4		  
Error in line 549: 		  	  T6	 8 	  	4	6	7 		 
Error in line 550:   	R8	  	  	9	 56
Error in line 551: 	C2  10 10 8			    		
Error in line 552:    	 	 D4     8 		10   	4 
Error in line 553: 					C4 	 85 8	 
Error in line 554:   T1	  3 2	    		 4	6  
Error in line 555:  R1	 5	 				4 	   3 	 
Error in line 556: 				 C9 	4  	 	10	 	 3 	
Error in line 557: 		 	D4		  	 	 4	 9	 3  		
Error in line 558:  	C1 	 	 		 6 		4 		10 
Error in line 559: T0		81 	 9 9	  		 
Error in line 560:  					R8	 	4 	  2		8  
Error in line 561:  	   D5			2    	 10    	 6	 
Error in line 562: 		C6		55			1  	 
Error in line 563: 	T6 	 		2   		6		1		1	
Error in line 564:  		 T4  	  	4 	 	6   10 		 8 
Error in line 565:  		D2 		4 	 			4		  		 7	 	  
Error in line 566:  	  R7	    2	 		 	1	 			5 	 	
Error in line 567: 	 	C9			 9 6 	3   	
Error in line 568: 		 R4  				1		 		 3	 	 		5  	
Error in line 569:  		 	D9   		1	10		 		5 	   
Error in line 570: 	 	 	D7 	 	 8	 10 		  9 	 
Error in line 571: 	 	 	R7  5  	5		 	5      	
Error in line 572:  			 R6	8			 		 6	 3	 
Error in line 573: 	 	  D8  5	4 	 9		
Error in line 574: 		D5 		 	 4  	 9 7 		 		 
Error in line 575:  C3	6    	10  		 10				   
Error in line 576: 	 	R2 	  	 6	4	2		   	
Error in line 577:   	  C4	 	1	 	 8 6 					
Error in line 578:   D1		 4	  	  5	2	 		 	
Error in line 579:   R2	   1				3	  	 1  	
Error in line 580: 	 C9				   9 	  	6	5 
Error in line 581:  		 	C1	   3 			 8		2			
Error in line 582:  	 R9 9	    9 	6  	 	 
Error in line 583:    	 C4	 		 8   		 10 	 5	  
Error in line 584: 		 	 T6		 7		  	 8	9			2 	
Error in line 585: 				 T0 	   	 	7 				 	6 7  5	 		 	
Error in line 586:  	  D3	 				1 	  		3	  	4		  
Error in line 587:  T8				  		9	  	7   	 10	 	  	  3
Error in line 588:  T2 1		  		7  5	  	 3	 
Error in line 589:  			 	C8 	 			5	 		81				 	
Error in line 590: 				D4	 3	9 		10 
Error in line 591:   	 T0  		5 		  	2 	9 	    8 			 
Error in line 592:  T8		75  	97				 
Error in line 593:  	 	D0	 		  10 	 	3	 	  		9	  	 
Error in line 594: 	  R6   	 6	 7	   4   	 		
Error in line 595:   C6	 	  8 	 3	 	 1	  		 		
Error in line 596:    	 C2  	3   4	  7			 
Error in line 597:  C2 	   	1			4		  1 	  	 	
Error in line 598: 	D2	 	 	 4 		8  6 	 
Error in line 599:  T3			10		 			 8	 	  9			10		  	
Error in line 600:   		 R0 9			1	 	1	   
Error in line 601:  		C7 7    6	 1		 
Error in line 602:  C1		  8	5	2       
Error in line 603:  	 		R6  9	4	  8	 					 
Error in line 604: 				 	 R2	   		10		     6		 	 		6    	  
Error in line 605: 		 D4	2 1		 	 	1 	 	
Error in line 606:  R6 		 	3	    4   3	  		 
Error in line 607:   		T7		7		10	9	 8  
Error in line 608: D5 		 4 		  	1	  10		
Error in line 609:   D5	 		 		9 9  8  		 
Error in line 610:   	    C0	    		 10  	 		5		5 	 			
Error in line 611: C4	 8		 9 	   4		
Error in line 612: 		C9		  8			2 		   9			
Error in line 613: 						C2		   10   		 4	9  
Error in line 614: 			 	 R8	2 	  			10		8   	 			
Error in line 615:  	R0 			   1 				5	 5			 
Error in line 616: 	  			C2	 6	8	 9   	
Error in line 617:  		 C9 10				8 	 	 4
Error in line 618:  			 	C0  9		5   	  	3 		
Error in line 619:   	 C610	  	2  	   	 9 
Error in line 620:  C7 3			 7	 		 	 3					
Error in line 621:  	C5    	10	  6 				 	 5 
Error in line 622:  	 R1 				4   		2	   8 	  		 
Error in line 623: 	D7	7 6   			4 
Error in line 624: 			  C9 					5 8  3 
Error in line 625:  	   	D6  1	8   	 	 	8		 	
Error in line 626: 			 		C5		 	7	6   	9   	
Error in line 627: 			C5 3  	 	 3	6 	  	 
Error in line 628: 	 		 R4    			5 					 21	   
Error in line 629: 				R8  	    95  		4
Error in line 630:    R5 		6		 	4  		 		10 				
Error in line 631: 	 R8 	 10   	 	  8 		 	4			
Error in line 632:  	 	T4					10  	    8	 	7  		 	 1 	 		
Error in line 633: 		  T2	 	 2			 1	 			3				 	 	3  
Error in line 634: T5	9		 	 	6 9	  7		  	
Error in line 635: 	C5   		 1	9			5
Error in line 636:   		R4 	3  	 	10 	2	 	
Error in line 637:   				  C4	 	 	 		69	8	
Error in line 638: 	 	R3  	 		 10    		8   	   3	  
Error in line 639: 			D1		    		 7  	1 	  		5	  	
Error in line 640:   			C7	 	  	3	7	 		3 	 			 	
Error in line 641:  C0		 	 78   			 4  	  	
Error in line 642:    		 	 T1	1	10 	  	2 	  	 2		 	  
Error in line 643:  		C2	 3   1	7  	   
Error in line 644:       R7		 8  	9 		7	 	  
Error in line 645:  		 	D7	 		5					6  	 4	 
Error in line 646: 			T5 	8 10 	 	7							1	  	 
Error in line 647:    D9  	5	 	 		9 	6 
Error in line 648:  T1 			 		7			 		 2 	 4		4   	  	 
Error in line 649:  T9	 7	 	 	6   8			8	  		
Error in line 650: 	  C5	6	 			  9 2 
Error in line 651:  			T2	5 	4 9	 1 	 	   
Error in line 652:     		C7		6	8  				 9	 		 	
Error in line 653: 	 	 T22 5	 	9 	   	 		4  
Error in line 654: 	D3	 	 	 	9	 		9	 	 9 	   	
Error in line 655:  D3		 2	6    	1		  	 
Error in line 656: 	R4 		6  3	   9	  
Error in line 657: 	 		D0  		 		9	4  	 6 			
Error in line 658: 	D3 	10  2  	  3 		
Error in line 659: 		R6  8   			 6 	 			8	
Error in line 660: 			 	D4			2	 			 4				3	 
Error in line 661:  R5 	 	7  	4 8	 		 
Error in line 662: 	   	C6 	  8 	5 6
Error in line 663:   	C8 			6		4 4	 		
Error in line 664:   	  T4	4 		5 	6  		   5 	   
Error in line 665:   		 			R3	 10 	1  	 5	 
Error in line 666:  R2	7		8	2    
Error in line 667:  						T2	8 33	 7  	
Error in line 668:      	C4				 	 6 	6		 				 10 		  
Error in line 669:    		T9				  			1  	5 		 9  7   	
Error in line 670:      	R0 		8		2 9  	 	 
Error in line 671:   	 	C6 			  	1	 		7 						10		     		
Error in line 672:    	 C7   10		  6		 10 	
Error in line 673: 			 C8   	   8     4	5 		 			 
Error in line 674:    	    C0		   	9  	  3    1	
Error in line 675:     C8	 	 			9 		   8  7	
Error in line 676: 			   R5					  89	2  	
Error in line 677:   	T8 	7 			1	4	  	3	 
Error in line 678:   			 C7				2		7 8	 				
Error in line 679: 	 	 	R9 			9  	9	   3 	
Error in line 680:   		T0		   	 8 	   2	 	10			2 				
Error in line 681: 		T2	 7				2	 		9  				2
Error in line 682: 	 C6 	1   	51	 
Error in line 683:  		 C2		  6		8	  			 9
Error in line 684: 	 	  R8 84			9  		  	
Error in line 685: 			C6 7	  910   
Error in line 686: 				D2	6 		1	 			7 	
Error in line 687:  	  		C1	 	2 			10						4 
Error in line 688:   C3 6   	5	 3  	
Error in line 689: 	 	R2    7	  	 	  5  	   9  			 	 	
Error in line 690: T5		5 		 	 	7  2	 3
Error in line 691: 		 	R8	 	7		8	 5 				
Error in line 692:  	  T9	6 1 8 	 	6		 
Error in line 693: 	T4	  	 3		4	  	 10 8	
Error in line 694:  T1				   	8   	5 7	 	 		  	2    	
Error in line 695: 		C4 	 	 2 		 7 			4 		  
Error in line 696: 	  		T5		   3 4			10  3  
Error in line 697:  R0			9	  		 		2		    4		 
Error in line 698: R25 9	5 
Error in line 699:  D3				10 	7	     	7	    	 
Error in line 700:  			R6 	 22      7		 
Error in line 701: 			 	 D4 	7	 		10	4   
Error in line 702:  R1 3		 	 		3			3 		 
Error in line 703:      C7		5	  9		8			
Error in line 704:    	D8  	9		4		 	  	3 	  	 
Error in line 705: 	C7 		  5   	9 3		
Error in line 706: 	    C3		 		8		 	106 
Error in line 707:  		  	T2	  2 		 		5	 	  	 7  8 	 
Error in line 708:  		 	T8	 5     	 	1	10			 		 	1   
Error in line 709:  	R87		9 		  6	  	 
Error in line 710: 		   		C5	9	 2   3 		 
Error in line 711:  	 R3 	    	5 2	 	   	 3
Error in line 712:     	 		R2	  	 	6 		 	   	 1		 	   3		  
Error in line 713:   		  		D0 	 		   8    78
Error in line 714: 			   	T6  2  			 		6 		 4			 6	
Error in line 715:   	 			   R348 		 3  	
Error in line 716:  	  	 C3	3		  6  8 	
Error in line 717: 	 	T0  		 7				8   	3		4	 	 	
Error in line 718:  C5    		6	75
Error in line 719: 	 	C1	9   3 	 	4  	 	
Error in line 720:  	   C1 				9 	 8  1	  	 	 	
Error in line 721: C9		 	7					10 			2  	 	 	
Error in line 722: T2 			5 55	6			
Error in line 723:  	 C2 		 	4		 1	1  		
Error in line 724:    D6 	 	7 		6	 3  				
Error in line 725:  	 	 		 R8			 		3  			 5	4 
Error in line 726: 					  C1		 5  	  9 2 	   	 	
Error in line 727:  C2		8 					1	10 			
Error in line 728: R8	  			7 	 		  8					6  	
Error in line 729:   	C5			7			8	    10 	
Error in line 730:  		C4    		2 	4		8   		
Error in line 731:     R5  	  	 82 	8 	 
Error in line 732: 	D5	  	 10		10 3 
Error in line 733: 	   T8 1			  10  	 4	3 	 	 
Error in line 734: 			  D3  	   9	1			  3 
Error in line 735:     		T4		  5 	  	  5 		  7		    6  
Error in line 736: R9	 8			 		4 			 		3
Error in line 737: 			  	T0		   	4  	 3 3  	  		 4	 	 	
Error in line 738: 	 C1 10    		4	8			
Error in line 739: 	R2		 3   	 6  	6	 	   
Error in line 740:   C8 	  		6	 		  	3	   5
Error in line 741: 			R1		10 	 8		  	 	 5 	
Error in line 742: R1 	 	4  		1	10			 		 
Error in line 743:   C9 			 	35	4					  
Error in line 744: T9	   9	 			4   710  	 	 	 
Error in line 745:   	D3	 	5	  5	 			1 	 
Error in line 746:   		 D5   		2 	 	  7 	 6   		 
Error in line 747:  	 	R2 		 	3	 7    		5				 		 	 
Error in line 748: 	C0		 	8		 			1 	 2		 
Error in line 749:  C2	  5 		 			  6			  4	     		
Error in line 750:  	 	   T6  3		   	 10	 2			1	   
Error in line 751:     	C5		 5	   				6	  4				
Error in line 752: 	D3 	   	5 		8	 	 		5 	   	 
Error in line 753:    D1	 		4			  8			 	8			    	
Error in line 754: 	 	  D9	  	 		9	 				 		 8 	 	7		 			 		
Error in line 755:  			R6		  	10 					 7	8 
Error in line 756:   	C1 	 	 	5 	   	 8   	10	
Error in line 757: 		 				D0	10		3  4   
Error in line 758: 			 	 R52			2 4  			
Error in line 759: 	R4  			6  1	  	6		 	
Error in line 760:       C4  4	 	 9  	 3 			 
Error in line 761: 		 	 R4 				1	 			 5 					6	  
Error in line 762:   	  R9		9	 	   8 	   	7 	
Error in line 763:  	D6 	 	6 		 	7 	8  
Error in line 764: 			 	C2		7  	 8		 8  	 
Error in line 765: 	  	 	C2 		 6	 	1   6	 	 
Error in line 766:  	 	   	R2 1  5	  	7 
Error in line 767:  C6		9	   	 	3		 9  
Error in line 768:   			T0	   	8		3 	8	 	 2 		
Error in line 769:  	C13    1		 	1  	 
Error in line 770: 			 		 C0	  8	9		5 	   		  
Error in line 771:   D3	8  			 		10	 	 7		   
Error in line 772:  C5  10			4	 4    
Error in line 773: 	 	D2   4		1	   	5	  		  	 
Error in line 774: 	 D7				 	  3   	 	 9  3	
Error in line 775:  T8			 	3	 					1	  	10	  	4				
Error in line 776:  		 D8		    6			  	 9		8	 		
Error in line 777: R0	  	 6   3		 	6	 	 		
Error in line 778:   	  	  R0		 		  2 	 	  	6	 	  	9  
Error in line 779:  	D2    	1			 75 	
Error in line 780: 	C8		1	  2 	   7  		
Error in line 781: 	 C3 	910			 	5 		 
Error in line 782:     R5	  	  4	 8  		 			3	 
Error in line 783:  	   	R5 	 4			8	9	
Error in line 784: 	 R4			 	 	 10 	 8 1		   
Error in line 785:  		  D3	  	    1			 	9  	 		9 						
Error in line 786:  T8	  8 9 	 			1		6 	 	 	
Error in line 787: 	 D1 	   	3 	7  6	  		
Error in line 788:   T0	 	   6	 		7 	  		3	 		10			  	
Error in line 789: 	   	C3							9 	8     3 		
Error in line 790:   R7	   	9  		 29		 
Error in line 791:  	 	 R9		  66 8 		 
Error in line 792: 			 C2    3   	  		1     6	
Error in line 793: 	C3		 	 	21 			3 				 	
Error in line 794:  		 	R3				  7 	 8	 		 	4	
Error in line 795: T4 8 4  10  				2  	 	  
Error in line 796:    T7 1	 7			  10			 	 8	
Error in line 797: 	  	 	C7  	 3	  	5  	  10
Error in line 798: 	  	 C9	9			9		6   		
Error in line 799: 	 D1  	 		  10				8	1	
Error in line 800:   T4	  	 7 10		  			4 		5  			 
Error in line 801: 	 		T1	 9	 	 5	 	  8  1 
Error in line 802: 	 	 C4		  105	 		8	
Error in line 803: 	C2  		6 		  7  7   	 
Error in line 804: R7   1 		 4	 	2 		  
Error in line 805:  	 C3  		  	6 	8		  9 	
Error in line 806: 	 T4     	2 	9 		 	 5			 	6	
Error in line 807:      	R4   	5	10 	 	2 
Error in line 808:  	 	 		R1	 3	  5	 		 9	    		
Error in line 809:  	  D1 	     8 			9		 	 10		  
Error in line 810:  		T3	10   		 3 		69   	
Error in line 811: 		 	D5	  			 	8	 4 	   	5	    	
Error in line 812: 	 T8	 		 4 4 	 	 6	   8  	   
Error in line 813: 				 D4  	2	     7    2 	 
Error in line 814: 				D0  5  	 9  	 2	  	  
Error in line 815:        C5 6   4	 	 2 			
Error in line 816: 	C6	 		7    	 		9	3
Error in line 817: 		   	T9	  		 	7     	 2 3	 	4			  			
Error in line 818:   	T4					 	2 	  1			1		 		1	
Error in line 819:  R1		  8 	 		7		 		 4		  	
Error in line 820:  R4	   		10	 	10	 6  	
Error in line 821:  	T0	  10	 	  1	   8 8 		  
Error in line 822: 	 T2     6		 	5  410  	
Error in line 823: 		   	D9	 	 2	 3 	   7
Error in line 824:  	 R3	 	8	  	  7	1	   	 
Error in line 825: 	  	T7	 	8	  4 	8	  1
Error in line 826:  C3     7	 	5		7					
Error in line 827: 	 			 	R4  		 		10	 9		 2			 	 
Error in line 828: 		 		 T8	   	6  	  	10 		 5	 10  
Error in line 829: 	D7			 		10  	  9				6	 			 
Error in line 830: 	C1  6 	 		9 			9   
Error in line 831:  				D2 9 	 		 	10   3		 	
Error in line 832: 	 	D11	  	9  	 6				   	
Error in line 833: 		 D5	 9   	7	  	10	
Error in line 834: 	 	R9  		7	 		 	10	 8		  	
Error in line 835: 	 	 D3 					3	  10  	4 		  	
Error in line 836:  	 T2 103			   2 		3   
Error in line 837:  D4		 5 	 3    	  	1 		 
Error in line 838: 	 	 T2		  	  5 	 	1	 7	5  
Error in line 839: 	 		D5	  			5  	1  	 9	
Error in line 840: 	 		   D4 	3 						1 		3  				
Error in line 841:   R4 				 5 			 3			 		8	
Error in line 842: 	 	C9  	3  		2	   1  		
Error in line 843: 	  		C9    	2  	 7		 		2
Error in line 844: 	 		  	T6 	7	 	 3	  10	 	  5	
Error in line 845: 		 			T1	6			 9			5 	5
Error in line 846: 	  			R8 		10			7 	  5   	
Error in line 847: 	 				D5		103	1 	  	
Error in line 848: 		 		D8  	7	  	 			7 			10		 	
Error in line 849: 	C8   7 17 	   			
Error in line 850: 	T4 	    5	 6 86
Error in line 851:    	R5				 7   9  6		   
Error in line 852: 	  T0  			 3 		 	 2	  	 9  	 	9  
Error in line 853: 	T8 	22   4 			4  
Error in line 854:  	D0  8 	 9 	 	10 	 
Error in line 855:   C2 	10	 		  	9		 	3	  			
Error in line 856:  	  		R6		9 8		10		 	 		
Error in line 857:  R310		10 10
Error in line 858:  R9 				3		 1    	7  	
Error in line 859:   	  D6				10 	 9 	  7	
Error in line 860:  C7    	3	 3 	   10 
Error in line 861:  D8 		6	 		7	 4		 	
Error in line 862: 	  	  R2   7						7					 4 		  	
Error in line 863: 	  R5 2			10 3   
Error in line 864:     	 R6		 	  9		 10			 5 	 
Error in line 865:     D7 9  			 3		 			6   		 
Error in line 866:    		 	C9 		 3 	 10	   		4   		
Error in line 867: 	  	   D2	 		 	6    	10	 	3			
Error in line 868:    T3 	 		510   		8			3		 	 
Error in line 869: 			T9 	 9	 			5			  7 9	 	
Error in line 870: 	 	 D0		4  5     4 
Error in line 871: 			C6  	5  	5			2  	 
Error in line 872: 	 	 		D7   	   9	  	 7 			 		7     
Error in line 873: 			R2  	 7    	8		 5		
Error in line 874: 			D2	 			 6	   2				 7  
Error in line 875:  		 	 D3	 1	 5		  5  	
Error in line 876:  T7  	 8		8		 9 					10						
Error in line 877:  	   		D3		    4 	 		   5	9 
Error in line 878: 	   T9	   		9  	 9	 8			 	5   	 	
Error in line 879:   	  T4		 	4 	7	  1	  9 	
Error in line 880:  	D2 8  10			  		4	  			
Error in line 881:  	D42 	2	 9 			
Error in line 882: 		C2 	    			7		 	   4	  	 	 	2	  
Error in line 883:   	C4	  	4	3	 	 8	
Error in line 884:   	  	 R7   	 82 	  1	 		
Error in line 885: 			 D3	 	 			 10		   24		 	
Error in line 886:   		D6 	  	1 			1 	6 		 
Error in line 887:  		 R4	 5	 3 3  	  
Error in line 888: 		 		  D7	    9  		 		 8	6	 	
Error in line 889: 	  R4	   7	 7  	 10  	
Error in line 890: 	 T7 3  	  	3 			 9   				1	  
Error in line 891:      T2		 		7 				10	 			9	  		 2
Error in line 892: 		 	T5 	 	6 10 3	9 	  	  	 
Error in line 893:  	   		C1	 8	9 			  3   
Error in line 894: 		 	 D0	  10	 	 7 4 	 
Error in line 895:  	  D2 	 			95 1  	
Error in line 896: 		 		R5		7	 	 9	 	 	 		8		
Error in line 897: 	D8   		4   6	10  	 	 	
Error in line 898: 	 		     D3		8	4    6 		  	
Error in line 899:  	  T3 	 92	 7   		 6  
Error in line 900:  	  R5	10 	  		10   	 3  	 			
Error in line 901:   R0 	    2 		  10			8		 			
Error in line 902:  C8	4 9  	 10 	 
Error in line 903: 			 T5  	 	  6	  		2 			 	4 		 10  
Error in line 904: 	  T1	  6  1 		  8  		4	  	 
Error in line 905: 	  C9  	  	9	  	8	   		8	  	 			 
Error in line 906:  T3		 	7	 	5	   5   10 	 
Error in line 907: 			T9		8  	 	3	  9		 4 
Error in line 908: 	 D4	10	10 3			
Error in line 909:   C3 	9   	 	5	8				 
Error in line 910: 			 	 R26	 		65 	  
Error in line 911:  	 T9		 		 4 	 	 	15		 4    	
Error in line 912: 	R7	 	  		9 	8		 	 	3   	 	  
Error in line 913: 	 	C7 	  	 		5		  		101	 	  	
Error in line 914: 	  T4 				 	 	4			  7   	 		 	8	7	 	
Error in line 915:  	 	  D6  3	  	  6	3				 	
Error in line 916:   	 	C5 8 		  5 3	 
Error in line 917: D6			4 				810	  
Error in line 918: 		 		R1  	3	 59		   
Error in line 919: 	 	D5 5	 	3		9		  	 
Error in line 920:  	 R0 	7	 	  			4  		  3	 	 	 
Error in line 921: 	 D4 		 		5  				  8	10		 	   
Error in line 922:    R9	  	4 8   		3 				
Error in line 923:     	R1		 		 3				5 			  10   
Error in line 924: 	  R2  			  5  1 8	
Error in line 925: 	R8					2	 		   		4   	 		 8 		 			
Error in line 926:  T2	  	 8		3   	7 	2     
Error in line 927:   R0	  9	 10 				 		5	
Error in line 928:   D6 4				 			2	 	  2
Error in line 929:   	 R8	 	8	    		 	1   9
Error in line 930:   	C3 	 	   6	  	 5 8 		
Error in line 931: 	 	  C4		 	  6   	 	 8		7		    
Error in line 932: 				 D2 7 	 5		8	  
Error in line 933: 	 		C9  			 	6 		96	 				
Error in line 934:    	  R9		 		 9 			10   	   8				  
Error in line 935:   	  D0 		10  7  	    		2 		 
Error in line 936: 	  T6	  	  5	   			5		2					 1  	
Error in line 937: 	 		 	 T7 9 	4 			 	5  6 	
Error in line 938: 		 C9 3   		  7 			8
Error in line 939: 	    	R7 1			3 	9	 
Error in line 940: 	 D77	4	   8 	
Error in line 941:  	     	R8	2	  	5	  1			
Error in line 942:   			  T1 	10				 7	 1 		  	 4 		  
Error in line 943: 			  		D7  2 			 		4   10 
Error in line 944:   	  D5	  1	 	 	 4	 7	  
Error in line 945: 	  R1 1			 	 5    8   	
Error in line 946: 	T9 	9  		10 			  6		5 		
Error in line 947: 	  	   D9	 	 	3 	  9		7	  
Error in line 948: 			  T8		8	   			1	 1	   9	   
Error in line 949:      R5	 		9   					4 		4 			  	
Error in line 950: 				R7			6	10 	   10 	
Error in line 951:   T9	2    		 	22    	1 	 		
Error in line 952: C4 	 		2 	 	 6	   	6 
Error in line 953: 	  			D6   7		    5	 6		 		  
Error in line 954:   	C5	 	5				 	2 	 8 
Error in line 955: 	C6 	 5 				4   9 
Error in line 956:  D5		4  	10			4		  	  	
Error in line 957:  					R4     		7    		10		6 
Error in line 958: 		T6 	 9 				 5		   5 	3	 			 
Error in line 959:  R2 		1	 	  10			 2 	
Error in line 960: 			 	T8   10 		  1	    5 	  		 9 	  	 
Error in line 961:  	C3			  	5	5	7		
Error in line 962:  		  R6	  		 	5  			1   	4 			 
Error in line 963: 			D0    	6  		 	 3  	 	5  		 
Error in line 964:  R7 	 	   7 9	 	  1 			
Error in line 965: 		  	 T75 5   		24				 	 
Error in line 966:  D5 	7		 		8 3		
Error in line 967: 	R2  				3 		9 1	   	
Error in line 968: 		  		R7				7 			 	5	7	
Error in line 969:   	R4  5 			  6  	5
Error in line 970: 	 T8  	 8 	10	    		6   		1 
Error in line 971: 	 	 T2 		61 	 9 1		 	   
Error in line 972:  				 	T1 2	9	  		8 	7 
Error in line 973: 	C0	 5	9 			9		  	 	
Error in line 974: 		D9 	 	 4 	 	3 		7		 	
Error in line 975: 	  	 	 	D2	    2		5	  	 	4	
Error in line 976:   	R2			   5	  			7	 		9				 
Error in line 977: 	 		 C1        2 	  8			   	3	  	 					
Error in line 978: 		 D5		 	 10 	24   
Error in line 979: 			C3 	10 	  1 			4 
Error in line 980: 	 C5	 	   7 	 	 4 		 3					 
Error in line 981: 			  R1	 		7	   2  		  10 
Error in line 982: 					 D5				1	8				  9		  	
Error in line 983:   	  T5 	6   	8		 7  		  2
Error in line 984:  				 	 R3	  9		  	19      
Error in line 985: 	 	 C2			4 	 	  	 6    6 
Error in line 986:  	 R8		9  	  9   4 		
Error in line 987:  		R3		 	9	9 	8 	  
Error in line 988: 		T6				7 			 6		  3  	 6			 
Error in line 989: 	 T58		7		   	 4 	  3  
Error in line 990:  R7	4	2 	9	    	
Error in line 991:  		 		R2  	 	2				 			1	 	 10  	   
Error in line 992:  		C4  		 4 3	  			7 
Error in line 993: 	  	    D1 10	 	1		5
Error in line 994:   R6			8	 5		2   		 	 
Error in line 995:  			C6	 	 		10 	8	 10  	  
Error in line 996: 					D2			 	  1	 		 8  	8		 	
Error in line 997: 			T3   	  7	 		 1	  	 4	  	 8	 	  	
Error in line 998: R6			 			3 8	  	 4	 	
Error in line 999: 		T2				 		1 		 	2	 	3	 	 	4		
Error in line 1000: D0		8	5 9  		  
Warning, unconnected node(s): 0
